33D32945 STP File, STP Format Version 1.0

SECTION Comments
Name "cube_n13_d9_s4"
Problem "Euclidean Steiner Tree Problem"
Remark "Generated with STPGenerator. 9 dimensions."
END

SECTION Graph
Nodes 13
END

SECTION Coordinates
DDDDDDDDD 0 0.9164578756 0.1339819669 0.1912108968 0.2600808285 0.2142811954 0.3601613163 0.4198029756 0.6540782580 0.1943656375
DDDDDDDDD 1 0.3097259371 0.5068725648 0.1146662767 0.5706952487 0.6701787769 0.9271462466 0.2973426200 0.6824838476 0.0102189095
DDDDDDDDD 2 0.7238869563 0.0950620273 0.2335532183 0.1585821640 0.7489994023 0.9178017638 0.3488313283 0.3430800132 0.2595131855
DDDDDDDDD 3 0.6990013098 0.2817635985 0.6604524426 0.8649749825 0.1982214736 0.7944344100 0.0561858788 0.4583023020 0.0087156049
DDDDDDDDD 4 0.4163471956 0.8781052776 0.6627938634 0.6107128331 0.1878312143 0.1696664277 0.7253791097 0.7585264629 0.8398452051
DDDDDDDDD 5 0.6525253559 0.0558690829 0.5223290522 0.6627442654 0.7797560393 0.6173910795 0.8962974837 0.9383382033 0.3663904813
DDDDDDDDD 6 0.8140992475 0.2871695311 0.7094704950 0.0736124325 0.9861708409 0.9912340934 0.7340648755 0.8511458234 0.1894555666
DDDDDDDDD 7 0.5284992850 0.9073317023 0.6477578690 0.5372148899 0.3236788974 0.5258631462 0.2000087528 0.9343917304 0.7136943609
DDDDDDDDD 8 0.3696751810 0.6597708402 0.4722208234 0.2095203857 0.3122961956 0.5280899063 0.7318494379 0.9750404614 0.3078459451
DDDDDDDDD 9 0.3492405169 0.8713379446 0.2461841480 0.7156309987 0.6854371916 0.5333536796 0.4251014932 0.7590496246 0.5195245200
DDDDDDDDD 10 0.4163355862 0.4931144996 0.3706703430 0.6057911527 0.0216137841 0.2780020452 0.2535490213 0.5588286741 0.6016809426
DDDDDDDDD 11 0.7794121680 0.7588374274 0.5360726731 0.4931065284 0.1285126079 0.1958435127 0.9653273518 0.3380329936 0.5081397083
DDDDDDDDD 12 0.4934172581 0.0698824311 0.4831801692 0.8012632033 0.4191229480 0.3545181138 0.0474473513 0.1347539463 0.0399553050
END
