33D32945 STP File, STP Format Version 1.0

SECTION Comments
Name "cube_n13_d9_s5"
Problem "Euclidean Steiner Tree Problem"
Remark "Generated with STPGenerator. 9 dimensions."
END

SECTION Graph
Nodes 13
END

SECTION Coordinates
DDDDDDDDD 0 0.2747455962 0.0464677648 0.9927552245 0.0800304450 0.1476887968 0.0796446726 0.2805664764 0.4484554052 0.4982478328
DDDDDDDDD 1 0.8940018629 0.0156746367 0.2746502162 0.9714187407 0.2212781451 0.4164950971 0.2561370005 0.3634193076 0.2718471113
DDDDDDDDD 2 0.4159667661 0.2562429226 0.3028504617 0.4612696383 0.4511669648 0.2853909383 0.0763532385 0.8217415124 0.9652387276
DDDDDDDDD 3 0.3917416899 0.3736224269 0.9697014317 0.4773686391 0.6483680232 0.0161691960 0.4701238631 0.7283984682 0.1638579933
DDDDDDDDD 4 0.5497685357 0.0089649442 0.6123133984 0.0480163680 0.9029668076 0.6279880356 0.3226665842 0.8743855478 0.8492661807
DDDDDDDDD 5 0.7391616813 0.1305225478 0.2126854878 0.0110087921 0.5464893140 0.4689284104 0.3138592538 0.0077589517 0.9200953757
DDDDDDDDD 6 0.5992501921 0.0841121902 0.7418368877 0.5644889192 0.4758538806 0.1154593141 0.5341903505 0.9532225197 0.7638273373
DDDDDDDDD 7 0.5503595469 0.4233463823 0.4922258055 0.7142175402 0.9731149180 0.5011907497 0.3265309382 0.0211312855 0.4041575568
DDDDDDDDD 8 0.9545189738 0.3437978697 0.2785431041 0.8037851540 0.0829595505 0.4090656519 0.0164706414 0.0939683426 0.9555549659
DDDDDDDDD 9 0.4853990523 0.4078275964 0.9633139181 0.4054944275 0.0070777880 0.0474261078 0.1473313147 0.5715667077 0.5232799885
DDDDDDDDD 10 0.2627906288 0.1057570577 0.4765025077 0.0266179657 0.6561166046 0.8998488900 0.5188437712 0.3703341444 0.8729638075
DDDDDDDDD 11 0.0200345209 0.6968650830 0.8940950930 0.4241920777 0.6513840564 0.2378929622 0.7027351822 0.4551692104 0.3208525126
DDDDDDDDD 12 0.1118008337 0.4716398518 0.4148208552 0.0673557995 0.9570389041 0.8226484516 0.0306697171 0.3625333311 0.8297262401
END
