33D32945 STP File, STP Format Version 1.0

SECTION Comments
Name "cube_n13_d7_s12"
Problem "Euclidean Steiner Tree Problem"
Remark "Generated with STPGenerator. 7 dimensions."
END

SECTION Graph
Nodes 13
END

SECTION Coordinates
DDDDDDD 0 0.7856002826 0.4401777473 0.1151188249 0.8235438768 0.6883942167 0.1299254853 0.3111650372
DDDDDDD 1 0.5165184259 0.6420080073 0.4910349215 0.0853253426 0.4141814399 0.2860070939 0.0876902482
DDDDDDD 2 0.3650377357 0.4803538809 0.6394705305 0.1302257493 0.7771808131 0.8949633971 0.8192397947
DDDDDDD 3 0.6017836037 0.3779945804 0.8946192055 0.1970067798 0.1855946668 0.9467040281 0.7767066670
DDDDDDD 4 0.0319536450 0.6816179667 0.8094309405 0.8175539276 0.1217957135 0.9245497658 0.6410978039
DDDDDDD 5 0.8101899306 0.0544752507 0.9522628411 0.3267083561 0.6964832580 0.4432977626 0.4120336987
DDDDDDD 6 0.1106646979 0.7293048565 0.4997239469 0.4757024336 0.2096587369 0.1391944774 0.6059281829
DDDDDDD 7 0.9868395505 0.0341578741 0.4251679771 0.5886231538 0.4121524544 0.3197871825 0.7856299336
DDDDDDD 8 0.5977471213 0.2664912102 0.5623366006 0.6297007662 0.9481091769 0.3717675406 0.4472546938
DDDDDDD 9 0.0699048904 0.2963173060 0.0883524972 0.8800948210 0.3507925572 0.0406153384 0.2068031766
DDDDDDD 10 0.0472758147 0.4839131010 0.6188368754 0.1579405126 0.2132179570 0.1185608218 0.6336429467
DDDDDDD 11 0.4228766944 0.2577552992 0.2395711291 0.4097162445 0.2919131733 0.6647391066 0.9983393983
DDDDDDD 12 0.7040656277 0.9845262892 0.7839693314 0.3018127490 0.2510174989 0.3463059316 0.9315135153
END
