33D32945 STP File, STP Format Version 1.0

SECTION Comments
Name "cube_n13_d7_s17"
Problem "Euclidean Steiner Tree Problem"
Remark "Generated with STPGenerator. 7 dimensions."
END

SECTION Graph
Nodes 13
END

SECTION Coordinates
DDDDDDD 0 0.5717940003 0.0018524737 0.1227083798 0.9171544332 0.8540148287 0.2275495600 0.1078885724
DDDDDDD 1 0.4860870128 0.6620165676 0.9043156765 0.6258278161 0.2151280480 0.2804932088 0.3381360212
DDDDDDD 2 0.8132569412 0.7641613385 0.5371329414 0.4402770090 0.7264149760 0.6913943327 0.1680129702
DDDDDDD 3 0.6031280205 0.3763264294 0.7351060159 0.8217135835 0.0627080598 0.4779169375 0.2268656857
DDDDDDD 4 0.9706272744 0.2301676097 0.3574414162 0.5424212746 0.2320200839 0.4801497965 0.4595757073
DDDDDDD 5 0.0860349122 0.7076993565 0.5674642797 0.5721219250 0.3697159241 0.4717799562 0.1979497407
DDDDDDD 6 0.5848439720 0.7522731650 0.5360857619 0.3981009128 0.5164345030 0.0732187028 0.8383779218
DDDDDDD 7 0.2428494786 0.7646130355 0.0063908915 0.8459774991 0.1409394644 0.7414969079 0.6676910821
DDDDDDD 8 0.2036475247 0.2194138450 0.8945567677 0.1742747986 0.4495814547 0.2519981839 0.7166960732
DDDDDDD 9 0.6816015386 0.7321479804 0.1762717800 0.7676364508 0.4398473364 0.7437360602 0.3397583754
DDDDDDD 10 0.8095632604 0.2155160160 0.5377081160 0.3944072320 0.9677891810 0.0737938779 0.7925081452
DDDDDDD 11 0.4842236841 0.1470125807 0.6308860665 0.7270731627 0.9116256167 0.6372769585 0.5730506617
DDDDDDD 12 0.0525650806 0.3787738659 0.2407417434 0.2562126053 0.5981877109 0.1352985111 0.4304874043
END
