33D32945 STP File, STP Format Version 1.0

SECTION Comments
Name "cube_n8_d9_s46"
Problem "Euclidean Steiner Tree Problem"
Remark "Generated with STPGenerator. 9 dimensions."
END

SECTION Graph
Nodes 8
END

SECTION Coordinates
DDDDDDDDD 0 0.4696959581 0.4854901943 0.4042461926 0.7061174278 0.9462171723 0.1370705227 0.0844243104 0.5482809849 0.0280388566
DDDDDDDDD 1 0.8680997448 0.9082862325 0.9183224421 0.4284378902 0.8492767708 0.0796413781 0.1055795798 0.3157934068 0.1158501856
DDDDDDDDD 2 0.8452832088 0.8998082606 0.2806415555 0.9451450268 0.2765807278 0.0144947227 0.0034960154 0.9854360809 0.0812585769
DDDDDDDDD 3 0.4243695994 0.1816147301 0.3554427341 0.7549710999 0.6513106882 0.8409329284 0.1592172925 0.3574281155 0.7871501002
DDDDDDDDD 4 0.2962878152 0.4418524259 0.3354310847 0.3243266718 0.3099521703 0.2437173171 0.2426491134 0.7383900605 0.0929940874
DDDDDDDDD 5 0.3222904919 0.8439696402 0.4087874943 0.4381406775 0.6892528486 0.3085957548 0.7187822329 0.6343978749 0.5851764826
DDDDDDDDD 6 0.7332769557 0.6378938908 0.5706125631 0.8145355325 0.0622634897 0.7522272932 0.1699782662 0.8172345901 0.4035379809
DDDDDDDDD 7 0.0109111946 0.9764518826 0.7609660964 0.7980612949 0.2727396974 0.2028185219 0.1334923795 0.5970663692 0.5127706926
END
