33D32945 STP File, STP Format Version 1.0

SECTION Comments
Name "cube_n11_d9_s11"
Problem "Euclidean Steiner Tree Problem"
Remark "Generated with STPGenerator. 9 dimensions."
END

SECTION Graph
Nodes 11
END

SECTION Coordinates
DDDDDDDDD 0 0.9263453185 0.5264996991 0.3097808907 0.5022105041 0.7537675108 0.4059770589 0.4484664097 0.2208949445 0.8329159067
DDDDDDDDD 1 0.4041060449 0.0752406661 0.2481696737 0.3817098766 0.0352495974 0.3687719635 0.5168204054 0.9570931466 0.3607239967
DDDDDDDDD 2 0.5789050197 0.7321704266 0.2410501816 0.7910995301 0.1739375839 0.0170635157 0.4592865964 0.7046087811 0.7298904530
DDDDDDDDD 3 0.0711031715 0.4371118506 0.8601203439 0.1809798303 0.3634571686 0.3866200426 0.4907607210 0.8656676732 0.1403875533
DDDDDDDDD 4 0.8967377799 0.3141340824 0.3612824978 0.7296536866 0.7182401273 0.4365231644 0.9778233603 0.0999500035 0.4717727618
DDDDDDDDD 5 0.3465953233 0.6167704093 0.4288659084 0.7073193200 0.1956754286 0.1610363345 0.9483695021 0.9867749587 0.3349739184
DDDDDDDDD 6 0.9654330178 0.4460615546 0.0395826991 0.6953234704 0.5171647261 0.4766945497 0.5554438138 0.6981445563 0.8401517187
DDDDDDDDD 7 0.9420638568 0.1889052769 0.7058193915 0.0824514097 0.0856430568 0.0199534735 0.4437339075 0.8152967434 0.7381936008
DDDDDDDDD 8 0.8802570719 0.7931201033 0.8381436047 0.3520298336 0.1397154262 0.4549140136 0.7808957420 0.8470347462 0.6505894422
DDDDDDDDD 9 0.9419320766 0.7954042478 0.6373644004 0.2769059945 0.7608372652 0.0834259545 0.3164886936 0.4561607356 0.6005906805
DDDDDDDDD 10 0.7931832433 0.0116045489 0.2987352364 0.6333349615 0.9536684057 0.4876405133 0.3391543526 0.0361198150 0.5732835702
END
