33D32945 STP File, STP Format Version 1.0

SECTION Comments
Name "cube_n11_d9_s47"
Problem "Euclidean Steiner Tree Problem"
Remark "Generated with STPGenerator. 9 dimensions."
END

SECTION Graph
Nodes 11
END

SECTION Coordinates
DDDDDDDDD 0 0.8256802293 0.8959328252 0.2042499758 0.0233809524 0.3771066863 0.3547250220 0.9420667789 0.3395639064 0.3297338986
DDDDDDDDD 1 0.9487606892 0.4132981074 0.5756729662 0.8249852354 0.3957488953 0.5658004533 0.0595591958 0.9910994321 0.8735950118
DDDDDDDDD 2 0.5318192572 0.0541652870 0.8451914260 0.7414528996 0.4705074068 0.3762617672 0.7236746008 0.4541832616 0.7798275243
DDDDDDDDD 3 0.6086481370 0.7615917403 0.6558818466 0.3575952460 0.5872719691 0.5518146714 0.5618452218 0.6106529220 0.9289213582
DDDDDDDDD 4 0.9165702439 0.5527197004 0.2684852640 0.2463041419 0.5014803892 0.6817833715 0.8219771086 0.3264656241 0.0775322663
DDDDDDDDD 5 0.3877775615 0.3860248203 0.0686316979 0.2613725733 0.9178440775 0.1227969854 0.1065639989 0.6592969767 0.5933043922
DDDDDDDDD 6 0.4828257661 0.3829715771 0.0474876533 0.2626532900 0.9916197141 0.8090793941 0.9185351370 0.3492149596 0.3963513628
DDDDDDDDD 7 0.4703498080 0.9110601819 0.0070042843 0.3992711657 0.8276304253 0.5597239852 0.6677564297 0.0739345672 0.0612043739
DDDDDDDDD 8 0.3495398012 0.8959116758 0.3876699984 0.4270720675 0.2836892369 0.7736948187 0.4957037659 0.5450618102 0.6915388958
DDDDDDDDD 9 0.6185007513 0.6516258096 0.3508358720 0.2118051430 0.1344515752 0.7338074491 0.2592927964 0.3971048656 0.7254271627
DDDDDDDDD 10 0.0683721900 0.3156400022 0.0746421223 0.4647235533 0.7859898101 0.9857023042 0.4717278376 0.1852609758 0.8133327290
END
