33D32945 STP File, STP Format Version 1.0

SECTION Comments
Name "cube_n7_d7_s28"
Problem "Euclidean Steiner Tree Problem"
Remark "Generated with STPGenerator. 7 dimensions."
END

SECTION Graph
Nodes 7
END

SECTION Coordinates
DDDDDDD 0 0.5171551050 0.0449436945 0.4524295369 0.4422129730 0.1277577337 0.1569511728 0.0837527169
DDDDDDD 1 0.7310733133 0.0224596341 0.3412099454 0.2301648130 0.4956663146 0.7013661609 0.4085638460
DDDDDDD 2 0.7201248397 0.8276713341 0.0367873907 0.8458900362 0.8608830030 0.4750771162 0.9620311726
DDDDDDD 3 0.9602391431 0.1126118736 0.8147720088 0.3593030024 0.8427590313 0.2819298144 0.8907198030
DDDDDDD 4 0.9989762641 0.1782195168 0.6481475037 0.5161313692 0.2231632118 0.1005770402 0.9583443422
DDDDDDD 5 0.3509209456 0.2575282130 0.0420970586 0.0819942584 0.2799878476 0.3833070041 0.3121590714
DDDDDDD 6 0.7756541622 0.0846731649 0.7207229173 0.4957790014 0.9123444990 0.7575103081 0.3416690372
END
