33D32945 STP File, STP Format Version 1.0

SECTION Comments
Name "cube_n11_d7_s8"
Problem "Euclidean Steiner Tree Problem"
Remark "Generated with STPGenerator. 7 dimensions."
END

SECTION Graph
Nodes 11
END

SECTION Coordinates
DDDDDDD 0 0.3527607286 0.7895895954 0.9058258696 0.0438874350 0.9542649202 0.2482710840 0.8679820145
DDDDDDD 1 0.8387081427 0.9220907362 0.6533997663 0.5500675400 0.2691321919 0.6820132009 0.3835517202
DDDDDDD 2 0.9017543196 0.6433020787 0.9163497486 0.5770127282 0.0059619849 0.7512683970 0.5345170878
DDDDDDD 3 0.8868077020 0.5707898632 0.9158954317 0.2810107266 0.2728543464 0.6146288172 0.9977393495
DDDDDDD 4 0.1668278385 0.9347036872 0.8492760145 0.5195885676 0.7242932826 0.7551018837 0.5634760026
DDDDDDD 5 0.6785582023 0.0033729677 0.4314580166 0.5172663450 0.9254637039 0.0848577824 0.0673338846
DDDDDDD 6 0.1945958953 0.7668709838 0.4508856048 0.0963502145 0.4101730620 0.3672353534 0.6733629432
DDDDDDD 7 0.4161350468 0.1185037499 0.2078800305 0.3029427488 0.6892936130 0.1237754617 0.5839534754
DDDDDDD 8 0.9621479600 0.7384042790 0.5816928249 0.1289757980 0.6731079657 0.4309688389 0.6485643655
DDDDDDD 9 0.3974012478 0.1860707221 0.2120403681 0.0759594501 0.1894436899 0.6434983847 0.5932257951
DDDDDDD 10 0.1149073938 0.7283561675 0.6605596797 0.3095032891 0.4952271508 0.1114452845 0.4058535040
END
