33D32945 STP File, STP Format Version 1.0

SECTION Comments
Name "cube_n9_d4_s36"
Problem "Euclidean Steiner Tree Problem"
Remark "Generated with STPGenerator. 4 dimensions."
END

SECTION Graph
Nodes 9
END

SECTION Coordinates
DDDD 0 0.3812597861 0.3492478469 0.8728369269 0.9995752056
DDDD 1 0.5993793447 0.9228681605 0.4677818946 0.0902298559
DDDD 2 0.4658759178 0.5137684199 0.8042997703 0.7905323886
DDDD 3 0.4063076491 0.8204223732 0.1528823809 0.9984735842
DDDD 4 0.4864156537 0.4601904710 0.3998939984 0.2654632643
DDDD 5 0.5413149840 0.3868324786 0.2293901449 0.7843163962
DDDD 6 0.1882775664 0.1697030753 0.9607357951 0.4463474226
DDDD 7 0.2294683951 0.6895571163 0.5673471180 0.6107281813
DDDD 8 0.0388049632 0.4401840444 0.6103033869 0.6381843079
END
