33D32945 STP File, STP Format Version 1.0

SECTION Comments
Name "cube_n9_d4_s37"
Problem "Euclidean Steiner Tree Problem"
Remark "Generated with STPGenerator. 4 dimensions."
END

SECTION Graph
Nodes 9
END

SECTION Coordinates
DDDD 0 0.2394123931 0.7611420498 0.1745217923 0.8194240331
DDDD 1 0.0320747178 0.6424573714 0.3284930686 0.8837608927
DDDD 2 0.2698044499 0.5980566296 0.3121092172 0.4504713320
DDDD 3 0.8071258347 0.3703712553 0.6420550997 0.9574638638
DDDD 4 0.1660335614 0.7214625924 0.5922896800 0.9251535474
DDDD 5 0.6100173786 0.6899730524 0.4298925630 0.1510021729
DDDD 6 0.9164035199 0.1465295028 0.1651677811 0.6398503048
DDDD 7 0.8193347011 0.9970282237 0.1806596616 0.0587470937
DDDD 8 0.7581702730 0.3551814539 0.8781711272 0.7902449909
END
