33D32945 STP File, STP Format Version 1.0

SECTION Comments
Name "cube_n9_d4_s43"
Problem "Euclidean Steiner Tree Problem"
Remark "Generated with STPGenerator. 4 dimensions."
END

SECTION Graph
Nodes 9
END

SECTION Coordinates
DDDD 0 0.3921490034 0.2415533509 0.4918181642 0.7429387396
DDDD 1 0.1386943274 0.9690520419 0.4979442570 0.1569527281
DDDD 2 0.6047278813 0.6099463206 0.8727000411 0.9242446869
DDDD 3 0.7194525505 0.1857139022 0.0945956191 0.7204462847
DDDD 4 0.7615132685 0.3106321545 0.2578007133 0.9034257293
DDDD 5 0.0485690669 0.5226562896 0.1556680115 0.8831310002
DDDD 6 0.3024737403 0.0332014114 0.4304443828 0.8226312044
DDDD 7 0.8875873521 0.8883300344 0.8879682691 0.2797363551
DDDD 8 0.1298833849 0.3797864329 0.0226750942 0.2685777122
END
