33D32945 STP File, STP Format Version 1.0

SECTION Comments
Name "cube_n9_d4_s9"
Problem "Euclidean Steiner Tree Problem"
Remark "Generated with STPGenerator. 4 dimensions."
END

SECTION Graph
Nodes 9
END

SECTION Coordinates
DDDD 0 0.2069654480 0.6995153961 0.2034307295 0.3588790108
DDDD 1 0.8845313130 0.4632373589 0.7227528005 0.6292115332
DDDD 2 0.7207948913 0.7304651908 0.0540748500 0.9231773037
DDDD 3 0.0740991244 0.9287021542 0.8842824203 0.0917933952
DDDD 4 0.0898954501 0.3307895457 0.6858023101 0.9032684844
DDDD 5 0.0947479369 0.6750120226 0.2615602367 0.2729728470
DDDD 6 0.9914577939 0.2373887199 0.3081078475 0.6704191042
DDDD 7 0.7412129779 0.2296066420 0.9381766622 0.9481784259
DDDD 8 0.9291220382 0.1416073912 0.3070574362 0.8136533512
END
