33D32945 STP File, STP Format Version 1.0

SECTION Comments
Name "cube_n11_d6_s14"
Problem "Euclidean Steiner Tree Problem"
Remark "Generated with STPGenerator. 6 dimensions."
END

SECTION Graph
Nodes 11
END

SECTION Coordinates
DDDDDD 0 0.9994984996 0.2633149048 0.2158478607 0.4602220480 0.0529571777 0.5661688692
DDDDDD 1 0.0288339364 0.6024998616 0.7466238550 0.6549854328 0.0995092923 0.7305007729
DDDDDD 2 0.5819886180 0.1856662101 0.8394953780 0.3914754770 0.4961270823 0.6485379798
DDDDDD 3 0.1537148399 0.2108905191 0.9520467748 0.6981957097 0.2743996956 0.1229939042
DDDDDD 4 0.1415459719 0.6331634999 0.8501201872 0.1499063168 0.7037021051 0.7905814442
DDDDDD 5 0.5198903161 0.7032006042 0.0538963489 0.7357381767 0.1634226517 0.1068535266
DDDDDD 6 0.3019070454 0.1922565881 0.7093533882 0.0485309004 0.8472420214 0.8088626805
DDDDDD 7 0.7790316733 0.4292306390 0.9945288911 0.6185270509 0.8207061160 0.4906559729
DDDDDD 8 0.2670650302 0.9744209559 0.7015464919 0.2191118045 0.6726166656 0.9759461875
DDDDDD 9 0.3421057087 0.8141626375 0.6091096870 0.1922258954 0.9640689543 0.3128117920
DDDDDD 10 0.9828073401 0.4839592699 0.0160123957 0.0367036886 0.2196974462 0.1794350479
END
