33D32945 STP File, STP Format Version 1.0

SECTION Comments
Name "cube_n11_d6_s15"
Problem "Euclidean Steiner Tree Problem"
Remark "Generated with STPGenerator. 6 dimensions."
END

SECTION Graph
Nodes 11
END

SECTION Coordinates
DDDDDD 0 0.3549731771 0.6731490375 0.5153574038 0.2768868838 0.9831143995 0.7832298362
DDDDDD 1 0.3857721921 0.3929051535 0.0476035024 0.2348172144 0.1034733854 0.3869860398
DDDDDD 2 0.9775588964 0.7308916956 0.3246047955 0.3443029827 0.6699542467 0.4050064401
DDDDDD 3 0.8388915681 0.8634974965 0.5150421176 0.9928987739 0.9662594152 0.9828661391
DDDDDD 4 0.3598284723 0.0994729628 0.0463795699 0.3319424024 0.7808070447 0.5882075376
DDDDDD 5 0.6198589530 0.1357802214 0.2613565746 0.1352163563 0.4126671052 0.2444709736
DDDDDD 6 0.9184461929 0.7984392977 0.6373761276 0.9660496954 0.0332565117 0.7408495130
DDDDDD 7 0.3530357351 0.0108154076 0.4717412081 0.6776405306 0.3551183903 0.1416954548
DDDDDD 8 0.0826469702 0.1940099584 0.0051929508 0.5976890882 0.1869087318 0.9714523661
DDDDDD 9 0.5805552269 0.5467372041 0.0709253289 0.6269347969 0.8786796065 0.8517323736
DDDDDD 10 0.2151423344 0.4985385591 0.9875125955 0.4764989091 0.6337549159 0.4001797002
END
