33D32945 STP File, STP Format Version 1.0

SECTION Comments
Name "cube_n11_d6_s25"
Problem "Euclidean Steiner Tree Problem"
Remark "Generated with STPGenerator. 6 dimensions."
END

SECTION Graph
Nodes 11
END

SECTION Coordinates
DDDDDD 0 0.9393561920 0.8057392150 0.0423321780 0.9785602656 0.3255712615 0.9922046186
DDDDDD 1 0.9965749998 0.8456901428 0.1036064635 0.5821549858 0.7011187615 0.5075186931
DDDDDD 2 0.9913254278 0.7521004219 0.7428126711 0.9414201057 0.9901046399 0.0505868262
DDDDDD 3 0.7723662428 0.4866999432 0.7424799096 0.5370173396 0.9999918654 0.1990076612
DDDDDD 4 0.6581573387 0.8989526019 0.6503086554 0.7898902324 0.7133313109 0.2344475841
DDDDDD 5 0.2836491360 0.6526875024 0.0401867987 0.3259813140 0.6312477680 0.3657580602
DDDDDD 6 0.3181859326 0.6278227673 0.2114482025 0.4217923961 0.2099777531 0.9125669640
DDDDDD 7 0.9293110892 0.2013031804 0.6646673855 0.6721237603 0.1427232857 0.6547720249
DDDDDD 8 0.7227105865 0.9150895290 0.1414719681 0.4651904956 0.4521068681 0.1414638330
DDDDDD 9 0.6641981568 0.1102642064 0.0404164344 0.3145068122 0.9001544388 0.7537477458
DDDDDD 10 0.5489543963 0.1838035747 0.4064352477 0.5891411950 0.5097848887 0.0376830152
END
