33D32945 STP File, STP Format Version 1.0

SECTION Comments
Name "cube_n11_d6_s26"
Problem "Euclidean Steiner Tree Problem"
Remark "Generated with STPGenerator. 6 dimensions."
END

SECTION Graph
Nodes 11
END

SECTION Coordinates
DDDDDD 0 0.7955457819 0.2153102822 0.3426214272 0.2961611940 0.2554381654 0.7100804400
DDDDDD 1 0.8547150078 0.6357949691 0.4054190886 0.6635035848 0.7047985609 0.1648330605
DDDDDD 2 0.8887816281 0.2970957897 0.7287201051 0.3965607492 0.6638084062 0.3077898539
DDDDDD 3 0.4603446049 0.1393605741 0.3061093089 0.3350736878 0.6921740634 0.5593727015
DDDDDD 4 0.8804080379 0.3659706252 0.3468769250 0.9765705247 0.2916780218 0.0321567464
DDDDDD 5 0.8889940641 0.0872238032 0.2474670286 0.2316154909 0.3833849972 0.5029051940
DDDDDD 6 0.9416959309 0.2381000050 0.1387001626 0.3471150195 0.9016035897 0.8434987240
DDDDDD 7 0.5119480800 0.7903852178 0.1405945132 0.2406681847 0.1869459665 0.8044029194
DDDDDD 8 0.5484580386 0.6472905719 0.9437634935 0.8545673480 0.9823642597 0.6359375565
DDDDDD 9 0.4139400490 0.8627722971 0.0019081812 0.7608169740 0.8393428213 0.2935862030
DDDDDD 10 0.7929737204 0.7283368850 0.3808100067 0.0404407485 0.9599523763 0.7641950039
END
