33D32945 STP File, STP Format Version 1.0

SECTION Comments
Name "cube_n11_d6_s3"
Problem "Euclidean Steiner Tree Problem"
Remark "Generated with STPGenerator. 6 dimensions."
END

SECTION Graph
Nodes 11
END

SECTION Coordinates
DDDDDD 0 0.5613801752 0.2249833128 0.3930917794 0.4439383934 0.2850412509 0.1447810513
DDDDDD 1 0.5635544996 0.8646787037 0.8954018363 0.2308046744 0.0040116059 0.4605808875
DDDDDD 2 0.1763232952 0.6261662299 0.9448735988 0.8460845993 0.0099969395 0.2570808750
DDDDDD 3 0.0407533725 0.4439474528 0.1744425461 0.3665206686 0.0588192782 0.5624328081
DDDDDD 4 0.1339392146 0.8786863870 0.5684438560 0.5212840333 0.2068786268 0.8687753225
DDDDDD 5 0.7704661483 0.7682588020 0.0937586353 0.1635579272 0.2121971949 0.3787998862
DDDDDD 6 0.3083389789 0.7757516945 0.2434785898 0.2037408148 0.0065563684 0.2474901957
DDDDDD 7 0.6643217023 0.1828796636 0.8736564260 0.6091953011 0.0289642629 0.8836533655
DDDDDD 8 0.8662761761 0.0697176354 0.3276008178 0.0407187217 0.4362383040 0.3864200960
DDDDDD 9 0.6031515303 0.5701775186 0.2651064826 0.1715953858 0.0914615514 0.4719851094
DDDDDD 10 0.0403707079 0.8619277002 0.2402439114 0.1341293432 0.0254856269 0.4524411063
END
