33D32945 STP File, STP Format Version 1.0

SECTION Comments
Name "cube_n11_d6_s38"
Problem "Euclidean Steiner Tree Problem"
Remark "Generated with STPGenerator. 6 dimensions."
END

SECTION Graph
Nodes 11
END

SECTION Coordinates
DDDDDD 0 0.5982263575 0.1752538104 0.4766825421 0.1399146664 0.4673976025 0.8627957766
DDDDDD 1 0.6898134000 0.1803749400 0.5748512617 0.1829102199 0.3235021184 0.6120159149
DDDDDD 2 0.7084588719 0.4244470016 0.6334648415 0.4169194100 0.3503611406 0.4857762337
DDDDDD 3 0.7851141266 0.5901703474 0.1827713406 0.9935369142 0.1363650975 0.5229908035
DDDDDD 4 0.1450036579 0.1299871505 0.3764338714 0.8339692707 0.9164997460 0.3131860557
DDDDDD 5 0.2948672400 0.5147261031 0.4884398666 0.7715497821 0.6546407694 0.9558374691
DDDDDD 6 0.6343455583 0.3444541690 0.1362124086 0.2091968196 0.5273643888 0.4597145270
DDDDDD 7 0.8212127349 0.2358232607 0.8841615286 0.4546775759 0.6527426707 0.2345226692
DDDDDD 8 0.9404538097 0.4378567969 0.8246930166 0.1232251502 0.4313937111 0.9610581146
DDDDDD 9 0.6462159537 0.5763973690 0.0910452647 0.0226498251 0.4103666397 0.0075450102
DDDDDD 10 0.3358358808 0.7052338797 0.5222711137 0.8242757473 0.4767836614 0.1769118827
END
