33D32945 STP File, STP Format Version 1.0

SECTION Comments
Name "cube_n5_d5_s19"
Problem "Euclidean Steiner Tree Problem"
Remark "Generated with STPGenerator. 5 dimensions."
END

SECTION Graph
Nodes 5
END

SECTION Coordinates
DDDDD 0 0.2902333854 0.3277869785 0.2285638117 0.0594177293 0.2219586108
DDDDD 1 0.6696780285 0.3323929949 0.5761897869 0.2733734680 0.0765914861
DDDDD 2 0.6450726547 0.0391567499 0.5865659870 0.9423629041 0.7965240673
DDDDD 3 0.6874572605 0.9015435013 0.9686559904 0.6175688950 0.5169671907
DDDDD 4 0.3123343211 0.2170182561 0.7847483530 0.4766765621 0.2870572444
END
