33D32945 STP File, STP Format Version 1.0

SECTION Comments
Name "cube_n5_d5_s21"
Problem "Euclidean Steiner Tree Problem"
Remark "Generated with STPGenerator. 5 dimensions."
END

SECTION Graph
Nodes 5
END

SECTION Coordinates
DDDDD 0 0.5058995711 0.1543681692 0.3336426291 0.6982897980 0.0904165954
DDDDD 1 0.6112220658 0.0528075560 0.6665685525 0.8844101391 0.2439990897
DDDDD 2 0.1642170884 0.3632087118 0.3869168281 0.0459364807 0.2802418788
DDDDD 3 0.1041107807 0.2645267724 0.9979975852 0.0011071404 0.3400666059
DDDDD 4 0.9582093637 0.8222869392 0.1893208209 0.7204574974 0.7427683257
END
