33D32945 STP File, STP Format Version 1.0

SECTION Comments
Name "cube_n5_d5_s35"
Problem "Euclidean Steiner Tree Problem"
Remark "Generated with STPGenerator. 5 dimensions."
END

SECTION Graph
Nodes 5
END

SECTION Coordinates
DDDDD 0 0.5244897048 0.4379004908 0.0703035561 0.1812310276 0.1675375119
DDDDD 1 0.7022328906 0.1086744881 0.7979400231 0.6606961906 0.4311483691
DDDDD 2 0.7982122655 0.1291394788 0.0071734451 0.7727813925 0.1620692490
DDDDD 3 0.0411185827 0.8098084530 0.6971266361 0.7090024225 0.6096137295
DDDDD 4 0.4707293680 0.5849627301 0.0336940070 0.4157471649 0.4610662150
END
