33D32945 STP File, STP Format Version 1.0

SECTION Comments
Name "cube_n5_d5_s49"
Problem "Euclidean Steiner Tree Problem"
Remark "Generated with STPGenerator. 5 dimensions."
END

SECTION Graph
Nodes 5
END

SECTION Coordinates
DDDDD 0 0.0418115836 0.2200377310 0.3087208249 0.1629512739 0.7427612197
DDDDD 1 0.2952385462 0.6634417692 0.9268148322 0.4391896513 0.6174133409
DDDDD 2 0.9290067493 0.8974420614 0.6268771643 0.9956121147 0.5463564538
DDDDD 3 0.9780446412 0.8501515877 0.8986921589 0.4174514107 0.3731905494
DDDDD 4 0.4855085041 0.3490163122 0.8709676535 0.6129136903 0.1817772687
END
