33D32945 STP File, STP Format Version 1.0

SECTION Comments
Name "cube_n6_d5_s4"
Problem "Euclidean Steiner Tree Problem"
Remark "Generated with STPGenerator. 5 dimensions."
END

SECTION Graph
Nodes 6
END

SECTION Coordinates
DDDDD 0 0.9164578756 0.1339819669 0.1912108968 0.2600808285 0.2142811954
DDDDD 1 0.3601613163 0.4198029756 0.6540782580 0.1943656375 0.3097259371
DDDDD 2 0.5068725648 0.1146662767 0.5706952487 0.6701787769 0.9271462466
DDDDD 3 0.2973426200 0.6824838476 0.0102189095 0.7238869563 0.0950620273
DDDDD 4 0.2335532183 0.1585821640 0.7489994023 0.9178017638 0.3488313283
DDDDD 5 0.3430800132 0.2595131855 0.6990013098 0.2817635985 0.6604524426
END
