33D32945 STP File, STP Format Version 1.0

SECTION Comments
Name "cube_n6_d8_s37"
Problem "Euclidean Steiner Tree Problem"
Remark "Generated with STPGenerator. 8 dimensions."
END

SECTION Graph
Nodes 6
END

SECTION Coordinates
DDDDDDDD 0 0.2394123931 0.7611420498 0.1745217923 0.8194240331 0.0320747178 0.6424573714 0.3284930686 0.8837608927
DDDDDDDD 1 0.2698044499 0.5980566296 0.3121092172 0.4504713320 0.8071258347 0.3703712553 0.6420550997 0.9574638638
DDDDDDDD 2 0.1660335614 0.7214625924 0.5922896800 0.9251535474 0.6100173786 0.6899730524 0.4298925630 0.1510021729
DDDDDDDD 3 0.9164035199 0.1465295028 0.1651677811 0.6398503048 0.8193347011 0.9970282237 0.1806596616 0.0587470937
DDDDDDDD 4 0.7581702730 0.3551814539 0.8781711272 0.7902449909 0.9976388258 0.2066641954 0.6740058836 0.2674432752
DDDDDDDD 5 0.8047208254 0.9861151008 0.7179146072 0.6118466596 0.3564863561 0.3599697064 0.5693105229 0.5225199175
END
