33D32945 STP File, STP Format Version 1.0

SECTION Comments
Name "cube_n8_d5_s15"
Problem "Euclidean Steiner Tree Problem"
Remark "Generated with STPGenerator. 5 dimensions."
END

SECTION Graph
Nodes 8
END

SECTION Coordinates
DDDDD 0 0.3549731771 0.6731490375 0.5153574038 0.2768868838 0.9831143995
DDDDD 1 0.7832298362 0.3857721921 0.3929051535 0.0476035024 0.2348172144
DDDDD 2 0.1034733854 0.3869860398 0.9775588964 0.7308916956 0.3246047955
DDDDD 3 0.3443029827 0.6699542467 0.4050064401 0.8388915681 0.8634974965
DDDDD 4 0.5150421176 0.9928987739 0.9662594152 0.9828661391 0.3598284723
DDDDD 5 0.0994729628 0.0463795699 0.3319424024 0.7808070447 0.5882075376
DDDDD 6 0.6198589530 0.1357802214 0.2613565746 0.1352163563 0.4126671052
DDDDD 7 0.2444709736 0.9184461929 0.7984392977 0.6373761276 0.9660496954
END
