33D32945 STP File, STP Format Version 1.0

SECTION Comments
Name "cube_n8_d5_s16"
Problem "Euclidean Steiner Tree Problem"
Remark "Generated with STPGenerator. 5 dimensions."
END

SECTION Graph
Nodes 8
END

SECTION Coordinates
DDDDD 0 0.2154374701 0.0895364271 0.3215230151 0.5994994997 0.9209823329
DDDDD 1 0.0083380486 0.2498201687 0.6923724262 0.3582976681 0.8231695224
DDDDD 2 0.1180784167 0.5551794663 0.3833639991 0.2886057418 0.8238008194
DDDDD 3 0.3094491373 0.8584360545 0.6783925484 0.0389199243 0.0333043621
DDDDD 4 0.0983172874 0.3055314134 0.1783176238 0.3670024752 0.0997784725
DDDDD 5 0.5895236719 0.2716148031 0.0401816108 0.8858513329 0.9203709387
DDDDD 6 0.7515285484 0.1012888030 0.0099073653 0.0730515630 0.7007883027
DDDDD 7 0.9308896982 0.0813896121 0.9506084719 0.6232621240 0.4396872802
END
