33D32945 STP File, STP Format Version 1.0

SECTION Comments
Name "cube_n8_d5_s40"
Problem "Euclidean Steiner Tree Problem"
Remark "Generated with STPGenerator. 5 dimensions."
END

SECTION Graph
Nodes 8
END

SECTION Coordinates
DDDDD 0 0.8194229132 0.5062902763 0.0883140588 0.7855343049 0.3411775247
DDDDD 1 0.8119810777 0.9184383005 0.2771394566 0.1947866791 0.8602793272
DDDDD 2 0.3503405700 0.4464217548 0.0208598026 0.0373252058 0.1292244392
DDDDD 3 0.3481050377 0.7246325052 0.5291235137 0.6861238385 0.9269996448
DDDDD 4 0.8449453608 0.1197466637 0.0576706543 0.2857596349 0.6257388632
DDDDD 5 0.6073334080 0.3200811210 0.7510317898 0.6239873639 0.9691653433
DDDDD 6 0.0583464685 0.4434102766 0.4754556192 0.1466605273 0.2289445811
DDDDD 7 0.8166331438 0.9586416050 0.1473828816 0.0937726004 0.1534282836
END
