33D32945 STP File, STP Format Version 1.0

SECTION Comments
Name "cube_n8_d5_s50"
Problem "Euclidean Steiner Tree Problem"
Remark "Generated with STPGenerator. 5 dimensions."
END

SECTION Graph
Nodes 8
END

SECTION Coordinates
DDDDD 0 0.8943212232 0.6286429756 0.1040961771 0.9758517360 0.6714702508
DDDDD 1 0.5076044628 0.0156422849 0.2154678540 0.2348691641 0.1913313205
DDDDD 2 0.4307993098 0.5479775013 0.0151233026 0.0380932228 0.0248203492
DDDDD 3 0.9218689981 0.5204600438 0.6477700405 0.0916402913 0.5212438672
DDDDD 4 0.5403122290 0.1304018107 0.0569058615 0.9637256646 0.3840262170
DDDDD 5 0.8656925191 0.3785816228 0.6610816175 0.5074669032 0.5613598230
DDDDD 6 0.6648593674 0.4017881259 0.1900027982 0.7689555445 0.3776398615
DDDDD 7 0.8614730490 0.2765600068 0.3932821464 0.0769409025 0.5114291709
END
