33D32945 STP File, STP Format Version 1.0

SECTION Comments
Name "cube_n8_d5_s8"
Problem "Euclidean Steiner Tree Problem"
Remark "Generated with STPGenerator. 5 dimensions."
END

SECTION Graph
Nodes 8
END

SECTION Coordinates
DDDDD 0 0.3527607286 0.7895895954 0.9058258696 0.0438874350 0.9542649202
DDDDD 1 0.2482710840 0.8679820145 0.8387081427 0.9220907362 0.6533997663
DDDDD 2 0.5500675400 0.2691321919 0.6820132009 0.3835517202 0.9017543196
DDDDD 3 0.6433020787 0.9163497486 0.5770127282 0.0059619849 0.7512683970
DDDDD 4 0.5345170878 0.8868077020 0.5707898632 0.9158954317 0.2810107266
DDDDD 5 0.2728543464 0.6146288172 0.9977393495 0.1668278385 0.9347036872
DDDDD 6 0.8492760145 0.5195885676 0.7242932826 0.7551018837 0.5634760026
DDDDD 7 0.6785582023 0.0033729677 0.4314580166 0.5172663450 0.9254637039
END
