33D32945 STP File, STP Format Version 1.0

SECTION Comments
Name "cube_n15_d9_s20"
Problem "Euclidean Steiner Tree Problem"
Remark "Generated with STPGenerator. 9 dimensions."
END

SECTION Graph
Nodes 15
END

SECTION Coordinates
DDDDDDDDD 0 0.1488122675 0.7401193766 0.5311698176 0.3798184727 0.6551358368 0.3903584468 0.6938135543 0.3702549456 0.5785871486
DDDDDDDDD 1 0.6617850073 0.1534811920 0.2006002349 0.4885317048 0.9929940151 0.7874475535 0.1478928184 0.0819520862 0.2319531549
DDDDDDDDD 2 0.3117739127 0.1775910422 0.3833652220 0.0224110372 0.9863731647 0.8460247199 0.0179714379 0.5034501541 0.1039613784
DDDDDDDDD 3 0.3216621426 0.2525900748 0.6675356089 0.2145335810 0.4014023423 0.4076549855 0.7457033986 0.7812208150 0.0627908218
DDDDDDDDD 4 0.1360618449 0.4750343694 0.4330457674 0.7146489940 0.1368193762 0.5865269595 0.9152492289 0.6253510810 0.5795209741
DDDDDDDDD 5 0.7026967819 0.7732438994 0.6614730608 0.9346499368 0.0850178120 0.8390641030 0.3180151583 0.1074288493 0.8254372672
DDDDDDDDD 6 0.1640398778 0.1254002872 0.3288874209 0.2680012562 0.4470624302 0.5814774956 0.9355368656 0.6615960112 0.9828798384
DDDDDDDDD 7 0.3431918506 0.4072994093 0.7641006530 0.4059826724 0.5433612548 0.2391350219 0.8390284399 0.2580102483 0.3759543981
DDDDDDDDD 8 0.4255553994 0.1732594767 0.0013054791 0.0050763730 0.8759562587 0.7745493784 0.6665494338 0.8106061950 0.8595671905
DDDDDDDDD 9 0.5056135363 0.1286213529 0.9669960397 0.3310508031 0.2926612307 0.0923963269 0.6599382240 0.5606624873 0.5394587571
DDDDDDDDD 10 0.2414157196 0.4961993524 0.2010547678 0.2242955576 0.8393912031 0.6083541771 0.9883962106 0.2453738750 0.1517154314
DDDDDDDDD 11 0.2275312325 0.0844023144 0.4097256797 0.6034856306 0.5099577138 0.5829851565 0.6047911097 0.5150340872 0.4589414147
DDDDDDDDD 12 0.3793404882 0.1815835206 0.2695476093 0.2389076782 0.6871970574 0.3981689622 0.2059037179 0.0182478600 0.6908301933
DDDDDDDDD 13 0.2983000448 0.6781860845 0.2514926802 0.8377588018 0.9196018041 0.7476920326 0.0388135691 0.1438973612 0.5870832352
DDDDDDDDD 14 0.6471677463 0.1322935713 0.8324571102 0.7988831782 0.3598248038 0.9168594246 0.2086088575 0.9633104349 0.4268171384
END
