33D32945 STP File, STP Format Version 1.0

SECTION Comments
Name "cube_n15_d9_s26"
Problem "Euclidean Steiner Tree Problem"
Remark "Generated with STPGenerator. 9 dimensions."
END

SECTION Graph
Nodes 15
END

SECTION Coordinates
DDDDDDDDD 0 0.7955457819 0.2153102822 0.3426214272 0.2961611940 0.2554381654 0.7100804400 0.8547150078 0.6357949691 0.4054190886
DDDDDDDDD 1 0.6635035848 0.7047985609 0.1648330605 0.8887816281 0.2970957897 0.7287201051 0.3965607492 0.6638084062 0.3077898539
DDDDDDDDD 2 0.4603446049 0.1393605741 0.3061093089 0.3350736878 0.6921740634 0.5593727015 0.8804080379 0.3659706252 0.3468769250
DDDDDDDDD 3 0.9765705247 0.2916780218 0.0321567464 0.8889940641 0.0872238032 0.2474670286 0.2316154909 0.3833849972 0.5029051940
DDDDDDDDD 4 0.9416959309 0.2381000050 0.1387001626 0.3471150195 0.9016035897 0.8434987240 0.5119480800 0.7903852178 0.1405945132
DDDDDDDDD 5 0.2406681847 0.1869459665 0.8044029194 0.5484580386 0.6472905719 0.9437634935 0.8545673480 0.9823642597 0.6359375565
DDDDDDDDD 6 0.4139400490 0.8627722971 0.0019081812 0.7608169740 0.8393428213 0.2935862030 0.7929737204 0.7283368850 0.3808100067
DDDDDDDDD 7 0.0404407485 0.9599523763 0.7641950039 0.5433459429 0.9016483067 0.0022950084 0.6820461055 0.2487633257 0.9038985986
DDDDDDDDD 8 0.5255448290 0.7607114058 0.6942838159 0.6661393422 0.0013795900 0.8812297824 0.4705422611 0.5498376291 0.5285203539
DDDDDDDDD 9 0.4143057542 0.4044049766 0.5108846135 0.0502433107 0.8183450256 0.3736569101 0.0521514919 0.5791619991 0.2129997314
DDDDDDDDD 10 0.3457376954 0.3721357190 0.9413366164 0.7265477021 0.4125764675 0.9012889922 0.4907427055 0.9559224103 0.8029372989
DDDDDDDDD 11 0.4930377144 0.6379685158 0.0517006242 0.3969363125 0.1635133443 0.8124120304 0.0912201279 0.8296526870 0.8137916205
DDDDDDDDD 12 0.9724499103 0.3001949477 0.3636292491 0.5009702642 0.7145007023 0.7680342257 0.0118548772 0.7647440130 0.5863792508
DDDDDDDDD 13 0.3855117873 0.8168955049 0.1655412494 0.5985115187 0.1626331998 0.5376769684 0.5398481351 0.8891809019 0.9502534363
DDDDDDDDD 14 0.4411371269 0.3799236074 0.9061758462 0.2440744253 0.8729613218 0.5441443615 0.2957750500 0.2698976338 0.7076577063
END
