33D32945 STP File, STP Format Version 1.0

SECTION Comments
Name "cube_n15_d9_s39"
Problem "Euclidean Steiner Tree Problem"
Remark "Generated with STPGenerator. 9 dimensions."
END

SECTION Graph
Nodes 15
END

SECTION Coordinates
DDDDDDDDD 0 0.9571484462 0.5881108905 0.2816415891 0.9608924622 0.4010537497 0.5862380008 0.0521304696 0.9748592134 0.3832746434
DDDDDDDDD 1 0.7694257664 0.3322590768 0.7771537661 0.6123015828 0.9753510230 0.6286001725 0.3799427857 0.0309723057 0.7538297781
DDDDDDDDD 2 0.4828030474 0.7509467996 0.2591224784 0.3035272250 0.3381346959 0.3982325915 0.3818814775 0.1083943300 0.5903588718
DDDDDDDDD 3 0.0385252712 0.5084510411 0.1311056945 0.9219905035 0.4655994868 0.7192165850 0.2036320922 0.4264919485 0.1202703342
DDDDDDDDD 4 0.7898700930 0.4786224181 0.0951295472 0.1731447364 0.2480481846 0.4273886245 0.9502985026 0.8603497673 0.4027396470
DDDDDDDDD 5 0.5788986746 0.2402925525 0.4337119527 0.3327284527 0.7230956004 0.1846587524 0.5918509311 0.0266228248 0.5227934483
DDDDDDDDD 6 0.9900835226 0.4085043023 0.6311877783 0.5804423944 0.4470295741 0.1396388189 0.7115480889 0.3690200771 0.6052383057
DDDDDDDDD 7 0.4307646739 0.5726521698 0.0317302537 0.5510350082 0.3625222623 0.5103526723 0.6461645559 0.5356669987 0.7584008569
DDDDDDDDD 8 0.0735531799 0.4859655008 0.6187506237 0.4762928269 0.0648641754 0.8590431762 0.9100047797 0.3975926281 0.5821387761
DDDDDDDDD 9 0.0946635316 0.9894435592 0.6087616010 0.6174569803 0.9795270818 0.0172659033 0.2486447581 0.5599694758 0.4642954774
DDDDDDDDD 10 0.3882835775 0.2715175642 0.8333155545 0.9935218831 0.7022822381 0.4059677238 0.0252521369 0.2533172463 0.7684899866
DDDDDDDDD 11 0.5356048092 0.8994818022 0.3041569848 0.2940056656 0.9730349821 0.7901224861 0.9127562893 0.4493278085 0.8549866615
DDDDDDDDD 12 0.7717994651 0.3593325877 0.2525792891 0.3539382412 0.4539961198 0.2420228479 0.9626998422 0.0714530996 0.2215499292
DDDDDDDDD 13 0.9799657455 0.3200978578 0.7815194050 0.4442612224 0.7083814352 0.0530369692 0.2775767768 0.7019033184 0.7553192073
DDDDDDDDD 14 0.6835445006 0.7271554553 0.0086364532 0.4520344867 0.2627602640 0.9081182554 0.7561914719 0.5567659296 0.8811532370
END
