33D32945 STP File, STP Format Version 1.0

SECTION Comments
Name "cube_n15_d9_s43"
Problem "Euclidean Steiner Tree Problem"
Remark "Generated with STPGenerator. 9 dimensions."
END

SECTION Graph
Nodes 15
END

SECTION Coordinates
DDDDDDDDD 0 0.3921490034 0.2415533509 0.4918181642 0.7429387396 0.1386943274 0.9690520419 0.4979442570 0.1569527281 0.6047278813
DDDDDDDDD 1 0.6099463206 0.8727000411 0.9242446869 0.7194525505 0.1857139022 0.0945956191 0.7204462847 0.7615132685 0.3106321545
DDDDDDDDD 2 0.2578007133 0.9034257293 0.0485690669 0.5226562896 0.1556680115 0.8831310002 0.3024737403 0.0332014114 0.4304443828
DDDDDDDDD 3 0.8226312044 0.8875873521 0.8883300344 0.8879682691 0.2797363551 0.1298833849 0.3797864329 0.0226750942 0.2685777122
DDDDDDDDD 4 0.3488384743 0.5206193517 0.4255304404 0.9535663561 0.1305656718 0.2982304810 0.8778110425 0.8500182223 0.4839443832
DDDDDDDDD 5 0.9724066616 0.5704645065 0.2454576512 0.2830388156 0.8282652203 0.1488833801 0.3316078826 0.3509215095 0.3045513920
DDDDDDDDD 6 0.2147388822 0.6533952498 0.3377528034 0.6451832655 0.4760264542 0.2253401551 0.5335132994 0.3639947229 0.5050765101
DDDDDDDDD 7 0.6633966843 0.7437811558 0.5277516043 0.9319743965 0.0926196296 0.0483709555 0.3575048365 0.0461859852 0.1789366273
DDDDDDDDD 8 0.6557353175 0.9239970282 0.0289548496 0.1396797002 0.8964036894 0.5994193561 0.3851373514 0.1794425050 0.4276845760
DDDDDDDDD 9 0.5340207319 0.5110503875 0.7786060855 0.8385721239 0.7257892702 0.4320013353 0.1763249269 0.3709725353 0.9080277895
DDDDDDDDD 10 0.4016650819 0.9044858347 0.2720225119 0.9067415921 0.5678825185 0.0158036673 0.4344931959 0.4998569146 0.1084232969
DDDDDDDDD 11 0.4828641519 0.8573617511 0.1546092826 0.6618007792 0.5130970681 0.0786063103 0.6907556288 0.6527767683 0.9750099997
DDDDDDDDD 12 0.2901749850 0.0379141192 0.1544525042 0.7178595610 0.5719348512 0.6655028922 0.4964656464 0.4105069746 0.3912921620
DDDDDDDDD 13 0.9284669817 0.5868319015 0.7622646972 0.8364947708 0.9884969834 0.6667505315 0.1085172822 0.8952385750 0.2346330496
DDDDDDDDD 14 0.1243209495 0.3297317709 0.7344899642 0.2327442464 0.8125959229 0.5918517148 0.3873535289 0.4743967017 0.1049487824
END
