33D32945 STP File, STP Format Version 1.0

SECTION Comments
Name "cube_n15_d8_s1"
Problem "Euclidean Steiner Tree Problem"
Remark "Generated with STPGenerator. 8 dimensions."
END

SECTION Graph
Nodes 15
END

SECTION Coordinates
DDDDDDDD 0 0.8401877172 0.3943829268 0.7830992238 0.7984400335 0.9116473579 0.1975513693 0.3352227557 0.7682295948
DDDDDDDD 1 0.2777747108 0.5539699558 0.4773970519 0.6288709248 0.3647844728 0.5134009102 0.9522297252 0.9161950680
DDDDDDDD 2 0.6357117280 0.7172969294 0.1416025554 0.6069688763 0.0163005716 0.2428867706 0.1372315768 0.8041767542
DDDDDDDD 3 0.1566790893 0.4009443942 0.1297904468 0.1088088020 0.9989245180 0.2182569053 0.5129323944 0.8391122347
DDDDDDDD 4 0.6126398326 0.2960316177 0.6375522677 0.5242871901 0.4935829870 0.9727750239 0.2925167844 0.7713576978
DDDDDDDD 5 0.5267449792 0.7699138363 0.4002286221 0.8915294520 0.2833147460 0.3524583473 0.8077245200 0.9190264740
DDDDDDDD 6 0.0697552762 0.9493270754 0.5259953502 0.0860558479 0.1922138460 0.6632269270 0.8902326025 0.3488929352
DDDDDDDD 7 0.0641713208 0.0200230489 0.4577017373 0.0630958383 0.2382799542 0.9706341317 0.9022080735 0.8509197868
DDDDDDDD 8 0.2666657494 0.5397603407 0.3752069764 0.7602487364 0.5125353641 0.6677237608 0.5316064342 0.0392803434
DDDDDDDD 9 0.4376375966 0.9318350563 0.9308097954 0.7209523431 0.2842934031 0.7385343149 0.6399788166 0.3540486797
DDDDDDDD 10 0.6878613903 0.1659741663 0.4401045276 0.8800752363 0.8292010933 0.3303371297 0.2289681710 0.8933724146
DDDDDDDD 11 0.3503601786 0.6866699083 0.9564682529 0.5886401332 0.6573040395 0.8586763259 0.4395599195 0.9239697889
DDDDDDDD 12 0.3984366667 0.8147668963 0.6842185253 0.9109720308 0.4824906567 0.2158249590 0.9502523741 0.9201282537
DDDDDDDD 13 0.1476600148 0.8810621695 0.6410805963 0.4319534183 0.6195964839 0.2810594124 0.7860020980 0.3074578737
DDDDDDDD 14 0.4470335792 0.2261066252 0.1875331095 0.2762346721 0.5564437553 0.4165012806 0.1696070862 0.9068039339
END
