33D32945 STP File, STP Format Version 1.0

SECTION Comments
Name "cube_n15_d8_s2"
Problem "Euclidean Steiner Tree Problem"
Remark "Generated with STPGenerator. 8 dimensions."
END

SECTION Graph
Nodes 15
END

SECTION Coordinates
DDDDDDDD 0 0.7009763693 0.8096763491 0.0887954552 0.1214791905 0.3483067552 0.4219620016 0.6998054984 0.0663843365
DDDDDDDD 1 0.5874823525 0.6429663057 0.9906032789 0.2957182840 0.2713367107 0.0696559870 0.9496393790 0.3821752264
DDDDDDDD 2 0.3227100961 0.9883655114 0.8425220697 0.2753141943 0.5966266629 0.5564203358 0.8479080023 0.1846236713
DDDDDDDD 3 0.3974697401 0.8897629529 0.8504806137 0.3177298374 0.1029680931 0.0449004877 0.6449911807 0.8039444624
DDDDDDDD 4 0.8545768367 0.7337866364 0.9254236528 0.2028835920 0.1557486375 0.6252291508 0.2692679284 0.7432309900
DDDDDDDD 5 0.2681954565 0.2598712068 0.0389492735 0.5395321672 0.3295271938 0.9885886526 0.9217073940 0.6522372899
DDDDDDDD 6 0.9769541635 0.7642294633 0.9275514842 0.5735808264 0.3206497986 0.7754594864 0.7582044978 0.7181195387
DDDDDDDD 7 0.6652224388 0.6086851114 0.0358493757 0.7681905319 0.6535855991 0.6808405568 0.5721349938 0.5081624358
DDDDDDDD 8 0.4146271927 0.4975586461 0.7110460278 0.5703758302 0.1227877969 0.9803139563 0.3136068197 0.3909832534
DDDDDDDD 9 0.2401851631 0.3525560933 0.9305154206 0.5697123569 0.3411447454 0.8522228142 0.2219496468 0.3180989084
DDDDDDDD 10 0.6164522775 0.1495011305 0.8916797349 0.9371020761 0.9249606169 0.6498842326 0.6552216148 0.5901830553
DDDDDDDD 11 0.2585693436 0.6910709905 0.3583735867 0.9121549427 0.3719115469 0.9305085805 0.4203173781 0.7865387396
DDDDDDDD 12 0.4280672266 0.1313634054 0.3569145693 0.5508550236 0.1116773617 0.6705213891 0.9418382770 0.3518625248
DDDDDDDD 13 0.0230774819 0.8723536971 0.9215748817 0.3642222273 0.7245765113 0.1435245281 0.6823211362 0.3410287883
DDDDDDDD 14 0.2930256591 0.5740008706 0.2781308639 0.2179862755 0.2238851028 0.9333524787 0.8081693313 0.4824544464
END
