33D32945 STP File, STP Format Version 1.0

SECTION Comments
Name "cube_n15_d8_s47"
Problem "Euclidean Steiner Tree Problem"
Remark "Generated with STPGenerator. 8 dimensions."
END

SECTION Graph
Nodes 15
END

SECTION Coordinates
DDDDDDDD 0 0.8256802293 0.8959328252 0.2042499758 0.0233809524 0.3771066863 0.3547250220 0.9420667789 0.3395639064
DDDDDDDD 1 0.3297338986 0.9487606892 0.4132981074 0.5756729662 0.8249852354 0.3957488953 0.5658004533 0.0595591958
DDDDDDDD 2 0.9910994321 0.8735950118 0.5318192572 0.0541652870 0.8451914260 0.7414528996 0.4705074068 0.3762617672
DDDDDDDD 3 0.7236746008 0.4541832616 0.7798275243 0.6086481370 0.7615917403 0.6558818466 0.3575952460 0.5872719691
DDDDDDDD 4 0.5518146714 0.5618452218 0.6106529220 0.9289213582 0.9165702439 0.5527197004 0.2684852640 0.2463041419
DDDDDDDD 5 0.5014803892 0.6817833715 0.8219771086 0.3264656241 0.0775322663 0.3877775615 0.3860248203 0.0686316979
DDDDDDDD 6 0.2613725733 0.9178440775 0.1227969854 0.1065639989 0.6592969767 0.5933043922 0.4828257661 0.3829715771
DDDDDDDD 7 0.0474876533 0.2626532900 0.9916197141 0.8090793941 0.9185351370 0.3492149596 0.3963513628 0.4703498080
DDDDDDDD 8 0.9110601819 0.0070042843 0.3992711657 0.8276304253 0.5597239852 0.6677564297 0.0739345672 0.0612043739
DDDDDDDD 9 0.3495398012 0.8959116758 0.3876699984 0.4270720675 0.2836892369 0.7736948187 0.4957037659 0.5450618102
DDDDDDDD 10 0.6915388958 0.6185007513 0.6516258096 0.3508358720 0.2118051430 0.1344515752 0.7338074491 0.2592927964
DDDDDDDD 11 0.3971048656 0.7254271627 0.0683721900 0.3156400022 0.0746421223 0.4647235533 0.7859898101 0.9857023042
DDDDDDDD 12 0.4717278376 0.1852609758 0.8133327290 0.0314518223 0.8530174055 0.8872672961 0.0926561966 0.2025572062
DDDDDDDD 13 0.7831789715 0.4803261950 0.6296292742 0.0668682084 0.2540210133 0.1253330396 0.6119300186 0.9455599091
DDDDDDDD 14 0.7438337909 0.2635558277 0.2963957807 0.9556389339 0.3980074033 0.0302032293 0.2149317298 0.7951122689
END
