33D32945 STP File, STP Format Version 1.0

SECTION Comments
Name "cube_n9_d2_s10"
Problem "Euclidean Steiner Tree Problem"
Remark "Generated with STPGenerator. 2 dimensions."
END

SECTION Graph
Nodes 9
END

SECTION Coordinates
DD 0 0.5658107323 0.6109299178
DD 1 0.5057680786 0.1796468744
DD 2 0.8166862739 0.1834716542
DD 3 0.5846529620 0.4221560766
DD 4 0.0253341845 0.3162595943
DD 5 0.0612761933 0.0836590180
DD 6 0.9767909204 0.9780582851
DD 7 0.8738890034 0.0530768098
DD 8 0.2689884604 0.0923382296
END
