33D32945 STP File, STP Format Version 1.0

SECTION Comments
Name "cube_n9_d2_s46"
Problem "Euclidean Steiner Tree Problem"
Remark "Generated with STPGenerator. 2 dimensions."
END

SECTION Graph
Nodes 9
END

SECTION Coordinates
DD 0 0.4696959581 0.4854901943
DD 1 0.4042461926 0.7061174278
DD 2 0.9462171723 0.1370705227
DD 3 0.0844243104 0.5482809849
DD 4 0.0280388566 0.8680997448
DD 5 0.9082862325 0.9183224421
DD 6 0.4284378902 0.8492767708
DD 7 0.0796413781 0.1055795798
DD 8 0.3157934068 0.1158501856
END
