33D32945 STP File, STP Format Version 1.0

SECTION Comments
Name "cube_n9_d2_s49"
Problem "Euclidean Steiner Tree Problem"
Remark "Generated with STPGenerator. 2 dimensions."
END

SECTION Graph
Nodes 9
END

SECTION Coordinates
DD 0 0.0418115836 0.2200377310
DD 1 0.3087208249 0.1629512739
DD 2 0.7427612197 0.2952385462
DD 3 0.6634417692 0.9268148322
DD 4 0.4391896513 0.6174133409
DD 5 0.9290067493 0.8974420614
DD 6 0.6268771643 0.9956121147
DD 7 0.5463564538 0.9780446412
DD 8 0.8501515877 0.8986921589
END
