33D32945 STP File, STP Format Version 1.0

SECTION Comments
Name "cube_n10_d6_s16"
Problem "Euclidean Steiner Tree Problem"
Remark "Generated with STPGenerator. 6 dimensions."
END

SECTION Graph
Nodes 10
END

SECTION Coordinates
DDDDDD 0 0.2154374701 0.0895364271 0.3215230151 0.5994994997 0.9209823329 0.0083380486
DDDDDD 1 0.2498201687 0.6923724262 0.3582976681 0.8231695224 0.1180784167 0.5551794663
DDDDDD 2 0.3833639991 0.2886057418 0.8238008194 0.3094491373 0.8584360545 0.6783925484
DDDDDD 3 0.0389199243 0.0333043621 0.0983172874 0.3055314134 0.1783176238 0.3670024752
DDDDDD 4 0.0997784725 0.5895236719 0.2716148031 0.0401816108 0.8858513329 0.9203709387
DDDDDD 5 0.7515285484 0.1012888030 0.0099073653 0.0730515630 0.7007883027 0.9308896982
DDDDDD 6 0.0813896121 0.9506084719 0.6232621240 0.4396872802 0.7737779938 0.7413405407
DDDDDD 7 0.9948667465 0.1571419924 0.0299462825 0.8186675654 0.4665911298 0.8883823370
DDDDDD 8 0.4970601138 0.5055110541 0.9216866991 0.5953774013 0.8110424680 0.1000043224
DDDDDD 9 0.9623798765 0.9108209405 0.6895279943 0.2339946792 0.9510025512 0.5753793272
END
