33D32945 STP File, STP Format Version 1.0

SECTION Comments
Name "cube_n10_d6_s18"
Problem "Euclidean Steiner Tree Problem"
Remark "Generated with STPGenerator. 6 dimensions."
END

SECTION Graph
Nodes 10
END

SECTION Coordinates
DDDDDD 0 0.9290727782 0.9129959489 0.9238626137 0.2359872904 0.7857724450 0.9465178470
DDDDDD 1 0.9674219824 0.2784534135 0.4652112594 0.4872422654 0.1321992586 0.3741906497
DDDDDD 2 0.6797411119 0.8863195306 0.8013723990 0.2213446718 0.2145956132 0.2002614784
DDDDDD 3 0.9167352235 0.3484674186 0.7351341866 0.9038881473 0.5736667344 0.0998372487
DDDDDD 4 0.0471116267 0.0357322353 0.1799209691 0.9172431221 0.0559421322 0.0346130878
DDDDDD 5 0.4671709633 0.9850149108 0.9476090371 0.3910335770 0.2210022007 0.7333814817
DDDDDD 6 0.3375514235 0.1884241831 0.0118348948 0.8027626829 0.6756664485 0.1440341534
DDDDDD 7 0.1769533321 0.3554075599 0.0303536835 0.9783257311 0.5767522317 0.2449492967
DDDDDD 8 0.1785872095 0.4934874552 0.5934167153 0.9137213961 0.3973756020 0.1670834493
DDDDDD 9 0.0135586448 0.4444872287 0.2028156851 0.1934796140 0.3617303508 0.2587578172
END
