33D32945 STP File, STP Format Version 1.0

SECTION Comments
Name "cube_n10_d6_s21"
Problem "Euclidean Steiner Tree Problem"
Remark "Generated with STPGenerator. 6 dimensions."
END

SECTION Graph
Nodes 10
END

SECTION Coordinates
DDDDDD 0 0.5058995711 0.1543681692 0.3336426291 0.6982897980 0.0904165954 0.6112220658
DDDDDD 1 0.0528075560 0.6665685525 0.8844101391 0.2439990897 0.1642170884 0.3632087118
DDDDDD 2 0.3869168281 0.0459364807 0.2802418788 0.1041107807 0.2645267724 0.9979975852
DDDDDD 3 0.0011071404 0.3400666059 0.9582093637 0.8222869392 0.1893208209 0.7204574974
DDDDDD 4 0.7427683257 0.4821770696 0.3179936159 0.5119722684 0.8435701522 0.9867132548
DDDDDD 5 0.8250681748 0.3494697229 0.1410814236 0.1587108039 0.0477595204 0.2314980189
DDDDDD 6 0.7699328697 0.1005670764 0.8980665714 0.6543430084 0.3445661666 0.0622836598
DDDDDD 7 0.0175517202 0.7314829946 0.1082201405 0.2977935990 0.8355937753 0.3727469129
DDDDDD 8 0.2957911837 0.8367009162 0.7128135188 0.2540005475 0.6589878549 0.9021343397
DDDDDD 9 0.9744580448 0.4017561802 0.3843114089 0.2924516603 0.9137284485 0.2278815607
END
