33D32945 STP File, STP Format Version 1.0

SECTION Comments
Name "cube_n5_d8_s14"
Problem "Euclidean Steiner Tree Problem"
Remark "Generated with STPGenerator. 8 dimensions."
END

SECTION Graph
Nodes 5
END

SECTION Coordinates
DDDDDDDD 0 0.9994984996 0.2633149048 0.2158478607 0.4602220480 0.0529571777 0.5661688692 0.0288339364 0.6024998616
DDDDDDDD 1 0.7466238550 0.6549854328 0.0995092923 0.7305007729 0.5819886180 0.1856662101 0.8394953780 0.3914754770
DDDDDDDD 2 0.4961270823 0.6485379798 0.1537148399 0.2108905191 0.9520467748 0.6981957097 0.2743996956 0.1229939042
DDDDDDDD 3 0.1415459719 0.6331634999 0.8501201872 0.1499063168 0.7037021051 0.7905814442 0.5198903161 0.7032006042
DDDDDDDD 4 0.0538963489 0.7357381767 0.1634226517 0.1068535266 0.3019070454 0.1922565881 0.7093533882 0.0485309004
END
