33D32945 STP File, STP Format Version 1.0

SECTION Comments
Name "cube_n9_d5_s1"
Problem "Euclidean Steiner Tree Problem"
Remark "Generated with STPGenerator. 5 dimensions."
END

SECTION Graph
Nodes 9
END

SECTION Coordinates
DDDDD 0 0.8401877172 0.3943829268 0.7830992238 0.7984400335 0.9116473579
DDDDD 1 0.1975513693 0.3352227557 0.7682295948 0.2777747108 0.5539699558
DDDDD 2 0.4773970519 0.6288709248 0.3647844728 0.5134009102 0.9522297252
DDDDD 3 0.9161950680 0.6357117280 0.7172969294 0.1416025554 0.6069688763
DDDDD 4 0.0163005716 0.2428867706 0.1372315768 0.8041767542 0.1566790893
DDDDD 5 0.4009443942 0.1297904468 0.1088088020 0.9989245180 0.2182569053
DDDDD 6 0.5129323944 0.8391122347 0.6126398326 0.2960316177 0.6375522677
DDDDD 7 0.5242871901 0.4935829870 0.9727750239 0.2925167844 0.7713576978
DDDDD 8 0.5267449792 0.7699138363 0.4002286221 0.8915294520 0.2833147460
END
