33D32945 STP File, STP Format Version 1.0

SECTION Comments
Name "cube_n9_d5_s28"
Problem "Euclidean Steiner Tree Problem"
Remark "Generated with STPGenerator. 5 dimensions."
END

SECTION Graph
Nodes 9
END

SECTION Coordinates
DDDDD 0 0.5171551050 0.0449436945 0.4524295369 0.4422129730 0.1277577337
DDDDD 1 0.1569511728 0.0837527169 0.7310733133 0.0224596341 0.3412099454
DDDDD 2 0.2301648130 0.4956663146 0.7013661609 0.4085638460 0.7201248397
DDDDD 3 0.8276713341 0.0367873907 0.8458900362 0.8608830030 0.4750771162
DDDDD 4 0.9620311726 0.9602391431 0.1126118736 0.8147720088 0.3593030024
DDDDD 5 0.8427590313 0.2819298144 0.8907198030 0.9989762641 0.1782195168
DDDDD 6 0.6481475037 0.5161313692 0.2231632118 0.1005770402 0.9583443422
DDDDD 7 0.3509209456 0.2575282130 0.0420970586 0.0819942584 0.2799878476
DDDDD 8 0.3833070041 0.3121590714 0.7756541622 0.0846731649 0.7207229173
END
