33D32945 STP File, STP Format Version 1.0

SECTION Comments
Name "cube_n9_d5_s30"
Problem "Euclidean Steiner Tree Problem"
Remark "Generated with STPGenerator. 5 dimensions."
END

SECTION Graph
Nodes 9
END

SECTION Coordinates
DDDDD 0 0.2299670750 0.8697586934 0.5547460311 0.5776126504 0.9940509931
DDDDD 1 0.5953307052 0.7999637326 0.8187845688 0.6298717496 0.5035535896
DDDDD 2 0.7460086135 0.8155644125 0.9956452860 0.5080417518 0.6990755753
DDDDD 3 0.2370779334 0.3946801244 0.8697485588 0.2358092783 0.2918461092
DDDDD 4 0.6015800124 0.5553159199 0.0093155527 0.0512251300 0.3029992102
DDDDD 5 0.2899153434 0.1948941383 0.2638538039 0.6694181327 0.2983180547
DDDDD 6 0.8596797180 0.8993852078 0.1680767476 0.4144257491 0.4769978577
DDDDD 7 0.1621277403 0.0097564538 0.2769615898 0.9809123091 0.6396282034
DDDDD 8 0.7805151794 0.7269209226 0.4551926155 0.7761604650 0.2349626740
END
