33D32945 STP File, STP Format Version 1.0

SECTION Comments
Name "cube_n9_d5_s34"
Problem "Euclidean Steiner Tree Problem"
Remark "Generated with STPGenerator. 5 dimensions."
END

SECTION Graph
Nodes 9
END

SECTION Coordinates
DDDDD 0 0.1689700215 0.0285875835 0.7728105293 0.3646502115 0.2378394540
DDDDD 1 0.4875804249 0.2520150534 0.5079065824 0.3625599515 0.8518746006
DDDDD 2 0.2945063893 0.4759735886 0.6125465755 0.2276748625 0.6807925690
DDDDD 3 0.0897512576 0.6359386517 0.9450358706 0.5259626366 0.9567871433
DDDDD 4 0.9126800242 0.2932653806 0.3414342214 0.5614015812 0.7468854965
DDDDD 5 0.2319139071 0.0643970538 0.5766860040 0.5689670525 0.5896822263
DDDDD 6 0.8609460652 0.7379370740 0.6182698098 0.6337565941 0.1025872855
DDDDD 7 0.8561092638 0.1213370185 0.3546023389 0.3640158462 0.4838969700
DDDDD 8 0.2064769390 0.6585222355 0.9598705587 0.8190235145 0.8861970980
END
