33D32945 STP File, STP Format Version 1.0

SECTION Comments
Name "cube_n7_d9_s17"
Problem "Euclidean Steiner Tree Problem"
Remark "Generated with STPGenerator. 9 dimensions."
END

SECTION Graph
Nodes 7
END

SECTION Coordinates
DDDDDDDDD 0 0.5717940003 0.0018524737 0.1227083798 0.9171544332 0.8540148287 0.2275495600 0.1078885724 0.4860870128 0.6620165676
DDDDDDDDD 1 0.9043156765 0.6258278161 0.2151280480 0.2804932088 0.3381360212 0.8132569412 0.7641613385 0.5371329414 0.4402770090
DDDDDDDDD 2 0.7264149760 0.6913943327 0.1680129702 0.6031280205 0.3763264294 0.7351060159 0.8217135835 0.0627080598 0.4779169375
DDDDDDDDD 3 0.2268656857 0.9706272744 0.2301676097 0.3574414162 0.5424212746 0.2320200839 0.4801497965 0.4595757073 0.0860349122
DDDDDDDDD 4 0.7076993565 0.5674642797 0.5721219250 0.3697159241 0.4717799562 0.1979497407 0.5848439720 0.7522731650 0.5360857619
DDDDDDDDD 5 0.3981009128 0.5164345030 0.0732187028 0.8383779218 0.2428494786 0.7646130355 0.0063908915 0.8459774991 0.1409394644
DDDDDDDDD 6 0.7414969079 0.6676910821 0.2036475247 0.2194138450 0.8945567677 0.1742747986 0.4495814547 0.2519981839 0.7166960732
END
