33D32945 STP File, STP Format Version 1.0

SECTION Comments
Name "cube_n7_d9_s29"
Problem "Euclidean Steiner Tree Problem"
Remark "Generated with STPGenerator. 9 dimensions."
END

SECTION Graph
Nodes 7
END

SECTION Coordinates
DDDDDDDDD 0 0.8759893737 0.4619202984 0.7565934233 0.2626699606 0.5662877856 0.3799464867 0.4450082292 0.5312397017 0.8309675659
DDDDDDDDD 1 0.9260082347 0.7454492528 0.1616497483 0.1027180125 0.9668541835 0.2171490557 0.7873155781 0.2256253200 0.6172168532
DDDDDDDDD 2 0.5542016586 0.1448612135 0.5434454384 0.7647884776 0.3240588770 0.6973411928 0.5896277370 0.3313394461 0.5059928463
DDDDDDDDD 3 0.5876262708 0.6013480707 0.5097069594 0.2666209295 0.4773374440 0.9716272578 0.0232143523 0.7400074050 0.5379150429
DDDDDDDDD 4 0.4031608391 0.1850156338 0.0691547445 0.2341284045 0.1110238685 0.8146039973 0.3957781528 0.2137418809 0.7814581803
DDDDDDDDD 5 0.6129272085 0.0010574590 0.0070835003 0.2301440613 0.5552591176 0.1519447137 0.7735895001 0.3200475952 0.4760035912
DDDDDDDDD 6 0.4709306925 0.9096753322 0.8073430372 0.9769235388 0.4973016025 0.4086911075 0.4866304977 0.7639225320 0.8860285514
END
