33D32945 STP File, STP Format Version 1.0

SECTION Comments
Name "cube_n14_d7_s16"
Problem "Euclidean Steiner Tree Problem"
Remark "Generated with STPGenerator. 7 dimensions."
END

SECTION Graph
Nodes 14
END

SECTION Coordinates
DDDDDDD 0 0.2154374701 0.0895364271 0.3215230151 0.5994994997 0.9209823329 0.0083380486 0.2498201687
DDDDDDD 1 0.6923724262 0.3582976681 0.8231695224 0.1180784167 0.5551794663 0.3833639991 0.2886057418
DDDDDDD 2 0.8238008194 0.3094491373 0.8584360545 0.6783925484 0.0389199243 0.0333043621 0.0983172874
DDDDDDD 3 0.3055314134 0.1783176238 0.3670024752 0.0997784725 0.5895236719 0.2716148031 0.0401816108
DDDDDDD 4 0.8858513329 0.9203709387 0.7515285484 0.1012888030 0.0099073653 0.0730515630 0.7007883027
DDDDDDD 5 0.9308896982 0.0813896121 0.9506084719 0.6232621240 0.4396872802 0.7737779938 0.7413405407
DDDDDDD 6 0.9948667465 0.1571419924 0.0299462825 0.8186675654 0.4665911298 0.8883823370 0.4970601138
DDDDDDD 7 0.5055110541 0.9216866991 0.5953774013 0.8110424680 0.1000043224 0.9623798765 0.9108209405
DDDDDDD 8 0.6895279943 0.2339946792 0.9510025512 0.5753793272 0.1543656174 0.7025310992 0.6766681302
DDDDDDD 9 0.1642729832 0.7755826627 0.3774564324 0.0951626809 0.8569722748 0.3280649038 0.7184248053
DDDDDDD 10 0.2966595545 0.1018428975 0.4597653455 0.2915263010 0.2589848900 0.4897116281 0.1101938659
DDDDDDD 11 0.7255760202 0.3780939646 0.6072539797 0.2310870738 0.2997806637 0.2026313805 0.0421295413
DDDDDDD 12 0.3997849861 0.1650112570 0.9529504822 0.0893129805 0.3990059362 0.9039530330 0.6646923077
DDDDDDD 13 0.5533715540 0.6064841322 0.3413604374 0.7176445372 0.3820667944 0.7188168698 0.8128072181
END
