33D32945 STP File, STP Format Version 1.0

SECTION Comments
Name "cube_n14_d7_s33"
Problem "Euclidean Steiner Tree Problem"
Remark "Generated with STPGenerator. 7 dimensions."
END

SECTION Graph
Nodes 14
END

SECTION Coordinates
DDDDDDD 0 0.3079489355 0.6126976412 0.4672263043 0.5413947988 0.3004468834 0.2632564820 0.8872430967
DDDDDDD 1 0.7088636578 0.0528921765 0.2627286242 0.2802385941 0.3090906377 0.2058983465 0.1701670499
DDDDDDD 2 0.6832347255 0.1237438932 0.9474799428 0.1736593936 0.3251002693 0.2867596859 0.3318277520
DDDDDDD 3 0.4798882434 0.6288429693 0.6801386246 0.0063632978 0.7409414774 0.3425149626 0.8681538691
DDDDDDD 4 0.4625301303 0.7613690005 0.7293978635 0.7704790662 0.3740666413 0.1966241674 0.3118738645
DDDDDDD 5 0.6745135252 0.4598806493 0.1991169612 0.3833771825 0.5127728258 0.4618455854 0.6636157770
DDDDDDD 6 0.8218634635 0.6677439318 0.8337828269 0.5050981890 0.7914878250 0.7812627697 0.6787575826
DDDDDDD 7 0.1165880943 0.0680224551 0.0105853342 0.5964763377 0.6968654244 0.6907239592 0.6028396355
DDDDDDD 8 0.4378069013 0.0332389213 0.4709935046 0.9003370320 0.7946079219 0.2003913676 0.6708160977
DDDDDDD 9 0.1686745631 0.3970155350 0.9826899622 0.8431880883 0.8568961843 0.1818069230 0.2265652703
DDDDDDD 10 0.3696690096 0.6436525088 0.8901810473 0.1915324727 0.3113964402 0.7239638743 0.6966306617
DDDDDDD 11 0.1028842652 0.5052266435 0.3753882443 0.2194723595 0.5732490986 0.3859735785 0.8159486972
DDDDDDD 12 0.2701145226 0.0766975372 0.4187883322 0.7079214238 0.1099364590 0.8897818368 0.6082584553
DDDDDDD 13 0.9045443809 0.0901732040 0.2790745526 0.0732189436 0.4871887390 0.2617645148 0.9164070319
END
