33D32945 STP File, STP Format Version 1.0

SECTION Comments
Name "cube_n14_d7_s36"
Problem "Euclidean Steiner Tree Problem"
Remark "Generated with STPGenerator. 7 dimensions."
END

SECTION Graph
Nodes 14
END

SECTION Coordinates
DDDDDDD 0 0.3812597861 0.3492478469 0.8728369269 0.9995752056 0.5993793447 0.9228681605 0.4677818946
DDDDDDD 1 0.0902298559 0.4658759178 0.5137684199 0.8042997703 0.7905323886 0.4063076491 0.8204223732
DDDDDDD 2 0.1528823809 0.9984735842 0.4864156537 0.4601904710 0.3998939984 0.2654632643 0.5413149840
DDDDDDD 3 0.3868324786 0.2293901449 0.7843163962 0.1882775664 0.1697030753 0.9607357951 0.4463474226
DDDDDDD 4 0.2294683951 0.6895571163 0.5673471180 0.6107281813 0.0388049632 0.4401840444 0.6103033869
DDDDDDD 5 0.6381843079 0.3630522044 0.0780852810 0.7284141638 0.8289281227 0.5918537013 0.5327139341
DDDDDDD 6 0.6194605108 0.9981613504 0.3531363068 0.7723428918 0.9966349341 0.8395519605 0.2325333623
DDDDDDD 7 0.3965289325 0.1050152244 0.7738483463 0.7833614111 0.3344053693 0.5581647426 0.9716389775
DDDDDDD 8 0.5041084446 0.5189005372 0.4179864002 0.7335768397 0.2084576535 0.9853335181 0.3443050209
DDDDDDD 9 0.2472626168 0.4255175625 0.9546084078 0.8854469247 0.7885697669 0.0326936883 0.6138610880
DDDDDDD 10 0.6174978891 0.6245473896 0.1465750216 0.2369583995 0.6227087395 0.4997113284 0.0093012913
DDDDDDD 11 0.6193436736 0.3392632885 0.2418346537 0.0158726056 0.4442785133 0.0156830000 0.7992340167
DDDDDDD 12 0.7786838826 0.5738477426 0.7708729942 0.2827923271 0.0927482793 0.1888593939 0.0163691663
DDDDDDD 13 0.3012059328 0.1741929116 0.3606741872 0.5484685495 0.5997104741 0.3152825946 0.4339154737
END
