33D32945 STP File, STP Format Version 1.0

SECTION Comments
Name "cube_n12_d8_s25"
Problem "Euclidean Steiner Tree Problem"
Remark "Generated with STPGenerator. 8 dimensions."
END

SECTION Graph
Nodes 12
END

SECTION Coordinates
DDDDDDDD 0 0.9393561920 0.8057392150 0.0423321780 0.9785602656 0.3255712615 0.9922046186 0.9965749998 0.8456901428
DDDDDDDD 1 0.1036064635 0.5821549858 0.7011187615 0.5075186931 0.9913254278 0.7521004219 0.7428126711 0.9414201057
DDDDDDDD 2 0.9901046399 0.0505868262 0.7723662428 0.4866999432 0.7424799096 0.5370173396 0.9999918654 0.1990076612
DDDDDDDD 3 0.6581573387 0.8989526019 0.6503086554 0.7898902324 0.7133313109 0.2344475841 0.2836491360 0.6526875024
DDDDDDDD 4 0.0401867987 0.3259813140 0.6312477680 0.3657580602 0.3181859326 0.6278227673 0.2114482025 0.4217923961
DDDDDDDD 5 0.2099777531 0.9125669640 0.9293110892 0.2013031804 0.6646673855 0.6721237603 0.1427232857 0.6547720249
DDDDDDDD 6 0.7227105865 0.9150895290 0.1414719681 0.4651904956 0.4521068681 0.1414638330 0.6641981568 0.1102642064
DDDDDDDD 7 0.0404164344 0.3145068122 0.9001544388 0.7537477458 0.5489543963 0.1838035747 0.4064352477 0.5891411950
DDDDDDDD 8 0.5097848887 0.0376830152 0.9548992552 0.8279708213 0.6655057830 0.1663474572 0.2497632174 0.8754835361
DDDDDDDD 9 0.0789144207 0.1790743061 0.0767867160 0.7435818062 0.8511980664 0.2195100017 0.3983538311 0.5739086529
DDDDDDDD 10 0.1345995302 0.5398257992 0.0390991480 0.5867063988 0.6812896322 0.7032973052 0.6969706052 0.7217060666
DDDDDDDD 11 0.0178041170 0.5971250439 0.4754538119 0.5667585132 0.7809286186 0.8818890601 0.1558997078 0.2907135069
END
