33D32945 STP File, STP Format Version 1.0

SECTION Comments
Name "cube_n12_d8_s48"
Problem "Euclidean Steiner Tree Problem"
Remark "Generated with STPGenerator. 8 dimensions."
END

SECTION Graph
Nodes 12
END

SECTION Coordinates
DDDDDDDD 0 0.6838657743 0.3087545369 0.0063704299 0.3432311920 0.8108547613 0.5749283333 0.3027468763 0.1342774458
DDDDDDDD 1 0.6345026189 0.0329879546 0.4224220134 0.7367339450 0.2257205198 0.9471432748 0.0564415637 0.0184599767
DDDDDDDD 2 0.1722892593 0.6367555897 0.2241443257 0.7155450055 0.4162855211 0.0445806133 0.6728030828 0.7459352001
DDDDDDDD 3 0.9519015979 0.4328879981 0.4879451569 0.8024439862 0.3533975968 0.9678474162 0.4714978880 0.0372633706
DDDDDDDD 4 0.2766019526 0.4778683178 0.3804945626 0.0874567135 0.0527966507 0.6832414389 0.2217341593 0.6872992696
DDDDDDDD 5 0.7162293935 0.6441561727 0.4240332141 0.9419499133 0.5912994475 0.4804747782 0.9604098899 0.7635887069
DDDDDDDD 6 0.1172303674 0.1845542151 0.4791337119 0.5335158885 0.2291348289 0.1519367942 0.2794510882 0.1810364263
DDDDDDDD 7 0.5848247928 0.7673962450 0.9834804125 0.9382223896 0.7352436607 0.4549783000 0.9754857602 0.0118456134
DDDDDDDD 8 0.9328466183 0.3559803229 0.0993023268 0.9856432690 0.0392217613 0.3210364866 0.6729425386 0.7554511552
DDDDDDDD 9 0.9651926593 0.0969757522 0.6974010680 0.5564921063 0.5774505304 0.6578109579 0.3200808132 0.6946808978
DDDDDDDD 10 0.8423651731 0.7992145251 0.2281967859 0.0715000015 0.9511513198 0.5076478741 0.2525364278 0.5359761121
DDDDDDDD 11 0.2750441191 0.2360168403 0.4741985013 0.0102877794 0.6909951403 0.4496842611 0.0221333928 0.6238417582
END
