33D32945 STP File, STP Format Version 1.0

SECTION Comments
Name "cube_n12_d8_s8"
Problem "Euclidean Steiner Tree Problem"
Remark "Generated with STPGenerator. 8 dimensions."
END

SECTION Graph
Nodes 12
END

SECTION Coordinates
DDDDDDDD 0 0.3527607286 0.7895895954 0.9058258696 0.0438874350 0.9542649202 0.2482710840 0.8679820145 0.8387081427
DDDDDDDD 1 0.9220907362 0.6533997663 0.5500675400 0.2691321919 0.6820132009 0.3835517202 0.9017543196 0.6433020787
DDDDDDDD 2 0.9163497486 0.5770127282 0.0059619849 0.7512683970 0.5345170878 0.8868077020 0.5707898632 0.9158954317
DDDDDDDD 3 0.2810107266 0.2728543464 0.6146288172 0.9977393495 0.1668278385 0.9347036872 0.8492760145 0.5195885676
DDDDDDDD 4 0.7242932826 0.7551018837 0.5634760026 0.6785582023 0.0033729677 0.4314580166 0.5172663450 0.9254637039
DDDDDDDD 5 0.0848577824 0.0673338846 0.1945958953 0.7668709838 0.4508856048 0.0963502145 0.4101730620 0.3672353534
DDDDDDDD 6 0.6733629432 0.4161350468 0.1185037499 0.2078800305 0.3029427488 0.6892936130 0.1237754617 0.5839534754
DDDDDDDD 7 0.9621479600 0.7384042790 0.5816928249 0.1289757980 0.6731079657 0.4309688389 0.6485643655 0.3974012478
DDDDDDDD 8 0.1860707221 0.2120403681 0.0759594501 0.1894436899 0.6434983847 0.5932257951 0.1149073938 0.7283561675
DDDDDDDD 9 0.6605596797 0.3095032891 0.4952271508 0.1114452845 0.4058535040 0.9054002128 0.4786806379 0.0792164468
DDDDDDDD 10 0.3215352592 0.5971843878 0.2870964772 0.6244780080 0.2864780008 0.4108719390 0.2084314833 0.2486259603
DDDDDDDD 11 0.1492762175 0.7901243082 0.3776017583 0.8223841832 0.2210931467 0.0261661238 0.2197854310 0.4071638688
END
