33D32945 STP File, STP Format Version 1.0

SECTION Comments
Name "cube_n8_d8_s36"
Problem "Euclidean Steiner Tree Problem"
Remark "Generated with STPGenerator. 8 dimensions."
END

SECTION Graph
Nodes 8
END

SECTION Coordinates
DDDDDDDD 0 0.3812597861 0.3492478469 0.8728369269 0.9995752056 0.5993793447 0.9228681605 0.4677818946 0.0902298559
DDDDDDDD 1 0.4658759178 0.5137684199 0.8042997703 0.7905323886 0.4063076491 0.8204223732 0.1528823809 0.9984735842
DDDDDDDD 2 0.4864156537 0.4601904710 0.3998939984 0.2654632643 0.5413149840 0.3868324786 0.2293901449 0.7843163962
DDDDDDDD 3 0.1882775664 0.1697030753 0.9607357951 0.4463474226 0.2294683951 0.6895571163 0.5673471180 0.6107281813
DDDDDDDD 4 0.0388049632 0.4401840444 0.6103033869 0.6381843079 0.3630522044 0.0780852810 0.7284141638 0.8289281227
DDDDDDDD 5 0.5918537013 0.5327139341 0.6194605108 0.9981613504 0.3531363068 0.7723428918 0.9966349341 0.8395519605
DDDDDDDD 6 0.2325333623 0.3965289325 0.1050152244 0.7738483463 0.7833614111 0.3344053693 0.5581647426 0.9716389775
DDDDDDDD 7 0.5041084446 0.5189005372 0.4179864002 0.7335768397 0.2084576535 0.9853335181 0.3443050209 0.2472626168
END
