33D32945 STP File, STP Format Version 1.0

SECTION Comments
Name "cube_n9_d7_s22"
Problem "Euclidean Steiner Tree Problem"
Remark "Generated with STPGenerator. 7 dimensions."
END

SECTION Graph
Nodes 9
END

SECTION Coordinates
DDDDDDD 0 0.8650269224 0.5663939652 0.6338536677 0.0191505631 0.5234706907 0.8290278501 0.4145243920
DDDDDDD 1 0.4607495118 0.1862228323 0.3292264125 0.6730409189 0.5206844050 0.2885274982 0.0973462291
DDDDDDD 2 0.2666000273 0.5636440160 0.4461416623 0.7561149335 0.1936676377 0.5023851071 0.0234475681
DDDDDDD 3 0.1250572825 0.8931799414 0.0834255573 0.9698017333 0.4631831755 0.5185416162 0.7034413422
DDDDDDD 4 0.9385241437 0.7902598408 0.9351547686 0.8035510656 0.3566538055 0.5690084359 0.8227016287
DDDDDDD 5 0.8801244962 0.3980362855 0.2372260202 0.3408740076 0.5842591182 0.5664524332 0.0139149264
DDDDDDD 6 0.1049435228 0.8549799313 0.1112611555 0.3715435501 0.4186239473 0.5574028178 0.1276584832
DDDDDDD 7 0.6122915850 0.0597879244 0.1511060517 0.7373488675 0.9529678663 0.2345316090 0.7071506002
DDDDDDD 8 0.4161510414 0.7530732251 0.4105919424 0.3546751846 0.5433330655 0.3457467106 0.1582262498
END
