33D32945 STP File, STP Format Version 1.0

SECTION Comments
Name "cube_n9_d7_s26"
Problem "Euclidean Steiner Tree Problem"
Remark "Generated with STPGenerator. 7 dimensions."
END

SECTION Graph
Nodes 9
END

SECTION Coordinates
DDDDDDD 0 0.7955457819 0.2153102822 0.3426214272 0.2961611940 0.2554381654 0.7100804400 0.8547150078
DDDDDDD 1 0.6357949691 0.4054190886 0.6635035848 0.7047985609 0.1648330605 0.8887816281 0.2970957897
DDDDDDD 2 0.7287201051 0.3965607492 0.6638084062 0.3077898539 0.4603446049 0.1393605741 0.3061093089
DDDDDDD 3 0.3350736878 0.6921740634 0.5593727015 0.8804080379 0.3659706252 0.3468769250 0.9765705247
DDDDDDD 4 0.2916780218 0.0321567464 0.8889940641 0.0872238032 0.2474670286 0.2316154909 0.3833849972
DDDDDDD 5 0.5029051940 0.9416959309 0.2381000050 0.1387001626 0.3471150195 0.9016035897 0.8434987240
DDDDDDD 6 0.5119480800 0.7903852178 0.1405945132 0.2406681847 0.1869459665 0.8044029194 0.5484580386
DDDDDDD 7 0.6472905719 0.9437634935 0.8545673480 0.9823642597 0.6359375565 0.4139400490 0.8627722971
DDDDDDD 8 0.0019081812 0.7608169740 0.8393428213 0.2935862030 0.7929737204 0.7283368850 0.3808100067
END
