33D32945 STP File, STP Format Version 1.0

SECTION Comments
Name "cube_n12_d7_s1"
Problem "Euclidean Steiner Tree Problem"
Remark "Generated with STPGenerator. 7 dimensions."
END

SECTION Graph
Nodes 12
END

SECTION Coordinates
DDDDDDD 0 0.8401877172 0.3943829268 0.7830992238 0.7984400335 0.9116473579 0.1975513693 0.3352227557
DDDDDDD 1 0.7682295948 0.2777747108 0.5539699558 0.4773970519 0.6288709248 0.3647844728 0.5134009102
DDDDDDD 2 0.9522297252 0.9161950680 0.6357117280 0.7172969294 0.1416025554 0.6069688763 0.0163005716
DDDDDDD 3 0.2428867706 0.1372315768 0.8041767542 0.1566790893 0.4009443942 0.1297904468 0.1088088020
DDDDDDD 4 0.9989245180 0.2182569053 0.5129323944 0.8391122347 0.6126398326 0.2960316177 0.6375522677
DDDDDDD 5 0.5242871901 0.4935829870 0.9727750239 0.2925167844 0.7713576978 0.5267449792 0.7699138363
DDDDDDD 6 0.4002286221 0.8915294520 0.2833147460 0.3524583473 0.8077245200 0.9190264740 0.0697552762
DDDDDDD 7 0.9493270754 0.5259953502 0.0860558479 0.1922138460 0.6632269270 0.8902326025 0.3488929352
DDDDDDD 8 0.0641713208 0.0200230489 0.4577017373 0.0630958383 0.2382799542 0.9706341317 0.9022080735
DDDDDDD 9 0.8509197868 0.2666657494 0.5397603407 0.3752069764 0.7602487364 0.5125353641 0.6677237608
DDDDDDD 10 0.5316064342 0.0392803434 0.4376375966 0.9318350563 0.9308097954 0.7209523431 0.2842934031
DDDDDDD 11 0.7385343149 0.6399788166 0.3540486797 0.6878613903 0.1659741663 0.4401045276 0.8800752363
END
