33D32945 STP File, STP Format Version 1.0

SECTION Comments
Name "cube_n12_d7_s30"
Problem "Euclidean Steiner Tree Problem"
Remark "Generated with STPGenerator. 7 dimensions."
END

SECTION Graph
Nodes 12
END

SECTION Coordinates
DDDDDDD 0 0.2299670750 0.8697586934 0.5547460311 0.5776126504 0.9940509931 0.5953307052 0.7999637326
DDDDDDD 1 0.8187845688 0.6298717496 0.5035535896 0.7460086135 0.8155644125 0.9956452860 0.5080417518
DDDDDDD 2 0.6990755753 0.2370779334 0.3946801244 0.8697485588 0.2358092783 0.2918461092 0.6015800124
DDDDDDD 3 0.5553159199 0.0093155527 0.0512251300 0.3029992102 0.2899153434 0.1948941383 0.2638538039
DDDDDDD 4 0.6694181327 0.2983180547 0.8596797180 0.8993852078 0.1680767476 0.4144257491 0.4769978577
DDDDDDD 5 0.1621277403 0.0097564538 0.2769615898 0.9809123091 0.6396282034 0.7805151794 0.7269209226
DDDDDDD 6 0.4551926155 0.7761604650 0.2349626740 0.1542681903 0.0132383984 0.6296427984 0.0240167487
DDDDDDD 7 0.2490476767 0.9214889076 0.6255967615 0.8043635971 0.9308044603 0.6768218915 0.1073628068
DDDDDDD 8 0.2207198032 0.8717160299 0.3712166112 0.8901379359 0.1700340841 0.2308963287 0.7895231437
DDDDDDD 9 0.3381108317 0.6453220777 0.2665210009 0.5002385725 0.6550785315 0.5434825912 0.4811508811
DDDDDDD 10 0.2947067350 0.3239977701 0.2080718033 0.7498993505 0.1001582351 0.4430344773 0.9041675413
DDDDDDD 11 0.1133966335 0.0726772752 0.9281842899 0.3624443102 0.9941661833 0.5537810510 0.1668079068
END
