33D32945 STP File, STP Format Version 1.0

SECTION Comments
Name "cube_n15_d6_s9"
Problem "Euclidean Steiner Tree Problem"
Remark "Generated with STPGenerator. 6 dimensions."
END

SECTION Graph
Nodes 15
END

SECTION Coordinates
DDDDDD 0 0.2069654480 0.6995153961 0.2034307295 0.3588790108 0.8845313130 0.4632373589
DDDDDD 1 0.7227528005 0.6292115332 0.7207948913 0.7304651908 0.0540748500 0.9231773037
DDDDDD 2 0.0740991244 0.9287021542 0.8842824203 0.0917933952 0.0898954501 0.3307895457
DDDDDD 3 0.6858023101 0.9032684844 0.0947479369 0.6750120226 0.2615602367 0.2729728470
DDDDDD 4 0.9914577939 0.2373887199 0.3081078475 0.6704191042 0.7412129779 0.2296066420
DDDDDD 5 0.9381766622 0.9481784259 0.9291220382 0.1416073912 0.3070574362 0.8136533512
DDDDDD 6 0.6048447502 0.0298102363 0.4428648839 0.3256396411 0.7602754271 0.4969397343
DDDDDD 7 0.2488169443 0.8343745516 0.4256418880 0.1330993646 0.9261679467 0.5155373381
DDDDDD 8 0.4638889103 0.6119702568 0.4188058225 0.5586368472 0.2869822789 0.6803660592
DDDDDD 9 0.8316096942 0.2784400723 0.9177547795 0.1397175417 0.9488591766 0.6589677570
DDDDDD 10 0.3693241837 0.8870358383 0.6071461824 0.2984462214 0.0286432291 0.9142036186
DDDDDD 11 0.1120995721 0.6334879797 0.9440138549 0.5549644565 0.9591276208 0.7042892816
DDDDDD 12 0.0519041904 0.2079445651 0.5386638327 0.4775460784 0.3410439297 0.4648317795
DDDDDD 13 0.9930834169 0.8049328401 0.0768020358 0.4118892389 0.3635696868 0.3637843148
DDDDDD 14 0.0922552976 0.1951793810 0.6422243876 0.0100100767 0.3348969227 0.5910835637
END
