33D32945 STP File, STP Format Version 1.0

SECTION Comments
Name "cube_n7_d6_s10"
Problem "Euclidean Steiner Tree Problem"
Remark "Generated with STPGenerator. 6 dimensions."
END

SECTION Graph
Nodes 7
END

SECTION Coordinates
DDDDDD 0 0.5658107323 0.6109299178 0.5057680786 0.1796468744 0.8166862739 0.1834716542
DDDDDD 1 0.5846529620 0.4221560766 0.0253341845 0.3162595943 0.0612761933 0.0836590180
DDDDDD 2 0.9767909204 0.9780582851 0.8738890034 0.0530768098 0.2689884604 0.0923382296
DDDDDD 3 0.8809632025 0.5625731631 0.6635139085 0.9814409283 0.9619104471 0.1394470134
DDDDDD 4 0.2234422426 0.2144171056 0.0119858943 0.8683905582 0.3317870611 0.5361120061
DDDDDD 5 0.5565968144 0.8975977934 0.1470419239 0.0623648931 0.0772446674 0.9637281978
DDDDDD 6 0.2458365472 0.6618976293 0.3858842744 0.2711707318 0.9781572241 0.4471604677
END
