33D32945 STP File, STP Format Version 1.0

SECTION Comments
Name "cube_n7_d6_s19"
Problem "Euclidean Steiner Tree Problem"
Remark "Generated with STPGenerator. 6 dimensions."
END

SECTION Graph
Nodes 7
END

SECTION Coordinates
DDDDDD 0 0.2902333854 0.3277869785 0.2285638117 0.0594177293 0.2219586108 0.6696780285
DDDDDD 1 0.3323929949 0.5761897869 0.2733734680 0.0765914861 0.6450726547 0.0391567499
DDDDDD 2 0.5865659870 0.9423629041 0.7965240673 0.6874572605 0.9015435013 0.9686559904
DDDDDD 3 0.6175688950 0.5169671907 0.3123343211 0.2170182561 0.7847483530 0.4766765621
DDDDDD 4 0.2870572444 0.5252522843 0.8965011402 0.6247255405 0.1610254427 0.8566360394
DDDDDD 5 0.0970141232 0.4512588286 0.1844230174 0.3255779349 0.5106765579 0.4063816287
DDDDDD 6 0.9952559634 0.8430695528 0.9825714156 0.2686294314 0.9196610394 0.6276440698
END
