33D32945 STP File, STP Format Version 1.0

SECTION Comments
Name "cube_n7_d2_s13"
Problem "Euclidean Steiner Tree Problem"
Remark "Generated with STPGenerator. 2 dimensions."
END

SECTION Graph
Nodes 7
END

SECTION Coordinates
DD 0 0.6326431831 0.3414155828
DD 1 0.9041099250 0.1300345134
DD 2 0.6083626135 0.3345068657
DD 3 0.1558290944 0.7948272283
DD 4 0.9282009350 0.5560647936
DD 5 0.0749040051 0.0531665883
DD 6 0.1637372478 0.1157799243
END
