33D32945 STP File, STP Format Version 1.0

SECTION Comments
Name "cube_n7_d2_s30"
Problem "Euclidean Steiner Tree Problem"
Remark "Generated with STPGenerator. 2 dimensions."
END

SECTION Graph
Nodes 7
END

SECTION Coordinates
DD 0 0.2299670750 0.8697586934
DD 1 0.5547460311 0.5776126504
DD 2 0.9940509931 0.5953307052
DD 3 0.7999637326 0.8187845688
DD 4 0.6298717496 0.5035535896
DD 5 0.7460086135 0.8155644125
DD 6 0.9956452860 0.5080417518
END
