33D32945 STP File, STP Format Version 1.0

SECTION Comments
Name "cube_n7_d2_s31"
Problem "Euclidean Steiner Tree Problem"
Remark "Generated with STPGenerator. 2 dimensions."
END

SECTION Graph
Nodes 7
END

SECTION Coordinates
DD 0 0.5921190123 0.7871168474
DD 1 0.8626960571 0.4022940902
DD 2 0.4331044440 0.3224785879
DD 3 0.1665347033 0.6197118892
DD 4 0.4428926201 0.5949672445
DD 5 0.2624237846 0.4864085733
DD 6 0.4051467089 0.0680107870
END
