33D32945 STP File, STP Format Version 1.0

SECTION Comments
Name "cube_n7_d2_s32"
Problem "Euclidean Steiner Tree Problem"
Remark "Generated with STPGenerator. 2 dimensions."
END

SECTION Graph
Nodes 7
END

SECTION Coordinates
DD 0 0.4496756841 0.6990365287
DD 1 0.6652369316 0.7215187111
DD 2 0.8656997224 0.5431189162
DD 3 0.5266172777 0.9129774263
DD 4 0.7480876026 0.1786557348
DD 5 0.2697567126 0.1478463012
DD 6 0.3054385443 0.1172210561
END
