33D32945 STP File, STP Format Version 1.0

SECTION Comments
Name "cube_n7_d2_s37"
Problem "Euclidean Steiner Tree Problem"
Remark "Generated with STPGenerator. 2 dimensions."
END

SECTION Graph
Nodes 7
END

SECTION Coordinates
DD 0 0.2394123931 0.7611420498
DD 1 0.1745217923 0.8194240331
DD 2 0.0320747178 0.6424573714
DD 3 0.3284930686 0.8837608927
DD 4 0.2698044499 0.5980566296
DD 5 0.3121092172 0.4504713320
DD 6 0.8071258347 0.3703712553
END
