33D32945 STP File, STP Format Version 1.0

SECTION Comments
Name "cube_n7_d2_s41"
Problem "Euclidean Steiner Tree Problem"
Remark "Generated with STPGenerator. 2 dimensions."
END

SECTION Graph
Nodes 7
END

SECTION Coordinates
DD 0 0.6702460561 0.9116797088
DD 1 0.3821349500 0.5965716008
DD 2 0.2660512897 0.0223274580
DD 3 0.7685739201 0.5612500564
DD 4 0.4878506383 0.4318964698
DD 5 0.8467889367 0.5935844293
DD 6 0.9065222973 0.5735588286
END
