33D32945 STP File, STP Format Version 1.0

SECTION Comments
Name "cube_n12_d6_s13"
Problem "Euclidean Steiner Tree Problem"
Remark "Generated with STPGenerator. 6 dimensions."
END

SECTION Graph
Nodes 12
END

SECTION Coordinates
DDDDDD 0 0.6326431831 0.3414155828 0.9041099250 0.1300345134 0.6083626135 0.3345068657
DDDDDD 1 0.1558290944 0.7948272283 0.9282009350 0.5560647936 0.0749040051 0.0531665883
DDDDDD 2 0.1637372478 0.1157799243 0.8294556531 0.9116950463 0.7928529930 0.8622477059
DDDDDD 3 0.4365024196 0.0231408114 0.3533674392 0.8654058324 0.0406219666 0.7204131906
DDDDDD 4 0.3779684163 0.1168798023 0.6027370345 0.4139833741 0.5670465732 0.4317533082
DDDDDD 5 0.8557877559 0.1996897558 0.7731688911 0.7598976808 0.3297242696 0.3815315046
DDDDDD 6 0.0944045461 0.4855533640 0.1763587325 0.0226054806 0.0416181572 0.2512627380
DDDDDD 7 0.0757720694 0.2053554050 0.3670426623 0.9052277226 0.1170504508 0.1598956548
DDDDDD 8 0.7674754284 0.5535528709 0.1830364662 0.1208428671 0.4189587028 0.2236584333
DDDDDD 9 0.8412560578 0.7969271195 0.3405382355 0.4439930918 0.2109104931 0.9075848092
DDDDDD 10 0.8757464000 0.0666982485 0.1072745645 0.6489152911 0.8265959294 0.4369988341
DDDDDD 11 0.0304467953 0.9210004760 0.9225521981 0.2068055278 0.9436059566 0.9641703558
END
