33D32945 STP File, STP Format Version 1.0

SECTION Comments
Name "cube_n12_d6_s24"
Problem "Euclidean Steiner Tree Problem"
Remark "Generated with STPGenerator. 6 dimensions."
END

SECTION Graph
Nodes 12
END

SECTION Coordinates
DDDDDD 0 0.0877142293 0.8987790253 0.2479340957 0.6666313995 0.8988103708 0.2810884273
DDDDDD 1 0.6454682083 0.0593314241 0.8095185197 0.5094773627 0.2020136715 0.8590005528
DDDDDD 2 0.1044992358 0.7127510368 0.2668925339 0.4992394254 0.8234275756 0.3046993158
DDDDDD 3 0.1001034840 0.3428378414 0.1916555726 0.7579178944 0.3188702512 0.3531317987
DDDDDD 4 0.4586557506 0.9458669317 0.9701537522 0.1303727818 0.6525415180 0.4553778225
DDDDDD 5 0.7105784624 0.7402557478 0.3541568473 0.9585125581 0.4068871468 0.2529672176
DDDDDD 6 0.2396009850 0.0523553547 0.3122986417 0.0491195042 0.5618327174 0.5143123132
DDDDDD 7 0.9081200570 0.6663319537 0.2270633500 0.1750125909 0.1655713786 0.0504909251
DDDDDD 8 0.4797119067 0.2656748631 0.3933287670 0.6713674793 0.0235927571 0.7121990182
DDDDDD 9 0.0244992781 0.4822485077 0.6580659499 0.9946530303 0.6126212900 0.3106074675
DDDDDD 10 0.4500308523 0.3231997519 0.0508632148 0.8041876996 0.2817123096 0.4577503616
DDDDDD 11 0.0571549167 0.5213132945 0.5101057163 0.3694535589 0.5704327987 0.0719384337
END
