33D32945 STP File, STP Format Version 1.0

SECTION Comments
Name "cube_n12_d6_s39"
Problem "Euclidean Steiner Tree Problem"
Remark "Generated with STPGenerator. 6 dimensions."
END

SECTION Graph
Nodes 12
END

SECTION Coordinates
DDDDDD 0 0.9571484462 0.5881108905 0.2816415891 0.9608924622 0.4010537497 0.5862380008
DDDDDD 1 0.0521304696 0.9748592134 0.3832746434 0.7694257664 0.3322590768 0.7771537661
DDDDDD 2 0.6123015828 0.9753510230 0.6286001725 0.3799427857 0.0309723057 0.7538297781
DDDDDD 3 0.4828030474 0.7509467996 0.2591224784 0.3035272250 0.3381346959 0.3982325915
DDDDDD 4 0.3818814775 0.1083943300 0.5903588718 0.0385252712 0.5084510411 0.1311056945
DDDDDD 5 0.9219905035 0.4655994868 0.7192165850 0.2036320922 0.4264919485 0.1202703342
DDDDDD 6 0.7898700930 0.4786224181 0.0951295472 0.1731447364 0.2480481846 0.4273886245
DDDDDD 7 0.9502985026 0.8603497673 0.4027396470 0.5788986746 0.2402925525 0.4337119527
DDDDDD 8 0.3327284527 0.7230956004 0.1846587524 0.5918509311 0.0266228248 0.5227934483
DDDDDD 9 0.9900835226 0.4085043023 0.6311877783 0.5804423944 0.4470295741 0.1396388189
DDDDDD 10 0.7115480889 0.3690200771 0.6052383057 0.4307646739 0.5726521698 0.0317302537
DDDDDD 11 0.5510350082 0.3625222623 0.5103526723 0.6461645559 0.5356669987 0.7584008569
END
