33D32945 STP File, STP Format Version 1.0

SECTION Comments
Name "cube_n13_d8_s22"
Problem "Euclidean Steiner Tree Problem"
Remark "Generated with STPGenerator. 8 dimensions."
END

SECTION Graph
Nodes 13
END

SECTION Coordinates
DDDDDDDD 0 0.8650269224 0.5663939652 0.6338536677 0.0191505631 0.5234706907 0.8290278501 0.4145243920 0.4607495118
DDDDDDDD 1 0.1862228323 0.3292264125 0.6730409189 0.5206844050 0.2885274982 0.0973462291 0.2666000273 0.5636440160
DDDDDDDD 2 0.4461416623 0.7561149335 0.1936676377 0.5023851071 0.0234475681 0.1250572825 0.8931799414 0.0834255573
DDDDDDDD 3 0.9698017333 0.4631831755 0.5185416162 0.7034413422 0.9385241437 0.7902598408 0.9351547686 0.8035510656
DDDDDDDD 4 0.3566538055 0.5690084359 0.8227016287 0.8801244962 0.3980362855 0.2372260202 0.3408740076 0.5842591182
DDDDDDDD 5 0.5664524332 0.0139149264 0.1049435228 0.8549799313 0.1112611555 0.3715435501 0.4186239473 0.5574028178
DDDDDDDD 6 0.1276584832 0.6122915850 0.0597879244 0.1511060517 0.7373488675 0.9529678663 0.2345316090 0.7071506002
DDDDDDDD 7 0.4161510414 0.7530732251 0.4105919424 0.3546751846 0.5433330655 0.3457467106 0.1582262498 0.8999868710
DDDDDDDD 8 0.9147551469 0.9809278785 0.7801113672 0.3127914319 0.2181538982 0.1209853744 0.8970505502 0.7846063314
DDDDDDDD 9 0.1349003008 0.0019940725 0.6395862627 0.2461614563 0.3735376230 0.0582102095 0.8035642746 0.5011961062
DDDDDDDD 10 0.6705017945 0.8633521990 0.6523021579 0.4078506615 0.8163200649 0.8868337669 0.1150012618 0.2324711058
DDDDDDDD 11 0.6399069916 0.5255932042 0.5871462904 0.1832400566 0.8713399148 0.7453725402 0.0832269276 0.7860950612
DDDDDDDD 12 0.7263004182 0.8633382948 0.0988864932 0.9444543170 0.9843236692 0.9959370433 0.7290606479 0.1192239700
END
