33D32945 STP File, STP Format Version 1.0

SECTION Comments
Name "cube_n13_d8_s32"
Problem "Euclidean Steiner Tree Problem"
Remark "Generated with STPGenerator. 8 dimensions."
END

SECTION Graph
Nodes 13
END

SECTION Coordinates
DDDDDDDD 0 0.4496756841 0.6990365287 0.6652369316 0.7215187111 0.8656997224 0.5431189162 0.5266172777 0.9129774263
DDDDDDDD 1 0.7480876026 0.1786557348 0.2697567126 0.1478463012 0.3054385443 0.1172210561 0.1922058562 0.6652606896
DDDDDDDD 2 0.7645411136 0.9098374536 0.1333542867 0.6234359283 0.2597159544 0.6775168025 0.4244183676 0.8089938242
DDDDDDDD 3 0.7790788094 0.2599427934 0.6323595734 0.1754854299 0.8682969659 0.9466707064 0.6167910903 0.3179726495
DDDDDDDD 4 0.6457072346 0.2820280214 0.0394913601 0.5114069565 0.8251469377 0.5661086378 0.4243843828 0.5732345397
DDDDDDDD 5 0.7447643731 0.6941410954 0.7210808409 0.0502029169 0.8113621514 0.9132866975 0.7154636065 0.5759032646
DDDDDDDD 6 0.8231241507 0.8488178932 0.1993391929 0.0828401046 0.5263346953 0.6237575606 0.8918339288 0.3054135047
DDDDDDDD 7 0.8837003540 0.5241935018 0.4808989346 0.7519973194 0.4708642077 0.0976900245 0.0699699684 0.1165714423
DDDDDDDD 8 0.3797180459 0.1094613285 0.6279783988 0.2048649831 0.6755699668 0.0523627810 0.7780995233 0.4203343393
DDDDDDDD 9 0.7465038764 0.4991803637 0.4705372562 0.5578660278 0.4124670608 0.1860008627 0.1337692920 0.2355912115
DDDDDDDD 10 0.0348187555 0.3331084849 0.3184313161 0.5611534512 0.9568660455 0.2102652449 0.8665669560 0.8405663990
DDDDDDDD 11 0.7344587467 0.3474658902 0.5925637179 0.2053229544 0.4451559146 0.6625336863 0.3218943967 0.8248739605
DDDDDDDD 12 0.7719950153 0.9498727955 0.0297389431 0.4475649816 0.0022355765 0.8078384664 0.8678993210 0.7487394529
END
