33D32945 STP File, STP Format Version 1.0

SECTION Comments
Name "cube_n10_d7_s21"
Problem "Euclidean Steiner Tree Problem"
Remark "Generated with STPGenerator. 7 dimensions."
END

SECTION Graph
Nodes 10
END

SECTION Coordinates
DDDDDDD 0 0.5058995711 0.1543681692 0.3336426291 0.6982897980 0.0904165954 0.6112220658 0.0528075560
DDDDDDD 1 0.6665685525 0.8844101391 0.2439990897 0.1642170884 0.3632087118 0.3869168281 0.0459364807
DDDDDDD 2 0.2802418788 0.1041107807 0.2645267724 0.9979975852 0.0011071404 0.3400666059 0.9582093637
DDDDDDD 3 0.8222869392 0.1893208209 0.7204574974 0.7427683257 0.4821770696 0.3179936159 0.5119722684
DDDDDDD 4 0.8435701522 0.9867132548 0.8250681748 0.3494697229 0.1410814236 0.1587108039 0.0477595204
DDDDDDD 5 0.2314980189 0.7699328697 0.1005670764 0.8980665714 0.6543430084 0.3445661666 0.0622836598
DDDDDDD 6 0.0175517202 0.7314829946 0.1082201405 0.2977935990 0.8355937753 0.3727469129 0.2957911837
DDDDDDD 7 0.8367009162 0.7128135188 0.2540005475 0.6589878549 0.9021343397 0.9744580448 0.4017561802
DDDDDDD 8 0.3843114089 0.2924516603 0.9137284485 0.2278815607 0.2791649146 0.7387966233 0.5773512836
DDDDDDD 9 0.4202463382 0.8975074272 0.6251108039 0.6517443571 0.6674402965 0.7256778808 0.5498109285
END
