33D32945 STP File, STP Format Version 1.0

SECTION Comments
Name "cube_n10_d7_s32"
Problem "Euclidean Steiner Tree Problem"
Remark "Generated with STPGenerator. 7 dimensions."
END

SECTION Graph
Nodes 10
END

SECTION Coordinates
DDDDDDD 0 0.4496756841 0.6990365287 0.6652369316 0.7215187111 0.8656997224 0.5431189162 0.5266172777
DDDDDDD 1 0.9129774263 0.7480876026 0.1786557348 0.2697567126 0.1478463012 0.3054385443 0.1172210561
DDDDDDD 2 0.1922058562 0.6652606896 0.7645411136 0.9098374536 0.1333542867 0.6234359283 0.2597159544
DDDDDDD 3 0.6775168025 0.4244183676 0.8089938242 0.7790788094 0.2599427934 0.6323595734 0.1754854299
DDDDDDD 4 0.8682969659 0.9466707064 0.6167910903 0.3179726495 0.6457072346 0.2820280214 0.0394913601
DDDDDDD 5 0.5114069565 0.8251469377 0.5661086378 0.4243843828 0.5732345397 0.7447643731 0.6941410954
DDDDDDD 6 0.7210808409 0.0502029169 0.8113621514 0.9132866975 0.7154636065 0.5759032646 0.8231241507
DDDDDDD 7 0.8488178932 0.1993391929 0.0828401046 0.5263346953 0.6237575606 0.8918339288 0.3054135047
DDDDDDD 8 0.8837003540 0.5241935018 0.4808989346 0.7519973194 0.4708642077 0.0976900245 0.0699699684
DDDDDDD 9 0.1165714423 0.3797180459 0.1094613285 0.6279783988 0.2048649831 0.6755699668 0.0523627810
END
