33D32945 STP File, STP Format Version 1.0

SECTION Comments
Name "cube_n10_d7_s40"
Problem "Euclidean Steiner Tree Problem"
Remark "Generated with STPGenerator. 7 dimensions."
END

SECTION Graph
Nodes 10
END

SECTION Coordinates
DDDDDDD 0 0.8194229132 0.5062902763 0.0883140588 0.7855343049 0.3411775247 0.8119810777 0.9184383005
DDDDDDD 1 0.2771394566 0.1947866791 0.8602793272 0.3503405700 0.4464217548 0.0208598026 0.0373252058
DDDDDDD 2 0.1292244392 0.3481050377 0.7246325052 0.5291235137 0.6861238385 0.9269996448 0.8449453608
DDDDDDD 3 0.1197466637 0.0576706543 0.2857596349 0.6257388632 0.6073334080 0.3200811210 0.7510317898
DDDDDDD 4 0.6239873639 0.9691653433 0.0583464685 0.4434102766 0.4754556192 0.1466605273 0.2289445811
DDDDDDD 5 0.8166331438 0.9586416050 0.1473828816 0.0937726004 0.1534282836 0.0076622083 0.4441131705
DDDDDDD 6 0.5998500383 0.0285220109 0.4814383762 0.7290744780 0.3766270487 0.2060708810 0.2581979913
DDDDDDD 7 0.0627508867 0.1330705258 0.1031433517 0.1824975504 0.1907411801 0.3889029866 0.8082364140
DDDDDDD 8 0.7980745881 0.7089841076 0.5592682034 0.4220619516 0.6781494509 0.6176146719 0.8654722287
DDDDDDD 9 0.1536050696 0.7642751996 0.0944168093 0.9702382139 0.7229168041 0.2417996909 0.0640108139
END
