33D32945 STP File, STP Format Version 1.0

SECTION Comments
Name "cube_n10_d9_s31"
Problem "Euclidean Steiner Tree Problem"
Remark "Generated with STPGenerator. 9 dimensions."
END

SECTION Graph
Nodes 10
END

SECTION Coordinates
DDDDDDDDD 0 0.5921190123 0.7871168474 0.8626960571 0.4022940902 0.4331044440 0.3224785879 0.1665347033 0.6197118892 0.4428926201
DDDDDDDDD 1 0.5949672445 0.2624237846 0.4864085733 0.4051467089 0.0680107870 0.7012902786 0.2066657628 0.0859796964 0.6465744323
DDDDDDDDD 2 0.9411502084 0.4651792224 0.1887814688 0.3742742359 0.7257872944 0.9398560226 0.0504484792 0.7854848689 0.4252954514
DDDDDDDDD 3 0.4809464605 0.2813506742 0.1364504407 0.0017597149 0.8734696870 0.9235672881 0.8644557720 0.2757637767 0.3566717321
DDDDDDDDD 4 0.1869343599 0.4422984800 0.9763836213 0.6298269800 0.0372657241 0.2388074055 0.1162355529 0.4424124330 0.3068181930
DDDDDDDDD 5 0.8175258314 0.6490781958 0.3927978894 0.4641002638 0.5902284042 0.8579771118 0.6528817325 0.9645026401 0.5837644062
DDDDDDDDD 6 0.5927377546 0.0149511187 0.3692492747 0.0180332055 0.4958975797 0.6505999494 0.1544836462 0.4976572946 0.5240696359
DDDDDDDDD 7 0.0780509343 0.3621130667 0.7998334127 0.4347226664 0.5490474266 0.2421318922 0.4111062872 0.1788744061 0.2793976168
DDDDDDDDD 8 0.6499136927 0.2951099590 0.7218100497 0.9567318857 0.1126357900 0.3708882455 0.3495297746 0.5767360537 0.9611166497
DDDDDDDDD 9 0.2075068863 0.2296177858 0.9256192892 0.7912712925 0.8223555409 0.9405704085 0.1605205667 0.8403887464 0.4364679877
END
