33D32945 STP File, STP Format Version 1.0

SECTION Comments
Name "cube_n8_d7_s11"
Problem "Euclidean Steiner Tree Problem"
Remark "Generated with STPGenerator. 7 dimensions."
END

SECTION Graph
Nodes 8
END

SECTION Coordinates
DDDDDDD 0 0.9263453185 0.5264996991 0.3097808907 0.5022105041 0.7537675108 0.4059770589 0.4484664097
DDDDDDD 1 0.2208949445 0.8329159067 0.4041060449 0.0752406661 0.2481696737 0.3817098766 0.0352495974
DDDDDDD 2 0.3687719635 0.5168204054 0.9570931466 0.3607239967 0.5789050197 0.7321704266 0.2410501816
DDDDDDD 3 0.7910995301 0.1739375839 0.0170635157 0.4592865964 0.7046087811 0.7298904530 0.0711031715
DDDDDDD 4 0.4371118506 0.8601203439 0.1809798303 0.3634571686 0.3866200426 0.4907607210 0.8656676732
DDDDDDD 5 0.1403875533 0.8967377799 0.3141340824 0.3612824978 0.7296536866 0.7182401273 0.4365231644
DDDDDDD 6 0.9778233603 0.0999500035 0.4717727618 0.3465953233 0.6167704093 0.4288659084 0.7073193200
DDDDDDD 7 0.1956754286 0.1610363345 0.9483695021 0.9867749587 0.3349739184 0.9654330178 0.4460615546
END
