33D32945 STP File, STP Format Version 1.0

SECTION Comments
Name "cube_n8_d7_s48"
Problem "Euclidean Steiner Tree Problem"
Remark "Generated with STPGenerator. 7 dimensions."
END

SECTION Graph
Nodes 8
END

SECTION Coordinates
DDDDDDD 0 0.6838657743 0.3087545369 0.0063704299 0.3432311920 0.8108547613 0.5749283333 0.3027468763
DDDDDDD 1 0.1342774458 0.6345026189 0.0329879546 0.4224220134 0.7367339450 0.2257205198 0.9471432748
DDDDDDD 2 0.0564415637 0.0184599767 0.1722892593 0.6367555897 0.2241443257 0.7155450055 0.4162855211
DDDDDDD 3 0.0445806133 0.6728030828 0.7459352001 0.9519015979 0.4328879981 0.4879451569 0.8024439862
DDDDDDD 4 0.3533975968 0.9678474162 0.4714978880 0.0372633706 0.2766019526 0.4778683178 0.3804945626
DDDDDDD 5 0.0874567135 0.0527966507 0.6832414389 0.2217341593 0.6872992696 0.7162293935 0.6441561727
DDDDDDD 6 0.4240332141 0.9419499133 0.5912994475 0.4804747782 0.9604098899 0.7635887069 0.1172303674
DDDDDDD 7 0.1845542151 0.4791337119 0.5335158885 0.2291348289 0.1519367942 0.2794510882 0.1810364263
END
