33D32945 STP File, STP Format Version 1.0

SECTION Comments
Name "cube_n8_d7_s9"
Problem "Euclidean Steiner Tree Problem"
Remark "Generated with STPGenerator. 7 dimensions."
END

SECTION Graph
Nodes 8
END

SECTION Coordinates
DDDDDDD 0 0.2069654480 0.6995153961 0.2034307295 0.3588790108 0.8845313130 0.4632373589 0.7227528005
DDDDDDD 1 0.6292115332 0.7207948913 0.7304651908 0.0540748500 0.9231773037 0.0740991244 0.9287021542
DDDDDDD 2 0.8842824203 0.0917933952 0.0898954501 0.3307895457 0.6858023101 0.9032684844 0.0947479369
DDDDDDD 3 0.6750120226 0.2615602367 0.2729728470 0.9914577939 0.2373887199 0.3081078475 0.6704191042
DDDDDDD 4 0.7412129779 0.2296066420 0.9381766622 0.9481784259 0.9291220382 0.1416073912 0.3070574362
DDDDDDD 5 0.8136533512 0.6048447502 0.0298102363 0.4428648839 0.3256396411 0.7602754271 0.4969397343
DDDDDDD 6 0.2488169443 0.8343745516 0.4256418880 0.1330993646 0.9261679467 0.5155373381 0.4638889103
DDDDDDD 7 0.6119702568 0.4188058225 0.5586368472 0.2869822789 0.6803660592 0.8316096942 0.2784400723
END
