33D32945 STP File, STP Format Version 1.0

SECTION Comments
Name "cube_n7_d5_s12"
Problem "Euclidean Steiner Tree Problem"
Remark "Generated with STPGenerator. 5 dimensions."
END

SECTION Graph
Nodes 7
END

SECTION Coordinates
DDDDD 0 0.7856002826 0.4401777473 0.1151188249 0.8235438768 0.6883942167
DDDDD 1 0.1299254853 0.3111650372 0.5165184259 0.6420080073 0.4910349215
DDDDD 2 0.0853253426 0.4141814399 0.2860070939 0.0876902482 0.3650377357
DDDDD 3 0.4803538809 0.6394705305 0.1302257493 0.7771808131 0.8949633971
DDDDD 4 0.8192397947 0.6017836037 0.3779945804 0.8946192055 0.1970067798
DDDDD 5 0.1855946668 0.9467040281 0.7767066670 0.0319536450 0.6816179667
DDDDD 6 0.8094309405 0.8175539276 0.1217957135 0.9245497658 0.6410978039
END
