33D32945 STP File, STP Format Version 1.0

SECTION Comments
Name "cube_n7_d5_s32"
Problem "Euclidean Steiner Tree Problem"
Remark "Generated with STPGenerator. 5 dimensions."
END

SECTION Graph
Nodes 7
END

SECTION Coordinates
DDDDD 0 0.4496756841 0.6990365287 0.6652369316 0.7215187111 0.8656997224
DDDDD 1 0.5431189162 0.5266172777 0.9129774263 0.7480876026 0.1786557348
DDDDD 2 0.2697567126 0.1478463012 0.3054385443 0.1172210561 0.1922058562
DDDDD 3 0.6652606896 0.7645411136 0.9098374536 0.1333542867 0.6234359283
DDDDD 4 0.2597159544 0.6775168025 0.4244183676 0.8089938242 0.7790788094
DDDDD 5 0.2599427934 0.6323595734 0.1754854299 0.8682969659 0.9466707064
DDDDD 6 0.6167910903 0.3179726495 0.6457072346 0.2820280214 0.0394913601
END
