33D32945 STP File, STP Format Version 1.0

SECTION Comments
Name "cube_n10_d8_s10"
Problem "Euclidean Steiner Tree Problem"
Remark "Generated with STPGenerator. 8 dimensions."
END

SECTION Graph
Nodes 10
END

SECTION Coordinates
DDDDDDDD 0 0.5658107323 0.6109299178 0.5057680786 0.1796468744 0.8166862739 0.1834716542 0.5846529620 0.4221560766
DDDDDDDD 1 0.0253341845 0.3162595943 0.0612761933 0.0836590180 0.9767909204 0.9780582851 0.8738890034 0.0530768098
DDDDDDDD 2 0.2689884604 0.0923382296 0.8809632025 0.5625731631 0.6635139085 0.9814409283 0.9619104471 0.1394470134
DDDDDDDD 3 0.2234422426 0.2144171056 0.0119858943 0.8683905582 0.3317870611 0.5361120061 0.5565968144 0.8975977934
DDDDDDDD 4 0.1470419239 0.0623648931 0.0772446674 0.9637281978 0.2458365472 0.6618976293 0.3858842744 0.2711707318
DDDDDDDD 5 0.9781572241 0.4471604677 0.3548297497 0.9549481440 0.4252187523 0.2287187526 0.0080249533 0.6942072132
DDDDDDDD 6 0.3210569827 0.8889881558 0.2567803758 0.9845708911 0.8704290836 0.2186908225 0.1240179041 0.0938713258
DDDDDDDD 7 0.4331079281 0.1360037984 0.9622618840 0.7648949897 0.6721158049 0.5188586984 0.6624927827 0.8191577288
DDDDDDDD 8 0.5812235915 0.7397374505 0.7828859262 0.8270601387 0.4016350794 0.1687702002 0.0982308700 0.3797923030
DDDDDDDD 9 0.6159306679 0.4530606197 0.3347404466 0.0411494202 0.6817793728 0.3427654003 0.7353566334 0.0028363550
END
