33D32945 STP File, STP Format Version 1.0

SECTION Comments
Name "cube_n10_d8_s23"
Problem "Euclidean Steiner Tree Problem"
Remark "Generated with STPGenerator. 8 dimensions."
END

SECTION Graph
Nodes 10
END

SECTION Coordinates
DDDDDDDD 0 0.7275817463 0.4842158102 0.9432684327 0.3444002356 0.4630026335 0.5578971945 0.2818813474 0.2621717841
DDDDDDDD 1 0.5012496633 0.9217083640 0.6899727819 0.1938467460 0.6994581058 0.1578644305 0.7714722398 0.0351164541
DDDDDDDD 2 0.1380414735 0.5359635696 0.9014610839 0.1763991002 0.6140612409 0.9471684238 0.6104576749 0.9758801474
DDDDDDDD 3 0.7212583640 0.4597480886 0.2531977060 0.9255737224 0.0517316135 0.6330953071 0.5835098287 0.7793133598
DDDDDDDD 4 0.1173111168 0.5267782610 0.1237135954 0.5803137503 0.0846754555 0.4055949428 0.8424855344 0.5859251188
DDDDDDDD 5 0.3273033064 0.5324583159 0.7797718648 0.0267614122 0.6903227464 0.5512441045 0.0618778663 0.8283642204
DDDDDDDD 6 0.0872076736 0.9633389502 0.0047633201 0.7012689145 0.9105073739 0.6152209950 0.6771490619 0.6317657375
DDDDDDDD 7 0.0749690831 0.9303467679 0.5573394599 0.1267006966 0.5634420745 0.1408492882 0.9060140568 0.6807531918
DDDDDDDD 8 0.6676275491 0.0297276518 0.2610669417 0.7523030046 0.4353225946 0.1035524761 0.3382281234 0.7626259014
DDDDDDDD 9 0.6360107919 0.1179999877 0.7893873136 0.3263335383 0.6692440923 0.8512651799 0.1546977582 0.7564517664
END
