33D32945 STP File, STP Format Version 1.0

SECTION Comments
Name "cube_n10_d8_s24"
Problem "Euclidean Steiner Tree Problem"
Remark "Generated with STPGenerator. 8 dimensions."
END

SECTION Graph
Nodes 10
END

SECTION Coordinates
DDDDDDDD 0 0.0877142293 0.8987790253 0.2479340957 0.6666313995 0.8988103708 0.2810884273 0.6454682083 0.0593314241
DDDDDDDD 1 0.8095185197 0.5094773627 0.2020136715 0.8590005528 0.1044992358 0.7127510368 0.2668925339 0.4992394254
DDDDDDDD 2 0.8234275756 0.3046993158 0.1001034840 0.3428378414 0.1916555726 0.7579178944 0.3188702512 0.3531317987
DDDDDDDD 3 0.4586557506 0.9458669317 0.9701537522 0.1303727818 0.6525415180 0.4553778225 0.7105784624 0.7402557478
DDDDDDDD 4 0.3541568473 0.9585125581 0.4068871468 0.2529672176 0.2396009850 0.0523553547 0.3122986417 0.0491195042
DDDDDDDD 5 0.5618327174 0.5143123132 0.9081200570 0.6663319537 0.2270633500 0.1750125909 0.1655713786 0.0504909251
DDDDDDDD 6 0.4797119067 0.2656748631 0.3933287670 0.6713674793 0.0235927571 0.7121990182 0.0244992781 0.4822485077
DDDDDDDD 7 0.6580659499 0.9946530303 0.6126212900 0.3106074675 0.4500308523 0.3231997519 0.0508632148 0.8041876996
DDDDDDDD 8 0.2817123096 0.4577503616 0.0571549167 0.5213132945 0.5101057163 0.3694535589 0.5704327987 0.0719384337
DDDDDDDD 9 0.8837658720 0.4785528558 0.7382703874 0.1108292216 0.6535654467 0.9038417660 0.1613201472 0.1332773530
END
