33D32945 STP File, STP Format Version 1.0

SECTION Comments
Name "cube_n10_d8_s29"
Problem "Euclidean Steiner Tree Problem"
Remark "Generated with STPGenerator. 8 dimensions."
END

SECTION Graph
Nodes 10
END

SECTION Coordinates
DDDDDDDD 0 0.8759893737 0.4619202984 0.7565934233 0.2626699606 0.5662877856 0.3799464867 0.4450082292 0.5312397017
DDDDDDDD 1 0.8309675659 0.9260082347 0.7454492528 0.1616497483 0.1027180125 0.9668541835 0.2171490557 0.7873155781
DDDDDDDD 2 0.2256253200 0.6172168532 0.5542016586 0.1448612135 0.5434454384 0.7647884776 0.3240588770 0.6973411928
DDDDDDDD 3 0.5896277370 0.3313394461 0.5059928463 0.5876262708 0.6013480707 0.5097069594 0.2666209295 0.4773374440
DDDDDDDD 4 0.9716272578 0.0232143523 0.7400074050 0.5379150429 0.4031608391 0.1850156338 0.0691547445 0.2341284045
DDDDDDDD 5 0.1110238685 0.8146039973 0.3957781528 0.2137418809 0.7814581803 0.6129272085 0.0010574590 0.0070835003
DDDDDDDD 6 0.2301440613 0.5552591176 0.1519447137 0.7735895001 0.3200475952 0.4760035912 0.4709306925 0.9096753322
DDDDDDDD 7 0.8073430372 0.9769235388 0.4973016025 0.4086911075 0.4866304977 0.7639225320 0.8860285514 0.4582577550
DDDDDDDD 8 0.7871368843 0.6260359560 0.9961727983 0.1902977234 0.8110515903 0.0653275424 0.4244261279 0.9220754588
DDDDDDDD 9 0.8799315397 0.8202042812 0.1358173392 0.6613897195 0.4331314892 0.1368747983 0.6684732198 0.6632755509
END
