33D32945 STP File, STP Format Version 1.0

SECTION Comments
Name "cube_n10_d8_s50"
Problem "Euclidean Steiner Tree Problem"
Remark "Generated with STPGenerator. 8 dimensions."
END

SECTION Graph
Nodes 10
END

SECTION Coordinates
DDDDDDDD 0 0.8943212232 0.6286429756 0.1040961771 0.9758517360 0.6714702508 0.5076044628 0.0156422849 0.2154678540
DDDDDDDD 1 0.2348691641 0.1913313205 0.4307993098 0.5479775013 0.0151233026 0.0380932228 0.0248203492 0.9218689981
DDDDDDDD 2 0.5204600438 0.6477700405 0.0916402913 0.5212438672 0.5403122290 0.1304018107 0.0569058615 0.9637256646
DDDDDDDD 3 0.3840262170 0.8656925191 0.3785816228 0.6610816175 0.5074669032 0.5613598230 0.6648593674 0.4017881259
DDDDDDDD 4 0.1900027982 0.7689555445 0.3776398615 0.8614730490 0.2765600068 0.3932821464 0.0769409025 0.5114291709
DDDDDDDD 5 0.5846134669 0.5077402124 0.0594066722 0.5997367695 0.5458334356 0.0842270214 0.5216057671 0.0662934790
DDDDDDDD 6 0.7319970623 0.6132460584 0.5875373467 0.2723092908 0.7436478691 0.6444432082 0.2360349550 0.1276740856
DDDDDDDD 7 0.5101357268 0.6146165778 0.7887557032 0.0176026295 0.1759764003 0.4536150701 0.4193907554 0.3659791985
DDDDDDDD 8 0.2225706141 0.7970306169 0.2274522470 0.4991306213 0.1903127628 0.3043931501 0.0105597917 0.7749262297
DDDDDDDD 9 0.8121333624 0.0699664639 0.3746629988 0.3579667976 0.1541934857 0.8962687659 0.4242602770 0.8861905480
END
