33D32945 STP File, STP Format Version 1.0

SECTION Comments
Name "cube_n5_d7_s10"
Problem "Euclidean Steiner Tree Problem"
Remark "Generated with STPGenerator. 7 dimensions."
END

SECTION Graph
Nodes 5
END

SECTION Coordinates
DDDDDDD 0 0.5658107323 0.6109299178 0.5057680786 0.1796468744 0.8166862739 0.1834716542 0.5846529620
DDDDDDD 1 0.4221560766 0.0253341845 0.3162595943 0.0612761933 0.0836590180 0.9767909204 0.9780582851
DDDDDDD 2 0.8738890034 0.0530768098 0.2689884604 0.0923382296 0.8809632025 0.5625731631 0.6635139085
DDDDDDD 3 0.9814409283 0.9619104471 0.1394470134 0.2234422426 0.2144171056 0.0119858943 0.8683905582
DDDDDDD 4 0.3317870611 0.5361120061 0.5565968144 0.8975977934 0.1470419239 0.0623648931 0.0772446674
END
