33D32945 STP File, STP Format Version 1.0

SECTION Comments
Name "cube_n5_d7_s20"
Problem "Euclidean Steiner Tree Problem"
Remark "Generated with STPGenerator. 7 dimensions."
END

SECTION Graph
Nodes 5
END

SECTION Coordinates
DDDDDDD 0 0.1488122675 0.7401193766 0.5311698176 0.3798184727 0.6551358368 0.3903584468 0.6938135543
DDDDDDD 1 0.3702549456 0.5785871486 0.6617850073 0.1534811920 0.2006002349 0.4885317048 0.9929940151
DDDDDDD 2 0.7874475535 0.1478928184 0.0819520862 0.2319531549 0.3117739127 0.1775910422 0.3833652220
DDDDDDD 3 0.0224110372 0.9863731647 0.8460247199 0.0179714379 0.5034501541 0.1039613784 0.3216621426
DDDDDDD 4 0.2525900748 0.6675356089 0.2145335810 0.4014023423 0.4076549855 0.7457033986 0.7812208150
END
