33D32945 STP File, STP Format Version 1.0

SECTION Comments
Name "cube_n5_d7_s30"
Problem "Euclidean Steiner Tree Problem"
Remark "Generated with STPGenerator. 7 dimensions."
END

SECTION Graph
Nodes 5
END

SECTION Coordinates
DDDDDDD 0 0.2299670750 0.8697586934 0.5547460311 0.5776126504 0.9940509931 0.5953307052 0.7999637326
DDDDDDD 1 0.8187845688 0.6298717496 0.5035535896 0.7460086135 0.8155644125 0.9956452860 0.5080417518
DDDDDDD 2 0.6990755753 0.2370779334 0.3946801244 0.8697485588 0.2358092783 0.2918461092 0.6015800124
DDDDDDD 3 0.5553159199 0.0093155527 0.0512251300 0.3029992102 0.2899153434 0.1948941383 0.2638538039
DDDDDDD 4 0.6694181327 0.2983180547 0.8596797180 0.8993852078 0.1680767476 0.4144257491 0.4769978577
END
