33D32945 STP File, STP Format Version 1.0

SECTION Comments
Name "cube_n8_d4_s14"
Problem "Euclidean Steiner Tree Problem"
Remark "Generated with STPGenerator. 4 dimensions."
END

SECTION Graph
Nodes 8
END

SECTION Coordinates
DDDD 0 0.9994984996 0.2633149048 0.2158478607 0.4602220480
DDDD 1 0.0529571777 0.5661688692 0.0288339364 0.6024998616
DDDD 2 0.7466238550 0.6549854328 0.0995092923 0.7305007729
DDDD 3 0.5819886180 0.1856662101 0.8394953780 0.3914754770
DDDD 4 0.4961270823 0.6485379798 0.1537148399 0.2108905191
DDDD 5 0.9520467748 0.6981957097 0.2743996956 0.1229939042
DDDD 6 0.1415459719 0.6331634999 0.8501201872 0.1499063168
DDDD 7 0.7037021051 0.7905814442 0.5198903161 0.7032006042
END
