33D32945 STP File, STP Format Version 1.0

SECTION Comments
Name "cube_n8_d4_s32"
Problem "Euclidean Steiner Tree Problem"
Remark "Generated with STPGenerator. 4 dimensions."
END

SECTION Graph
Nodes 8
END

SECTION Coordinates
DDDD 0 0.4496756841 0.6990365287 0.6652369316 0.7215187111
DDDD 1 0.8656997224 0.5431189162 0.5266172777 0.9129774263
DDDD 2 0.7480876026 0.1786557348 0.2697567126 0.1478463012
DDDD 3 0.3054385443 0.1172210561 0.1922058562 0.6652606896
DDDD 4 0.7645411136 0.9098374536 0.1333542867 0.6234359283
DDDD 5 0.2597159544 0.6775168025 0.4244183676 0.8089938242
DDDD 6 0.7790788094 0.2599427934 0.6323595734 0.1754854299
DDDD 7 0.8682969659 0.9466707064 0.6167910903 0.3179726495
END
