33D32945 STP File, STP Format Version 1.0

SECTION Comments
Name "cube_n8_d4_s46"
Problem "Euclidean Steiner Tree Problem"
Remark "Generated with STPGenerator. 4 dimensions."
END

SECTION Graph
Nodes 8
END

SECTION Coordinates
DDDD 0 0.4696959581 0.4854901943 0.4042461926 0.7061174278
DDDD 1 0.9462171723 0.1370705227 0.0844243104 0.5482809849
DDDD 2 0.0280388566 0.8680997448 0.9082862325 0.9183224421
DDDD 3 0.4284378902 0.8492767708 0.0796413781 0.1055795798
DDDD 4 0.3157934068 0.1158501856 0.8452832088 0.8998082606
DDDD 5 0.2806415555 0.9451450268 0.2765807278 0.0144947227
DDDD 6 0.0034960154 0.9854360809 0.0812585769 0.4243695994
DDDD 7 0.1816147301 0.3554427341 0.7549710999 0.6513106882
END
