33D32945 STP File, STP Format Version 1.0

SECTION Comments
Name "cube_n8_d4_s49"
Problem "Euclidean Steiner Tree Problem"
Remark "Generated with STPGenerator. 4 dimensions."
END

SECTION Graph
Nodes 8
END

SECTION Coordinates
DDDD 0 0.0418115836 0.2200377310 0.3087208249 0.1629512739
DDDD 1 0.7427612197 0.2952385462 0.6634417692 0.9268148322
DDDD 2 0.4391896513 0.6174133409 0.9290067493 0.8974420614
DDDD 3 0.6268771643 0.9956121147 0.5463564538 0.9780446412
DDDD 4 0.8501515877 0.8986921589 0.4174514107 0.3731905494
DDDD 5 0.4855085041 0.3490163122 0.8709676535 0.6129136903
DDDD 6 0.1817772687 0.4070928839 0.1923376211 0.4982240295
DDDD 7 0.9403857789 0.7748197265 0.0876867548 0.9821973629
END
