33D32945 STP File, STP Format Version 1.0

SECTION Comments
Name "cube_n8_d4_s50"
Problem "Euclidean Steiner Tree Problem"
Remark "Generated with STPGenerator. 4 dimensions."
END

SECTION Graph
Nodes 8
END

SECTION Coordinates
DDDD 0 0.8943212232 0.6286429756 0.1040961771 0.9758517360
DDDD 1 0.6714702508 0.5076044628 0.0156422849 0.2154678540
DDDD 2 0.2348691641 0.1913313205 0.4307993098 0.5479775013
DDDD 3 0.0151233026 0.0380932228 0.0248203492 0.9218689981
DDDD 4 0.5204600438 0.6477700405 0.0916402913 0.5212438672
DDDD 5 0.5403122290 0.1304018107 0.0569058615 0.9637256646
DDDD 6 0.3840262170 0.8656925191 0.3785816228 0.6610816175
DDDD 7 0.5074669032 0.5613598230 0.6648593674 0.4017881259
END
