33D32945 STP File, STP Format Version 1.0

SECTION Comments
Name "cube_n9_d8_s11"
Problem "Euclidean Steiner Tree Problem"
Remark "Generated with STPGenerator. 8 dimensions."
END

SECTION Graph
Nodes 9
END

SECTION Coordinates
DDDDDDDD 0 0.9263453185 0.5264996991 0.3097808907 0.5022105041 0.7537675108 0.4059770589 0.4484664097 0.2208949445
DDDDDDDD 1 0.8329159067 0.4041060449 0.0752406661 0.2481696737 0.3817098766 0.0352495974 0.3687719635 0.5168204054
DDDDDDDD 2 0.9570931466 0.3607239967 0.5789050197 0.7321704266 0.2410501816 0.7910995301 0.1739375839 0.0170635157
DDDDDDDD 3 0.4592865964 0.7046087811 0.7298904530 0.0711031715 0.4371118506 0.8601203439 0.1809798303 0.3634571686
DDDDDDDD 4 0.3866200426 0.4907607210 0.8656676732 0.1403875533 0.8967377799 0.3141340824 0.3612824978 0.7296536866
DDDDDDDD 5 0.7182401273 0.4365231644 0.9778233603 0.0999500035 0.4717727618 0.3465953233 0.6167704093 0.4288659084
DDDDDDDD 6 0.7073193200 0.1956754286 0.1610363345 0.9483695021 0.9867749587 0.3349739184 0.9654330178 0.4460615546
DDDDDDDD 7 0.0395826991 0.6953234704 0.5171647261 0.4766945497 0.5554438138 0.6981445563 0.8401517187 0.9420638568
DDDDDDDD 8 0.1889052769 0.7058193915 0.0824514097 0.0856430568 0.0199534735 0.4437339075 0.8152967434 0.7381936008
END
