33D32945 STP File, STP Format Version 1.0

SECTION Comments
Name "cube_n9_d8_s44"
Problem "Euclidean Steiner Tree Problem"
Remark "Generated with STPGenerator. 8 dimensions."
END

SECTION Graph
Nodes 9
END

SECTION Coordinates
DDDDDDDD 0 0.7497371406 0.6546126439 0.7923043043 0.0619196091 0.0727788904 0.1874291036 0.8574096602 0.9521014504
DDDDDDDD 1 0.4074837125 0.1925271313 0.3823489777 0.5831195775 0.1180090462 0.7377023845 0.5829005281 0.1765204129
DDDDDDDD 2 0.4433295240 0.5713405118 0.4465203399 0.0654066005 0.1171411286 0.3212535252 0.8584552788 0.7502715582
DDDDDDDD 3 0.0250844127 0.5121703011 0.1360900286 0.5095511137 0.9792704061 0.1979680449 0.9935512585 0.7290075462
DDDDDDDD 4 0.8525806893 0.7858555623 0.7909271553 0.9253595797 0.9732846664 0.6483368150 0.8774610296 0.3807683784
DDDDDDDD 5 0.8408639463 0.2598100068 0.9638879560 0.9588729930 0.9975123913 0.5467884836 0.1353934054 0.4408419153
DDDDDDDD 6 0.1181289950 0.5819137453 0.5062485158 0.2352701236 0.9031672705 0.3647037942 0.9855416822 0.9282516832
DDDDDDDD 7 0.8768740952 0.1216317104 0.4378027965 0.8561445008 0.3195997553 0.4313540545 0.5851520466 0.1721804441
DDDDDDDD 8 0.2172096163 0.3760792014 0.0975400233 0.1904942823 0.0244160160 0.9750010529 0.5712626607 0.8652799627
END
