33D32945 STP File, STP Format Version 1.0

SECTION Comments
Name "cube_n9_d8_s7"
Problem "Euclidean Steiner Tree Problem"
Remark "Generated with STPGenerator. 8 dimensions."
END

SECTION Graph
Nodes 9
END

SECTION Coordinates
DDDDDDDD 0 0.4869041394 0.8679774124 0.5925911942 0.2147098403 0.0102265389 0.5148185620 0.9959482527 0.0319323023
DDDDDDDD 1 0.6015652793 0.0553448466 0.5267799439 0.0893740547 0.7644367087 0.8154919030 0.8889724807 0.1638986730
DDDDDDDD 2 0.2155044015 0.7876827134 0.7886977730 0.0666457862 0.4325436914 0.0533801331 0.3409319503 0.5098388086
DDDDDDDD 3 0.0160246850 0.2613700387 0.3636968142 0.7594234276 0.0359230940 0.0724071777 0.1815535189 0.5228272334
DDDDDDDD 4 0.9403845905 0.7741447132 0.7375370742 0.9506111294 0.2889632747 0.7334853265 0.9825434321 0.8905285545
DDDDDDDD 5 0.7888301731 0.5093233755 0.9799026092 0.5532668813 0.3248152781 0.8688750900 0.7171655543 0.5403196800
DDDDDDDD 6 0.6565578029 0.5058633268 0.6069654662 0.0891014939 0.5592434604 0.9478974165 0.5989403024 0.5752681455
DDDDDDDD 7 0.2092674548 0.9626371166 0.3346915731 0.2451905493 0.0350442939 0.5162450920 0.7680177827 0.9754288844
DDDDDDDD 8 0.2903898052 0.5055548565 0.9260400138 0.5793530799 0.2390401825 0.9085834454 0.4698816340 0.0278703557
END
