33D32945 STP File, STP Format Version 1.0

SECTION Comments
Name "cube_n5_d6_s44"
Problem "Euclidean Steiner Tree Problem"
Remark "Generated with STPGenerator. 6 dimensions."
END

SECTION Graph
Nodes 5
END

SECTION Coordinates
DDDDDD 0 0.7497371406 0.6546126439 0.7923043043 0.0619196091 0.0727788904 0.1874291036
DDDDDD 1 0.8574096602 0.9521014504 0.4074837125 0.1925271313 0.3823489777 0.5831195775
DDDDDD 2 0.1180090462 0.7377023845 0.5829005281 0.1765204129 0.4433295240 0.5713405118
DDDDDD 3 0.4465203399 0.0654066005 0.1171411286 0.3212535252 0.8584552788 0.7502715582
DDDDDD 4 0.0250844127 0.5121703011 0.1360900286 0.5095511137 0.9792704061 0.1979680449
END
