33D32945 STP File, STP Format Version 1.0

SECTION Comments
Name "cube_n6_d7_s39"
Problem "Euclidean Steiner Tree Problem"
Remark "Generated with STPGenerator. 7 dimensions."
END

SECTION Graph
Nodes 6
END

SECTION Coordinates
DDDDDDD 0 0.9571484462 0.5881108905 0.2816415891 0.9608924622 0.4010537497 0.5862380008 0.0521304696
DDDDDDD 1 0.9748592134 0.3832746434 0.7694257664 0.3322590768 0.7771537661 0.6123015828 0.9753510230
DDDDDDD 2 0.6286001725 0.3799427857 0.0309723057 0.7538297781 0.4828030474 0.7509467996 0.2591224784
DDDDDDD 3 0.3035272250 0.3381346959 0.3982325915 0.3818814775 0.1083943300 0.5903588718 0.0385252712
DDDDDDD 4 0.5084510411 0.1311056945 0.9219905035 0.4655994868 0.7192165850 0.2036320922 0.4264919485
DDDDDDD 5 0.1202703342 0.7898700930 0.4786224181 0.0951295472 0.1731447364 0.2480481846 0.4273886245
END
