33D32945 STP File, STP Format Version 1.0

SECTION Comments
Name "cube_n6_d7_s49"
Problem "Euclidean Steiner Tree Problem"
Remark "Generated with STPGenerator. 7 dimensions."
END

SECTION Graph
Nodes 6
END

SECTION Coordinates
DDDDDDD 0 0.0418115836 0.2200377310 0.3087208249 0.1629512739 0.7427612197 0.2952385462 0.6634417692
DDDDDDD 1 0.9268148322 0.4391896513 0.6174133409 0.9290067493 0.8974420614 0.6268771643 0.9956121147
DDDDDDD 2 0.5463564538 0.9780446412 0.8501515877 0.8986921589 0.4174514107 0.3731905494 0.4855085041
DDDDDDD 3 0.3490163122 0.8709676535 0.6129136903 0.1817772687 0.4070928839 0.1923376211 0.4982240295
DDDDDDD 4 0.9403857789 0.7748197265 0.0876867548 0.9821973629 0.9948574575 0.3964075797 0.1451486364
DDDDDDD 5 0.7376186767 0.6916461264 0.8085904055 0.6644335085 0.1308357772 0.4260037464 0.5934402573
END
