33D32945 STP File, STP Format Version 1.0

SECTION Comments
Name "cube_n8_d6_s27"
Problem "Euclidean Steiner Tree Problem"
Remark "Generated with STPGenerator. 6 dimensions."
END

SECTION Graph
Nodes 8
END

SECTION Coordinates
DDDDDD 0 0.6598329719 0.1353963139 0.1522402149 0.1232835241 0.6977873504 0.4392972800
DDDDDD 1 0.7240747631 0.4406859998 0.7210137708 0.2581046555 0.7259597377 0.3388851464
DDDDDD 2 0.3019310251 0.3627231598 0.2349354551 0.3703337798 0.8618260598 0.5896025284
DDDDDD 3 0.1705039685 0.3206381841 0.3995182511 0.6596048789 0.9180047749 0.9557145545
DDDDDD 4 0.6343384281 0.3725255692 0.5868318391 0.7012481791 0.9164614044 0.3820900793
DDDDDD 5 0.0400117864 0.5762943759 0.5174863937 0.1922520013 0.6995779000 0.2152737436
DDDDDD 6 0.6315492818 0.4236526631 0.6559597434 0.3525630521 0.6817573186 0.3819194806
DDDDDD 7 0.6914481990 0.9836883438 0.7446426403 0.9263836541 0.3540221231 0.6064687002
END
