33D32945 STP File, STP Format Version 1.0

SECTION Comments
Name "cube_n8_d6_s5"
Problem "Euclidean Steiner Tree Problem"
Remark "Generated with STPGenerator. 6 dimensions."
END

SECTION Graph
Nodes 8
END

SECTION Coordinates
DDDDDD 0 0.2747455962 0.0464677648 0.9927552245 0.0800304450 0.1476887968 0.0796446726
DDDDDD 1 0.2805664764 0.4484554052 0.4982478328 0.8940018629 0.0156746367 0.2746502162
DDDDDD 2 0.9714187407 0.2212781451 0.4164950971 0.2561370005 0.3634193076 0.2718471113
DDDDDD 3 0.4159667661 0.2562429226 0.3028504617 0.4612696383 0.4511669648 0.2853909383
DDDDDD 4 0.0763532385 0.8217415124 0.9652387276 0.3917416899 0.3736224269 0.9697014317
DDDDDD 5 0.4773686391 0.6483680232 0.0161691960 0.4701238631 0.7283984682 0.1638579933
DDDDDD 6 0.5497685357 0.0089649442 0.6123133984 0.0480163680 0.9029668076 0.6279880356
DDDDDD 7 0.3226665842 0.8743855478 0.8492661807 0.7391616813 0.1305225478 0.2126854878
END
