33D32945 STP File, STP Format Version 1.0

SECTION Comments
Name "cube_n8_d2_s18"
Problem "Euclidean Steiner Tree Problem"
Remark "Generated with STPGenerator. 2 dimensions."
END

SECTION Graph
Nodes 8
END

SECTION Coordinates
DD 0 0.9290727782 0.9129959489
DD 1 0.9238626137 0.2359872904
DD 2 0.7857724450 0.9465178470
DD 3 0.9674219824 0.2784534135
DD 4 0.4652112594 0.4872422654
DD 5 0.1321992586 0.3741906497
DD 6 0.6797411119 0.8863195306
DD 7 0.8013723990 0.2213446718
END
