33D32945 STP File, STP Format Version 1.0

SECTION Comments
Name "cube_n8_d2_s22"
Problem "Euclidean Steiner Tree Problem"
Remark "Generated with STPGenerator. 2 dimensions."
END

SECTION Graph
Nodes 8
END

SECTION Coordinates
DD 0 0.8650269224 0.5663939652
DD 1 0.6338536677 0.0191505631
DD 2 0.5234706907 0.8290278501
DD 3 0.4145243920 0.4607495118
DD 4 0.1862228323 0.3292264125
DD 5 0.6730409189 0.5206844050
DD 6 0.2885274982 0.0973462291
DD 7 0.2666000273 0.5636440160
END
