33D32945 STP File, STP Format Version 1.0

SECTION Comments
Name "cube_n8_d2_s23"
Problem "Euclidean Steiner Tree Problem"
Remark "Generated with STPGenerator. 2 dimensions."
END

SECTION Graph
Nodes 8
END

SECTION Coordinates
DD 0 0.7275817463 0.4842158102
DD 1 0.9432684327 0.3444002356
DD 2 0.4630026335 0.5578971945
DD 3 0.2818813474 0.2621717841
DD 4 0.5012496633 0.9217083640
DD 5 0.6899727819 0.1938467460
DD 6 0.6994581058 0.1578644305
DD 7 0.7714722398 0.0351164541
END
