33D32945 STP File, STP Format Version 1.0

SECTION Comments
Name "cube_n8_d2_s25"
Problem "Euclidean Steiner Tree Problem"
Remark "Generated with STPGenerator. 2 dimensions."
END

SECTION Graph
Nodes 8
END

SECTION Coordinates
DD 0 0.9393561920 0.8057392150
DD 1 0.0423321780 0.9785602656
DD 2 0.3255712615 0.9922046186
DD 3 0.9965749998 0.8456901428
DD 4 0.1036064635 0.5821549858
DD 5 0.7011187615 0.5075186931
DD 6 0.9913254278 0.7521004219
DD 7 0.7428126711 0.9414201057
END
