33D32945 STP File, STP Format Version 1.0

SECTION Comments
Name "cube_n7_d3_s32"
Problem "Euclidean Steiner Tree Problem"
Remark "Generated with STPGenerator. 3 dimensions."
END

SECTION Graph
Nodes 7
END

SECTION Coordinates
DDD 0 0.4496756841 0.6990365287 0.6652369316
DDD 1 0.7215187111 0.8656997224 0.5431189162
DDD 2 0.5266172777 0.9129774263 0.7480876026
DDD 3 0.1786557348 0.2697567126 0.1478463012
DDD 4 0.3054385443 0.1172210561 0.1922058562
DDD 5 0.6652606896 0.7645411136 0.9098374536
DDD 6 0.1333542867 0.6234359283 0.2597159544
END
