33D32945 STP File, STP Format Version 1.0

SECTION Comments
Name "cube_n7_d3_s34"
Problem "Euclidean Steiner Tree Problem"
Remark "Generated with STPGenerator. 3 dimensions."
END

SECTION Graph
Nodes 7
END

SECTION Coordinates
DDD 0 0.1689700215 0.0285875835 0.7728105293
DDD 1 0.3646502115 0.2378394540 0.4875804249
DDD 2 0.2520150534 0.5079065824 0.3625599515
DDD 3 0.8518746006 0.2945063893 0.4759735886
DDD 4 0.6125465755 0.2276748625 0.6807925690
DDD 5 0.0897512576 0.6359386517 0.9450358706
DDD 6 0.5259626366 0.9567871433 0.9126800242
END
