33D32945 STP File, STP Format Version 1.0

SECTION Comments
Name "cube_n7_d3_s36"
Problem "Euclidean Steiner Tree Problem"
Remark "Generated with STPGenerator. 3 dimensions."
END

SECTION Graph
Nodes 7
END

SECTION Coordinates
DDD 0 0.3812597861 0.3492478469 0.8728369269
DDD 1 0.9995752056 0.5993793447 0.9228681605
DDD 2 0.4677818946 0.0902298559 0.4658759178
DDD 3 0.5137684199 0.8042997703 0.7905323886
DDD 4 0.4063076491 0.8204223732 0.1528823809
DDD 5 0.9984735842 0.4864156537 0.4601904710
DDD 6 0.3998939984 0.2654632643 0.5413149840
END
