33D32945 STP File, STP Format Version 1.0

SECTION Comments
Name "cube_n7_d3_s37"
Problem "Euclidean Steiner Tree Problem"
Remark "Generated with STPGenerator. 3 dimensions."
END

SECTION Graph
Nodes 7
END

SECTION Coordinates
DDD 0 0.2394123931 0.7611420498 0.1745217923
DDD 1 0.8194240331 0.0320747178 0.6424573714
DDD 2 0.3284930686 0.8837608927 0.2698044499
DDD 3 0.5980566296 0.3121092172 0.4504713320
DDD 4 0.8071258347 0.3703712553 0.6420550997
DDD 5 0.9574638638 0.1660335614 0.7214625924
DDD 6 0.5922896800 0.9251535474 0.6100173786
END
