33D32945 STP File, STP Format Version 1.0

SECTION Comments
Name "cube_n12_d9_s27"
Problem "Euclidean Steiner Tree Problem"
Remark "Generated with STPGenerator. 9 dimensions."
END

SECTION Graph
Nodes 12
END

SECTION Coordinates
DDDDDDDDD 0 0.6598329719 0.1353963139 0.1522402149 0.1232835241 0.6977873504 0.4392972800 0.7240747631 0.4406859998 0.7210137708
DDDDDDDDD 1 0.2581046555 0.7259597377 0.3388851464 0.3019310251 0.3627231598 0.2349354551 0.3703337798 0.8618260598 0.5896025284
DDDDDDDDD 2 0.1705039685 0.3206381841 0.3995182511 0.6596048789 0.9180047749 0.9557145545 0.6343384281 0.3725255692 0.5868318391
DDDDDDDDD 3 0.7012481791 0.9164614044 0.3820900793 0.0400117864 0.5762943759 0.5174863937 0.1922520013 0.6995779000 0.2152737436
DDDDDDDDD 4 0.6315492818 0.4236526631 0.6559597434 0.3525630521 0.6817573186 0.3819194806 0.6914481990 0.9836883438 0.7446426403
DDDDDDDDD 5 0.9263836541 0.3540221231 0.6064687002 0.5159861820 0.5245260920 0.9271068843 0.9155044336 0.1841309705 0.8451116587
DDDDDDDDD 6 0.8712189877 0.8184693986 0.2176372275 0.4580508263 0.5197175776 0.1340986319 0.8401409056 0.5597293640 0.7103930077
DDDDDDDDD 7 0.3576272988 0.7519813654 0.4099709077 0.5729010429 0.3835306467 0.8336235708 0.2288607858 0.7360936993 0.5153808890
DDDDDDDDD 8 0.6107802669 0.4275418978 0.4990692323 0.3554229067 0.3539255515 0.8530913558 0.9618916069 0.8699117335 0.3776174473
DDDDDDDDD 9 0.8889984907 0.7854161667 0.5617484178 0.7341101494 0.6566351539 0.3802178159 0.9517473769 0.1146859797 0.8999353935
DDDDDDDDD 10 0.0858460083 0.9548268858 0.4596647571 0.7962390165 0.3124541842 0.2116461225 0.2062099237 0.8853552271 0.5951767692
DDDDDDDDD 11 0.0398334940 0.1142160129 0.3312704681 0.5552143830 0.7249962798 0.7588123659 0.0542836148 0.0804191861 0.1127379169
END
