33D32945 STP File, STP Format Version 1.0

SECTION Comments
Name "cube_n12_d9_s6"
Problem "Euclidean Steiner Tree Problem"
Remark "Generated with STPGenerator. 9 dimensions."
END

SECTION Graph
Nodes 12
END

SECTION Coordinates
DDDDDDDDD 0 0.1354387687 0.9625167521 0.7997272130 0.4030091993 0.0851281491 0.8056346727 0.6451566176 0.2473998085 0.3098868776
DDDDDDDDD 1 0.9831179767 0.5296626759 0.9438327159 0.8782621500 0.7782872272 0.4166978609 0.2226562315 0.5511224272 0.0462225136
DDDDDDDDD 2 0.6177704891 0.4252223039 0.3870529828 0.7761541152 0.6623876005 0.1703382573 0.3191112491 0.3110007436 0.6911040380
DDDDDDDDD 3 0.1034285073 0.9779993249 0.8022396713 0.6132100036 0.1134380932 0.7647564228 0.4129372162 0.5164472929 0.8498845724
DDDDDDDDD 4 0.2185718884 0.1616039100 0.0972843804 0.5284587664 0.1447218867 0.6269470568 0.4722914819 0.0229840363 0.4052342835
DDDDDDDDD 5 0.8889893428 0.2456402682 0.9563567112 0.9352118568 0.8634107573 0.3815790147 0.3222648391 0.6395648721 0.0439666151
DDDDDDDDD 6 0.4926030964 0.9586761212 0.3549673587 0.1837071340 0.0621046280 0.3329666836 0.9859468052 0.6753146316 0.4464047767
DDDDDDDDD 7 0.7507032281 0.0882518473 0.9628520696 0.6005878000 0.3068237362 0.1244559796 0.6978721804 0.8352825026 0.2691778663
DDDDDDDDD 8 0.3248192367 0.3075739841 0.2921619025 0.7300535206 0.1965633264 0.5378021707 0.6864102314 0.1317751827 0.4012129281
DDDDDDDDD 9 0.0679892456 0.4540400218 0.0407777997 0.1119558607 0.9466431183 0.9994539213 0.4669232198 0.1303502522 0.0615585489
DDDDDDDDD 10 0.7998899034 0.1162970570 0.7368731809 0.2462946797 0.8670002850 0.8251250283 0.2091467493 0.4675880845 0.1319487640
DDDDDDDDD 11 0.3336027289 0.1654602649 0.9672312667 0.6027805952 0.4902795015 0.2748052502 0.8949424978 0.2203330217 0.4713685771
END
