33D32945 STP File, STP Format Version 1.0

SECTION Comments
Name "cube_n15_d7_s19"
Problem "Euclidean Steiner Tree Problem"
Remark "Generated with STPGenerator. 7 dimensions."
END

SECTION Graph
Nodes 15
END

SECTION Coordinates
DDDDDDD 0 0.2902333854 0.3277869785 0.2285638117 0.0594177293 0.2219586108 0.6696780285 0.3323929949
DDDDDDD 1 0.5761897869 0.2733734680 0.0765914861 0.6450726547 0.0391567499 0.5865659870 0.9423629041
DDDDDDD 2 0.7965240673 0.6874572605 0.9015435013 0.9686559904 0.6175688950 0.5169671907 0.3123343211
DDDDDDD 3 0.2170182561 0.7847483530 0.4766765621 0.2870572444 0.5252522843 0.8965011402 0.6247255405
DDDDDDD 4 0.1610254427 0.8566360394 0.0970141232 0.4512588286 0.1844230174 0.3255779349 0.5106765579
DDDDDDD 5 0.4063816287 0.9952559634 0.8430695528 0.9825714156 0.2686294314 0.9196610394 0.6276440698
DDDDDDD 6 0.3077861812 0.5062270260 0.5700069734 0.1043102486 0.1936842861 0.4715504742 0.0729662385
DDDDDDD 7 0.8112531811 0.9885176653 0.3853005596 0.0282714367 0.7732660178 0.8619771217 0.3153286811
DDDDDDD 8 0.2985183016 0.7584782614 0.9400542215 0.4595437443 0.6151143008 0.0370683442 0.9108025729
DDDDDDD 9 0.7995373182 0.3626462791 0.4214791308 0.2059189464 0.3579022425 0.2645486832 0.1884903620
DDDDDDD 10 0.6265316739 0.1842097222 0.8161344318 0.9343178551 0.6904367482 0.3861414052 0.0386281032
DDDDDDD 11 0.8841210342 0.8576918793 0.1115943417 0.6953742153 0.8462095442 0.4968949014 0.7236456520
DDDDDDD 12 0.6194755615 0.3588720231 0.0389743331 0.9179938631 0.1173502841 0.9790285546 0.3775376074
DDDDDDD 13 0.7324645849 0.0160968988 0.2883401798 0.5320019031 0.3787431779 0.7098193107 0.7379208495
DDDDDDD 14 0.7366454204 0.9743679943 0.9264112115 0.3631770938 0.1585777161 0.7425456432 0.2974949490
END
