33D32945 STP File, STP Format Version 1.0

SECTION Comments
Name "cube_n15_d7_s34"
Problem "Euclidean Steiner Tree Problem"
Remark "Generated with STPGenerator. 7 dimensions."
END

SECTION Graph
Nodes 15
END

SECTION Coordinates
DDDDDDD 0 0.1689700215 0.0285875835 0.7728105293 0.3646502115 0.2378394540 0.4875804249 0.2520150534
DDDDDDD 1 0.5079065824 0.3625599515 0.8518746006 0.2945063893 0.4759735886 0.6125465755 0.2276748625
DDDDDDD 2 0.6807925690 0.0897512576 0.6359386517 0.9450358706 0.5259626366 0.9567871433 0.9126800242
DDDDDDD 3 0.2932653806 0.3414342214 0.5614015812 0.7468854965 0.2319139071 0.0643970538 0.5766860040
DDDDDDD 4 0.5689670525 0.5896822263 0.8609460652 0.7379370740 0.6182698098 0.6337565941 0.1025872855
DDDDDDD 5 0.8561092638 0.1213370185 0.3546023389 0.3640158462 0.4838969700 0.2064769390 0.6585222355
DDDDDDD 6 0.9598705587 0.8190235145 0.8861970980 0.6406631272 0.9087747722 0.5221357497 0.5856989974
DDDDDDD 7 0.4347374083 0.4789228926 0.4983790216 0.7280027888 0.8203571145 0.0597806024 0.4748882849
DDDDDDD 8 0.0522710211 0.1241776562 0.0515742884 0.6212380736 0.7138598825 0.9125203536 0.3591751477
DDDDDDD 9 0.3321296919 0.5462769477 0.4617624332 0.1882389552 0.6676139662 0.8163647721 0.5522548014
DDDDDDD 10 0.1515109363 0.0228417106 0.2107770365 0.1113814945 0.8418652252 0.0969741345 0.7520446222
DDDDDDD 11 0.7506399968 0.6191098842 0.3377436191 0.1853774051 0.0980327763 0.8361226408 0.9133801939
DDDDDDD 12 0.9183898908 0.8959032432 0.3882684789 0.9706609119 0.0200808989 0.4398427673 0.5918989855
DDDDDDD 13 0.7339407814 0.3523631209 0.9510741331 0.0660704729 0.8986400687 0.4128365658 0.2543094285
DDDDDDD 14 0.5662540344 0.2292013374 0.8065642299 0.7177649707 0.2520430480 0.0173412664 0.8291464657
END
