33D32945 STP File, STP Format Version 1.0

SECTION Comments
Name "cube_n6_d9_s15"
Problem "Euclidean Steiner Tree Problem"
Remark "Generated with STPGenerator. 9 dimensions."
END

SECTION Graph
Nodes 6
END

SECTION Coordinates
DDDDDDDDD 0 0.3549731771 0.6731490375 0.5153574038 0.2768868838 0.9831143995 0.7832298362 0.3857721921 0.3929051535 0.0476035024
DDDDDDDDD 1 0.2348172144 0.1034733854 0.3869860398 0.9775588964 0.7308916956 0.3246047955 0.3443029827 0.6699542467 0.4050064401
DDDDDDDDD 2 0.8388915681 0.8634974965 0.5150421176 0.9928987739 0.9662594152 0.9828661391 0.3598284723 0.0994729628 0.0463795699
DDDDDDDDD 3 0.3319424024 0.7808070447 0.5882075376 0.6198589530 0.1357802214 0.2613565746 0.1352163563 0.4126671052 0.2444709736
DDDDDDDDD 4 0.9184461929 0.7984392977 0.6373761276 0.9660496954 0.0332565117 0.7408495130 0.3530357351 0.0108154076 0.4717412081
DDDDDDDDD 5 0.6776405306 0.3551183903 0.1416954548 0.0826469702 0.1940099584 0.0051929508 0.5976890882 0.1869087318 0.9714523661
END
