33D32945 STP File, STP Format Version 1.0

SECTION Comments
Name "cube_n6_d9_s20"
Problem "Euclidean Steiner Tree Problem"
Remark "Generated with STPGenerator. 9 dimensions."
END

SECTION Graph
Nodes 6
END

SECTION Coordinates
DDDDDDDDD 0 0.1488122675 0.7401193766 0.5311698176 0.3798184727 0.6551358368 0.3903584468 0.6938135543 0.3702549456 0.5785871486
DDDDDDDDD 1 0.6617850073 0.1534811920 0.2006002349 0.4885317048 0.9929940151 0.7874475535 0.1478928184 0.0819520862 0.2319531549
DDDDDDDDD 2 0.3117739127 0.1775910422 0.3833652220 0.0224110372 0.9863731647 0.8460247199 0.0179714379 0.5034501541 0.1039613784
DDDDDDDDD 3 0.3216621426 0.2525900748 0.6675356089 0.2145335810 0.4014023423 0.4076549855 0.7457033986 0.7812208150 0.0627908218
DDDDDDDDD 4 0.1360618449 0.4750343694 0.4330457674 0.7146489940 0.1368193762 0.5865269595 0.9152492289 0.6253510810 0.5795209741
DDDDDDDDD 5 0.7026967819 0.7732438994 0.6614730608 0.9346499368 0.0850178120 0.8390641030 0.3180151583 0.1074288493 0.8254372672
END
