33D32945 STP File, STP Format Version 1.0

SECTION Comments
Name "cube_n6_d9_s41"
Problem "Euclidean Steiner Tree Problem"
Remark "Generated with STPGenerator. 9 dimensions."
END

SECTION Graph
Nodes 6
END

SECTION Coordinates
DDDDDDDDD 0 0.6702460561 0.9116797088 0.3821349500 0.5965716008 0.2660512897 0.0223274580 0.7685739201 0.5612500564 0.4878506383
DDDDDDDDD 1 0.4318964698 0.8467889367 0.5935844293 0.9065222973 0.5735588286 0.6033617564 0.7889988608 0.3876816590 0.2726833854
DDDDDDDDD 2 0.3569481244 0.0666660061 0.3927549945 0.8972157686 0.7339704534 0.1277633953 0.3233618859 0.0549102435 0.9953047172
DDDDDDDDD 3 0.4083444380 0.1785172881 0.7420079246 0.1287793886 0.8487633443 0.6536876334 0.5109143390 0.4453349446 0.9197389232
DDDDDDDDD 4 0.5332417970 0.2139088648 0.4809889791 0.0210924349 0.6458053345 0.3277779153 0.6146768642 0.5523276313 0.9013367439
DDDDDDDDD 5 0.2180386205 0.3413264916 0.2890184029 0.4907220059 0.6982746160 0.3556844091 0.8834770009 0.5954903842 0.0896548625
END
