33D32945 STP File, STP Format Version 1.0

SECTION Comments
Name "cube_n6_d6_s25"
Problem "Euclidean Steiner Tree Problem"
Remark "Generated with STPGenerator. 6 dimensions."
END

SECTION Graph
Nodes 6
END

SECTION Coordinates
DDDDDD 0 0.9393561920 0.8057392150 0.0423321780 0.9785602656 0.3255712615 0.9922046186
DDDDDD 1 0.9965749998 0.8456901428 0.1036064635 0.5821549858 0.7011187615 0.5075186931
DDDDDD 2 0.9913254278 0.7521004219 0.7428126711 0.9414201057 0.9901046399 0.0505868262
DDDDDD 3 0.7723662428 0.4866999432 0.7424799096 0.5370173396 0.9999918654 0.1990076612
DDDDDD 4 0.6581573387 0.8989526019 0.6503086554 0.7898902324 0.7133313109 0.2344475841
DDDDDD 5 0.2836491360 0.6526875024 0.0401867987 0.3259813140 0.6312477680 0.3657580602
END
