33D32945 STP File, STP Format Version 1.0

SECTION Comments
Name "cube_n6_d6_s42"
Problem "Euclidean Steiner Tree Problem"
Remark "Generated with STPGenerator. 6 dimensions."
END

SECTION Graph
Nodes 6
END

SECTION Coordinates
DDDDDD 0 0.0334699480 0.3299642076 0.6906357043 0.4224866822 0.2062651386 0.2501284509
DDDDDD 1 0.6365585242 0.8636223808 0.3016556312 0.0249239351 0.3649927091 0.7653809822
DDDDDD 2 0.3178602631 0.1357283928 0.1067452580 0.7606715722 0.0816722829 0.5509562085
DDDDDD 3 0.5646518891 0.7432705070 0.9817601498 0.2188497932 0.4543959207 0.5186540231
DDDDDD 4 0.5738417281 0.5552310401 0.7285462551 0.6288739409 0.7961281304 0.5837158191
DDDDDD 5 0.2747664383 0.8295980784 0.9136800267 0.9654021426 0.2520847601 0.1199451648
END
