33D32945 STP File, STP Format Version 1.0

SECTION Comments
Name "cube_n14_d9_s21"
Problem "Euclidean Steiner Tree Problem"
Remark "Generated with STPGenerator. 9 dimensions."
END

SECTION Graph
Nodes 14
END

SECTION Coordinates
DDDDDDDDD 0 0.5058995711 0.1543681692 0.3336426291 0.6982897980 0.0904165954 0.6112220658 0.0528075560 0.6665685525 0.8844101391
DDDDDDDDD 1 0.2439990897 0.1642170884 0.3632087118 0.3869168281 0.0459364807 0.2802418788 0.1041107807 0.2645267724 0.9979975852
DDDDDDDDD 2 0.0011071404 0.3400666059 0.9582093637 0.8222869392 0.1893208209 0.7204574974 0.7427683257 0.4821770696 0.3179936159
DDDDDDDDD 3 0.5119722684 0.8435701522 0.9867132548 0.8250681748 0.3494697229 0.1410814236 0.1587108039 0.0477595204 0.2314980189
DDDDDDDDD 4 0.7699328697 0.1005670764 0.8980665714 0.6543430084 0.3445661666 0.0622836598 0.0175517202 0.7314829946 0.1082201405
DDDDDDDDD 5 0.2977935990 0.8355937753 0.3727469129 0.2957911837 0.8367009162 0.7128135188 0.2540005475 0.6589878549 0.9021343397
DDDDDDDDD 6 0.9744580448 0.4017561802 0.3843114089 0.2924516603 0.9137284485 0.2278815607 0.2791649146 0.7387966233 0.5773512836
DDDDDDDDD 7 0.4202463382 0.8975074272 0.6251108039 0.6517443571 0.6674402965 0.7256778808 0.5498109285 0.3217833044 0.0702440469
DDDDDDDDD 8 0.6120945884 0.3393350245 0.8017270415 0.7203147289 0.6371286235 0.6373208163 0.0930616414 0.9329198077 0.4740217321
DDDDDDDDD 9 0.8058751602 0.1869203547 0.1330095865 0.7080094995 0.1613783991 0.5347657667 0.0923209079 0.4538300594 0.4484942152
DDDDDDDDD 10 0.3202024686 0.7329949740 0.1872908381 0.8975537521 0.1532413117 0.0847982648 0.5226645556 0.8049856689 0.7522385613
DDDDDDDDD 11 0.2483424359 0.3547965970 0.0740218652 0.3185864828 0.9668911854 0.4133568902 0.1203135239 0.6872059138 0.0504855132
DDDDDDDDD 12 0.7576343407 0.7802675552 0.9834053209 0.2316560723 0.5861427149 0.1703256751 0.3646656593 0.2941522139 0.3317040742
DDDDDDDDD 13 0.8994314260 0.3864731218 0.7855341336 0.3479256408 0.7066755903 0.5185291071 0.5352164789 0.6042293420 0.6717704188
END
