33D32945 STP File, STP Format Version 1.0

SECTION Comments
Name "cube_n14_d9_s30"
Problem "Euclidean Steiner Tree Problem"
Remark "Generated with STPGenerator. 9 dimensions."
END

SECTION Graph
Nodes 14
END

SECTION Coordinates
DDDDDDDDD 0 0.2299670750 0.8697586934 0.5547460311 0.5776126504 0.9940509931 0.5953307052 0.7999637326 0.8187845688 0.6298717496
DDDDDDDDD 1 0.5035535896 0.7460086135 0.8155644125 0.9956452860 0.5080417518 0.6990755753 0.2370779334 0.3946801244 0.8697485588
DDDDDDDDD 2 0.2358092783 0.2918461092 0.6015800124 0.5553159199 0.0093155527 0.0512251300 0.3029992102 0.2899153434 0.1948941383
DDDDDDDDD 3 0.2638538039 0.6694181327 0.2983180547 0.8596797180 0.8993852078 0.1680767476 0.4144257491 0.4769978577 0.1621277403
DDDDDDDDD 4 0.0097564538 0.2769615898 0.9809123091 0.6396282034 0.7805151794 0.7269209226 0.4551926155 0.7761604650 0.2349626740
DDDDDDDDD 5 0.1542681903 0.0132383984 0.6296427984 0.0240167487 0.2490476767 0.9214889076 0.6255967615 0.8043635971 0.9308044603
DDDDDDDDD 6 0.6768218915 0.1073628068 0.2207198032 0.8717160299 0.3712166112 0.8901379359 0.1700340841 0.2308963287 0.7895231437
DDDDDDDDD 7 0.3381108317 0.6453220777 0.2665210009 0.5002385725 0.6550785315 0.5434825912 0.4811508811 0.2947067350 0.3239977701
DDDDDDDDD 8 0.2080718033 0.7498993505 0.1001582351 0.4430344773 0.9041675413 0.1133966335 0.0726772752 0.9281842899 0.3624443102
DDDDDDDDD 9 0.9941661833 0.5537810510 0.1668079068 0.9249706431 0.2306029420 0.2741707141 0.1456904463 0.1023189715 0.6453873253
DDDDDDDDD 10 0.0358283818 0.2723530555 0.8762836540 0.8253515255 0.6104638877 0.5216057317 0.0918725264 0.1107024598 0.1766842628
DDDDDDDDD 11 0.6353551176 0.5918533409 0.4713909977 0.9593528877 0.7999251447 0.2212903482 0.0595111223 0.2429596215 0.1254578890
DDDDDDDDD 12 0.1729077558 0.3156368971 0.0536421784 0.5353520664 0.3098030800 0.6074232299 0.7021599732 0.2347737226 0.8380261719
DDDDDDDDD 13 0.9763306873 0.3804641689 0.9403451439 0.6217180121 0.4162925512 0.2126981990 0.4980016660 0.2416440762 0.8231620867
END
