33D32945 STP File, STP Format Version 1.0

SECTION Comments
Name "cube_n6_d4_s8"
Problem "Euclidean Steiner Tree Problem"
Remark "Generated with STPGenerator. 4 dimensions."
END

SECTION Graph
Nodes 6
END

SECTION Coordinates
DDDD 0 0.3527607286 0.7895895954 0.9058258696 0.0438874350
DDDD 1 0.9542649202 0.2482710840 0.8679820145 0.8387081427
DDDD 2 0.9220907362 0.6533997663 0.5500675400 0.2691321919
DDDD 3 0.6820132009 0.3835517202 0.9017543196 0.6433020787
DDDD 4 0.9163497486 0.5770127282 0.0059619849 0.7512683970
DDDD 5 0.5345170878 0.8868077020 0.5707898632 0.9158954317
END
