33D32945 STP File, STP Format Version 1.0

SECTION Comments
Name "cube_n11_d8_s40"
Problem "Euclidean Steiner Tree Problem"
Remark "Generated with STPGenerator. 8 dimensions."
END

SECTION Graph
Nodes 11
END

SECTION Coordinates
DDDDDDDD 0 0.8194229132 0.5062902763 0.0883140588 0.7855343049 0.3411775247 0.8119810777 0.9184383005 0.2771394566
DDDDDDDD 1 0.1947866791 0.8602793272 0.3503405700 0.4464217548 0.0208598026 0.0373252058 0.1292244392 0.3481050377
DDDDDDDD 2 0.7246325052 0.5291235137 0.6861238385 0.9269996448 0.8449453608 0.1197466637 0.0576706543 0.2857596349
DDDDDDDD 3 0.6257388632 0.6073334080 0.3200811210 0.7510317898 0.6239873639 0.9691653433 0.0583464685 0.4434102766
DDDDDDDD 4 0.4754556192 0.1466605273 0.2289445811 0.8166331438 0.9586416050 0.1473828816 0.0937726004 0.1534282836
DDDDDDDD 5 0.0076622083 0.4441131705 0.5998500383 0.0285220109 0.4814383762 0.7290744780 0.3766270487 0.2060708810
DDDDDDDD 6 0.2581979913 0.0627508867 0.1330705258 0.1031433517 0.1824975504 0.1907411801 0.3889029866 0.8082364140
DDDDDDDD 7 0.7980745881 0.7089841076 0.5592682034 0.4220619516 0.6781494509 0.6176146719 0.8654722287 0.1536050696
DDDDDDDD 8 0.7642751996 0.0944168093 0.9702382139 0.7229168041 0.2417996909 0.0640108139 0.8763450882 0.2494618996
DDDDDDDD 9 0.5081239843 0.4761951261 0.2779839105 0.9895623606 0.2052696036 0.6546109597 0.1956332411 0.4634675949
DDDDDDDD 10 0.7173618463 0.3287037668 0.5666109466 0.8998593972 0.5194449469 0.9555139337 0.7080958107 0.3175195350
END
