33D32945 STP File, STP Format Version 1.0

SECTION Comments
Name "cube_n11_d8_s42"
Problem "Euclidean Steiner Tree Problem"
Remark "Generated with STPGenerator. 8 dimensions."
END

SECTION Graph
Nodes 11
END

SECTION Coordinates
DDDDDDDD 0 0.0334699480 0.3299642076 0.6906357043 0.4224866822 0.2062651386 0.2501284509 0.6365585242 0.8636223808
DDDDDDDD 1 0.3016556312 0.0249239351 0.3649927091 0.7653809822 0.3178602631 0.1357283928 0.1067452580 0.7606715722
DDDDDDDD 2 0.0816722829 0.5509562085 0.5646518891 0.7432705070 0.9817601498 0.2188497932 0.4543959207 0.5186540231
DDDDDDDD 3 0.5738417281 0.5552310401 0.7285462551 0.6288739409 0.7961281304 0.5837158191 0.2747664383 0.8295980784
DDDDDDDD 4 0.9136800267 0.9654021426 0.2520847601 0.1199451648 0.2155305930 0.8886432843 0.9835675461 0.5171862247
DDDDDDDD 5 0.9135672198 0.3485602547 0.2825672064 0.2314274824 0.4842886475 0.3893124645 0.9920990551 0.5659609305
DDDDDDDD 6 0.9402686734 0.5567509437 0.3092314370 0.9220288228 0.7756007373 0.7636273577 0.4406828454 0.3494424649
DDDDDDDD 7 0.3188583978 0.1692291001 0.9783164058 0.1149865278 0.7529449192 0.2530828441 0.9445846062 0.6666249459
DDDDDDDD 8 0.2184849862 0.1966693658 0.7865701107 0.4340155797 0.0853126496 0.7701376564 0.9512018044 0.9988798695
DDDDDDDD 9 0.1186979106 0.2337690104 0.2303073519 0.6029865582 0.6230814749 0.2224064065 0.1689474886 0.5633501478
DDDDDDDD 10 0.7791573502 0.4781789256 0.4853789702 0.5547580871 0.2418062832 0.9260618155 0.9042005520 0.5606646810
END
