33D32945 STP File, STP Format Version 1.0

SECTION Comments
Name "cube_n14_d8_s20"
Problem "Euclidean Steiner Tree Problem"
Remark "Generated with STPGenerator. 8 dimensions."
END

SECTION Graph
Nodes 14
END

SECTION Coordinates
DDDDDDDD 0 0.1488122675 0.7401193766 0.5311698176 0.3798184727 0.6551358368 0.3903584468 0.6938135543 0.3702549456
DDDDDDDD 1 0.5785871486 0.6617850073 0.1534811920 0.2006002349 0.4885317048 0.9929940151 0.7874475535 0.1478928184
DDDDDDDD 2 0.0819520862 0.2319531549 0.3117739127 0.1775910422 0.3833652220 0.0224110372 0.9863731647 0.8460247199
DDDDDDDD 3 0.0179714379 0.5034501541 0.1039613784 0.3216621426 0.2525900748 0.6675356089 0.2145335810 0.4014023423
DDDDDDDD 4 0.4076549855 0.7457033986 0.7812208150 0.0627908218 0.1360618449 0.4750343694 0.4330457674 0.7146489940
DDDDDDDD 5 0.1368193762 0.5865269595 0.9152492289 0.6253510810 0.5795209741 0.7026967819 0.7732438994 0.6614730608
DDDDDDDD 6 0.9346499368 0.0850178120 0.8390641030 0.3180151583 0.1074288493 0.8254372672 0.1640398778 0.1254002872
DDDDDDDD 7 0.3288874209 0.2680012562 0.4470624302 0.5814774956 0.9355368656 0.6615960112 0.9828798384 0.3431918506
DDDDDDDD 8 0.4072994093 0.7641006530 0.4059826724 0.5433612548 0.2391350219 0.8390284399 0.2580102483 0.3759543981
DDDDDDDD 9 0.4255553994 0.1732594767 0.0013054791 0.0050763730 0.8759562587 0.7745493784 0.6665494338 0.8106061950
DDDDDDDD 10 0.8595671905 0.5056135363 0.1286213529 0.9669960397 0.3310508031 0.2926612307 0.0923963269 0.6599382240
DDDDDDDD 11 0.5606624873 0.5394587571 0.2414157196 0.4961993524 0.2010547678 0.2242955576 0.8393912031 0.6083541771
DDDDDDDD 12 0.9883962106 0.2453738750 0.1517154314 0.2275312325 0.0844023144 0.4097256797 0.6034856306 0.5099577138
DDDDDDDD 13 0.5829851565 0.6047911097 0.5150340872 0.4589414147 0.3793404882 0.1815835206 0.2695476093 0.2389076782
END
