33D32945 STP File, STP Format Version 1.0

SECTION Comments
Name "cube_n14_d8_s37"
Problem "Euclidean Steiner Tree Problem"
Remark "Generated with STPGenerator. 8 dimensions."
END

SECTION Graph
Nodes 14
END

SECTION Coordinates
DDDDDDDD 0 0.2394123931 0.7611420498 0.1745217923 0.8194240331 0.0320747178 0.6424573714 0.3284930686 0.8837608927
DDDDDDDD 1 0.2698044499 0.5980566296 0.3121092172 0.4504713320 0.8071258347 0.3703712553 0.6420550997 0.9574638638
DDDDDDDD 2 0.1660335614 0.7214625924 0.5922896800 0.9251535474 0.6100173786 0.6899730524 0.4298925630 0.1510021729
DDDDDDDD 3 0.9164035199 0.1465295028 0.1651677811 0.6398503048 0.8193347011 0.9970282237 0.1806596616 0.0587470937
DDDDDDDD 4 0.7581702730 0.3551814539 0.8781711272 0.7902449909 0.9976388258 0.2066641954 0.6740058836 0.2674432752
DDDDDDDD 5 0.8047208254 0.9861151008 0.7179146072 0.6118466596 0.3564863561 0.3599697064 0.5693105229 0.5225199175
DDDDDDDD 6 0.0814322983 0.1616002024 0.4476734644 0.6914496770 0.8515732548 0.8775660274 0.8424518503 0.7679767743
DDDDDDDD 7 0.0240955297 0.0076196310 0.4078270790 0.8434302308 0.0046478543 0.5884867406 0.9021773249 0.7628181273
DDDDDDDD 8 0.9436681946 0.7803484517 0.5530631182 0.9413070199 0.9870126471 0.2270690013 0.2087502946 0.7917334720
DDDDDDDD 9 0.2131841016 0.9266649019 0.4035801312 0.5696704577 0.2866346083 0.9728906541 0.0921903747 0.3680669066
DDDDDDDD 10 0.1344908560 0.5398638391 0.0595165836 0.9860641109 0.4174298660 0.9019684339 0.7540408851 0.4415253957
DDDDDDDD 11 0.9095880650 0.1618679637 0.2849556265 0.9142359197 0.7503547043 0.1871329510 0.6770540465 0.6940228984
DDDDDDDD 12 0.9674814027 0.2301171642 0.6353299183 0.9544940493 0.4571861655 0.8440802129 0.7462275213 0.6703702676
DDDDDDDD 13 0.7707451148 0.1498076521 0.2400407247 0.0573797226 0.1226983062 0.3322310999 0.4254466293 0.2571891622
END
