33D32945 STP File, STP Format Version 1.0

SECTION Comments
Name "cube_n14_d8_s49"
Problem "Euclidean Steiner Tree Problem"
Remark "Generated with STPGenerator. 8 dimensions."
END

SECTION Graph
Nodes 14
END

SECTION Coordinates
DDDDDDDD 0 0.0418115836 0.2200377310 0.3087208249 0.1629512739 0.7427612197 0.2952385462 0.6634417692 0.9268148322
DDDDDDDD 1 0.4391896513 0.6174133409 0.9290067493 0.8974420614 0.6268771643 0.9956121147 0.5463564538 0.9780446412
DDDDDDDD 2 0.8501515877 0.8986921589 0.4174514107 0.3731905494 0.4855085041 0.3490163122 0.8709676535 0.6129136903
DDDDDDDD 3 0.1817772687 0.4070928839 0.1923376211 0.4982240295 0.9403857789 0.7748197265 0.0876867548 0.9821973629
DDDDDDDD 4 0.9948574575 0.3964075797 0.1451486364 0.7376186767 0.6916461264 0.8085904055 0.6644335085 0.1308357772
DDDDDDDD 5 0.4260037464 0.5934402573 0.0282778386 0.0528809102 0.5890523720 0.5746342924 0.0309255510 0.4392039592
DDDDDDDD 6 0.4733264509 0.4483769622 0.8123945090 0.9588349550 0.7973932744 0.6833621621 0.5717486453 0.9791705431
DDDDDDDD 7 0.0904550455 0.7640862664 0.4773945722 0.0308408244 0.5389059924 0.5650813270 0.0130381868 0.5337634494
DDDDDDDD 8 0.9614889072 0.1581868232 0.2713821262 0.6531350332 0.9667772287 0.9358156346 0.7839708104 0.3927809747
DDDDDDDD 9 0.5292558919 0.8122486490 0.4456618849 0.1183082634 0.3868829414 0.4765874364 0.5575122226 0.8602093923
DDDDDDDD 10 0.9249643986 0.3699067311 0.8190443473 0.7223576725 0.0532688927 0.3907929921 0.7015282152 0.1437239387
DDDDDDDD 11 0.1548792581 0.1789227869 0.1745647631 0.6937852505 0.7440041139 0.1876029499 0.2275486995 0.7054930207
DDDDDDDD 12 0.3457897731 0.4989308256 0.3586280534 0.3125670014 0.4347464603 0.1425988638 0.7053479765 0.9640023522
DDDDDDDD 13 0.9548475127 0.1510098610 0.0823106151 0.3417304537 0.6275972974 0.6398228377 0.2019398460 0.5525616955
END
