33D32945 STP File, STP Format Version 1.0

SECTION Comments
Name "cube_n7_d4_s18"
Problem "Euclidean Steiner Tree Problem"
Remark "Generated with STPGenerator. 4 dimensions."
END

SECTION Graph
Nodes 7
END

SECTION Coordinates
DDDD 0 0.9290727782 0.9129959489 0.9238626137 0.2359872904
DDDD 1 0.7857724450 0.9465178470 0.9674219824 0.2784534135
DDDD 2 0.4652112594 0.4872422654 0.1321992586 0.3741906497
DDDD 3 0.6797411119 0.8863195306 0.8013723990 0.2213446718
DDDD 4 0.2145956132 0.2002614784 0.9167352235 0.3484674186
DDDD 5 0.7351341866 0.9038881473 0.5736667344 0.0998372487
DDDD 6 0.0471116267 0.0357322353 0.1799209691 0.9172431221
END
