33D32945 STP File, STP Format Version 1.0

SECTION Comments
Name "cube_n7_d4_s23"
Problem "Euclidean Steiner Tree Problem"
Remark "Generated with STPGenerator. 4 dimensions."
END

SECTION Graph
Nodes 7
END

SECTION Coordinates
DDDD 0 0.7275817463 0.4842158102 0.9432684327 0.3444002356
DDDD 1 0.4630026335 0.5578971945 0.2818813474 0.2621717841
DDDD 2 0.5012496633 0.9217083640 0.6899727819 0.1938467460
DDDD 3 0.6994581058 0.1578644305 0.7714722398 0.0351164541
DDDD 4 0.1380414735 0.5359635696 0.9014610839 0.1763991002
DDDD 5 0.6140612409 0.9471684238 0.6104576749 0.9758801474
DDDD 6 0.7212583640 0.4597480886 0.2531977060 0.9255737224
END
