33D32945 STP File, STP Format Version 1.0

SECTION Comments
Name "cube_n7_d4_s28"
Problem "Euclidean Steiner Tree Problem"
Remark "Generated with STPGenerator. 4 dimensions."
END

SECTION Graph
Nodes 7
END

SECTION Coordinates
DDDD 0 0.5171551050 0.0449436945 0.4524295369 0.4422129730
DDDD 1 0.1277577337 0.1569511728 0.0837527169 0.7310733133
DDDD 2 0.0224596341 0.3412099454 0.2301648130 0.4956663146
DDDD 3 0.7013661609 0.4085638460 0.7201248397 0.8276713341
DDDD 4 0.0367873907 0.8458900362 0.8608830030 0.4750771162
DDDD 5 0.9620311726 0.9602391431 0.1126118736 0.8147720088
DDDD 6 0.3593030024 0.8427590313 0.2819298144 0.8907198030
END
