33D32945 STP File, STP Format Version 1.0

SECTION Comments
Name "cube_n7_d4_s44"
Problem "Euclidean Steiner Tree Problem"
Remark "Generated with STPGenerator. 4 dimensions."
END

SECTION Graph
Nodes 7
END

SECTION Coordinates
DDDD 0 0.7497371406 0.6546126439 0.7923043043 0.0619196091
DDDD 1 0.0727788904 0.1874291036 0.8574096602 0.9521014504
DDDD 2 0.4074837125 0.1925271313 0.3823489777 0.5831195775
DDDD 3 0.1180090462 0.7377023845 0.5829005281 0.1765204129
DDDD 4 0.4433295240 0.5713405118 0.4465203399 0.0654066005
DDDD 5 0.1171411286 0.3212535252 0.8584552788 0.7502715582
DDDD 6 0.0250844127 0.5121703011 0.1360900286 0.5095511137
END
