33D32945 STP File, STP Format Version 1.0

SECTION Comments
Name "cube_n7_d4_s48"
Problem "Euclidean Steiner Tree Problem"
Remark "Generated with STPGenerator. 4 dimensions."
END

SECTION Graph
Nodes 7
END

SECTION Coordinates
DDDD 0 0.6838657743 0.3087545369 0.0063704299 0.3432311920
DDDD 1 0.8108547613 0.5749283333 0.3027468763 0.1342774458
DDDD 2 0.6345026189 0.0329879546 0.4224220134 0.7367339450
DDDD 3 0.2257205198 0.9471432748 0.0564415637 0.0184599767
DDDD 4 0.1722892593 0.6367555897 0.2241443257 0.7155450055
DDDD 5 0.4162855211 0.0445806133 0.6728030828 0.7459352001
DDDD 6 0.9519015979 0.4328879981 0.4879451569 0.8024439862
END
