33D32945 STP File, STP Format Version 1.0

SECTION Comments
Name "cube_n6_d3_s25"
Problem "Euclidean Steiner Tree Problem"
Remark "Generated with STPGenerator. 3 dimensions."
END

SECTION Graph
Nodes 6
END

SECTION Coordinates
DDD 0 0.9393561920 0.8057392150 0.0423321780
DDD 1 0.9785602656 0.3255712615 0.9922046186
DDD 2 0.9965749998 0.8456901428 0.1036064635
DDD 3 0.5821549858 0.7011187615 0.5075186931
DDD 4 0.9913254278 0.7521004219 0.7428126711
DDD 5 0.9414201057 0.9901046399 0.0505868262
END
