33D32945 STP File, STP Format Version 1.0

SECTION Comments
Name "cube_n6_d3_s30"
Problem "Euclidean Steiner Tree Problem"
Remark "Generated with STPGenerator. 3 dimensions."
END

SECTION Graph
Nodes 6
END

SECTION Coordinates
DDD 0 0.2299670750 0.8697586934 0.5547460311
DDD 1 0.5776126504 0.9940509931 0.5953307052
DDD 2 0.7999637326 0.8187845688 0.6298717496
DDD 3 0.5035535896 0.7460086135 0.8155644125
DDD 4 0.9956452860 0.5080417518 0.6990755753
DDD 5 0.2370779334 0.3946801244 0.8697485588
END
