33D32945 STP File, STP Format Version 1.0

SECTION Comments
Name "cube_n5_d2_s40"
Problem "Euclidean Steiner Tree Problem"
Remark "Generated with STPGenerator. 2 dimensions."
END

SECTION Graph
Nodes 5
END

SECTION Coordinates
DD 0 0.8194229132 0.5062902763
DD 1 0.0883140588 0.7855343049
DD 2 0.3411775247 0.8119810777
DD 3 0.9184383005 0.2771394566
DD 4 0.1947866791 0.8602793272
END
