33D32945 STP File, STP Format Version 1.0

SECTION Comments
Name "cube_n5_d2_s48"
Problem "Euclidean Steiner Tree Problem"
Remark "Generated with STPGenerator. 2 dimensions."
END

SECTION Graph
Nodes 5
END

SECTION Coordinates
DD 0 0.6838657743 0.3087545369
DD 1 0.0063704299 0.3432311920
DD 2 0.8108547613 0.5749283333
DD 3 0.3027468763 0.1342774458
DD 4 0.6345026189 0.0329879546
END
