33D32945 STP File, STP Format Version 1.0

SECTION Comments
Name "cube_n5_d2_s49"
Problem "Euclidean Steiner Tree Problem"
Remark "Generated with STPGenerator. 2 dimensions."
END

SECTION Graph
Nodes 5
END

SECTION Coordinates
DD 0 0.0418115836 0.2200377310
DD 1 0.3087208249 0.1629512739
DD 2 0.7427612197 0.2952385462
DD 3 0.6634417692 0.9268148322
DD 4 0.4391896513 0.6174133409
END
