33D32945 STP File, STP Format Version 1.0

SECTION Comments
Name "cube_n7_d8_s32"
Problem "Euclidean Steiner Tree Problem"
Remark "Generated with STPGenerator. 8 dimensions."
END

SECTION Graph
Nodes 7
END

SECTION Coordinates
DDDDDDDD 0 0.4496756841 0.6990365287 0.6652369316 0.7215187111 0.8656997224 0.5431189162 0.5266172777 0.9129774263
DDDDDDDD 1 0.7480876026 0.1786557348 0.2697567126 0.1478463012 0.3054385443 0.1172210561 0.1922058562 0.6652606896
DDDDDDDD 2 0.7645411136 0.9098374536 0.1333542867 0.6234359283 0.2597159544 0.6775168025 0.4244183676 0.8089938242
DDDDDDDD 3 0.7790788094 0.2599427934 0.6323595734 0.1754854299 0.8682969659 0.9466707064 0.6167910903 0.3179726495
DDDDDDDD 4 0.6457072346 0.2820280214 0.0394913601 0.5114069565 0.8251469377 0.5661086378 0.4243843828 0.5732345397
DDDDDDDD 5 0.7447643731 0.6941410954 0.7210808409 0.0502029169 0.8113621514 0.9132866975 0.7154636065 0.5759032646
DDDDDDDD 6 0.8231241507 0.8488178932 0.1993391929 0.0828401046 0.5263346953 0.6237575606 0.8918339288 0.3054135047
END
