33D32945 STP File, STP Format Version 1.0

SECTION Comments
Name "cube_n7_d8_s6"
Problem "Euclidean Steiner Tree Problem"
Remark "Generated with STPGenerator. 8 dimensions."
END

SECTION Graph
Nodes 7
END

SECTION Coordinates
DDDDDDDD 0 0.1354387687 0.9625167521 0.7997272130 0.4030091993 0.0851281491 0.8056346727 0.6451566176 0.2473998085
DDDDDDDD 1 0.3098868776 0.9831179767 0.5296626759 0.9438327159 0.8782621500 0.7782872272 0.4166978609 0.2226562315
DDDDDDDD 2 0.5511224272 0.0462225136 0.6177704891 0.4252223039 0.3870529828 0.7761541152 0.6623876005 0.1703382573
DDDDDDDD 3 0.3191112491 0.3110007436 0.6911040380 0.1034285073 0.9779993249 0.8022396713 0.6132100036 0.1134380932
DDDDDDDD 4 0.7647564228 0.4129372162 0.5164472929 0.8498845724 0.2185718884 0.1616039100 0.0972843804 0.5284587664
DDDDDDDD 5 0.1447218867 0.6269470568 0.4722914819 0.0229840363 0.4052342835 0.8889893428 0.2456402682 0.9563567112
DDDDDDDD 6 0.9352118568 0.8634107573 0.3815790147 0.3222648391 0.6395648721 0.0439666151 0.4926030964 0.9586761212
END
