33D32945 STP File, STP Format Version 1.0

SECTION Comments
Name "cube_n14_d6_s2"
Problem "Euclidean Steiner Tree Problem"
Remark "Generated with STPGenerator. 6 dimensions."
END

SECTION Graph
Nodes 14
END

SECTION Coordinates
DDDDDD 0 0.7009763693 0.8096763491 0.0887954552 0.1214791905 0.3483067552 0.4219620016
DDDDDD 1 0.6998054984 0.0663843365 0.5874823525 0.6429663057 0.9906032789 0.2957182840
DDDDDD 2 0.2713367107 0.0696559870 0.9496393790 0.3821752264 0.3227100961 0.9883655114
DDDDDD 3 0.8425220697 0.2753141943 0.5966266629 0.5564203358 0.8479080023 0.1846236713
DDDDDD 4 0.3974697401 0.8897629529 0.8504806137 0.3177298374 0.1029680931 0.0449004877
DDDDDD 5 0.6449911807 0.8039444624 0.8545768367 0.7337866364 0.9254236528 0.2028835920
DDDDDD 6 0.1557486375 0.6252291508 0.2692679284 0.7432309900 0.2681954565 0.2598712068
DDDDDD 7 0.0389492735 0.5395321672 0.3295271938 0.9885886526 0.9217073940 0.6522372899
DDDDDD 8 0.9769541635 0.7642294633 0.9275514842 0.5735808264 0.3206497986 0.7754594864
DDDDDD 9 0.7582044978 0.7181195387 0.6652224388 0.6086851114 0.0358493757 0.7681905319
DDDDDD 10 0.6535855991 0.6808405568 0.5721349938 0.5081624358 0.4146271927 0.4975586461
DDDDDD 11 0.7110460278 0.5703758302 0.1227877969 0.9803139563 0.3136068197 0.3909832534
DDDDDD 12 0.2401851631 0.3525560933 0.9305154206 0.5697123569 0.3411447454 0.8522228142
DDDDDD 13 0.2219496468 0.3180989084 0.6164522775 0.1495011305 0.8916797349 0.9371020761
END
