33D32945 STP File, STP Format Version 1.0

SECTION Comments
Name "cube_n9_d6_s1"
Problem "Euclidean Steiner Tree Problem"
Remark "Generated with STPGenerator. 6 dimensions."
END

SECTION Graph
Nodes 9
END

SECTION Coordinates
DDDDDD 0 0.8401877172 0.3943829268 0.7830992238 0.7984400335 0.9116473579 0.1975513693
DDDDDD 1 0.3352227557 0.7682295948 0.2777747108 0.5539699558 0.4773970519 0.6288709248
DDDDDD 2 0.3647844728 0.5134009102 0.9522297252 0.9161950680 0.6357117280 0.7172969294
DDDDDD 3 0.1416025554 0.6069688763 0.0163005716 0.2428867706 0.1372315768 0.8041767542
DDDDDD 4 0.1566790893 0.4009443942 0.1297904468 0.1088088020 0.9989245180 0.2182569053
DDDDDD 5 0.5129323944 0.8391122347 0.6126398326 0.2960316177 0.6375522677 0.5242871901
DDDDDD 6 0.4935829870 0.9727750239 0.2925167844 0.7713576978 0.5267449792 0.7699138363
DDDDDD 7 0.4002286221 0.8915294520 0.2833147460 0.3524583473 0.8077245200 0.9190264740
DDDDDD 8 0.0697552762 0.9493270754 0.5259953502 0.0860558479 0.1922138460 0.6632269270
END
