33D32945 STP File, STP Format Version 1.0

SECTION Comments
Name "cube_n9_d6_s23"
Problem "Euclidean Steiner Tree Problem"
Remark "Generated with STPGenerator. 6 dimensions."
END

SECTION Graph
Nodes 9
END

SECTION Coordinates
DDDDDD 0 0.7275817463 0.4842158102 0.9432684327 0.3444002356 0.4630026335 0.5578971945
DDDDDD 1 0.2818813474 0.2621717841 0.5012496633 0.9217083640 0.6899727819 0.1938467460
DDDDDD 2 0.6994581058 0.1578644305 0.7714722398 0.0351164541 0.1380414735 0.5359635696
DDDDDD 3 0.9014610839 0.1763991002 0.6140612409 0.9471684238 0.6104576749 0.9758801474
DDDDDD 4 0.7212583640 0.4597480886 0.2531977060 0.9255737224 0.0517316135 0.6330953071
DDDDDD 5 0.5835098287 0.7793133598 0.1173111168 0.5267782610 0.1237135954 0.5803137503
DDDDDD 6 0.0846754555 0.4055949428 0.8424855344 0.5859251188 0.3273033064 0.5324583159
DDDDDD 7 0.7797718648 0.0267614122 0.6903227464 0.5512441045 0.0618778663 0.8283642204
DDDDDD 8 0.0872076736 0.9633389502 0.0047633201 0.7012689145 0.9105073739 0.6152209950
END
