33D32945 STP File, STP Format Version 1.0

SECTION Comments
Name "cube_n13_d6_s37"
Problem "Euclidean Steiner Tree Problem"
Remark "Generated with STPGenerator. 6 dimensions."
END

SECTION Graph
Nodes 13
END

SECTION Coordinates
DDDDDD 0 0.2394123931 0.7611420498 0.1745217923 0.8194240331 0.0320747178 0.6424573714
DDDDDD 1 0.3284930686 0.8837608927 0.2698044499 0.5980566296 0.3121092172 0.4504713320
DDDDDD 2 0.8071258347 0.3703712553 0.6420550997 0.9574638638 0.1660335614 0.7214625924
DDDDDD 3 0.5922896800 0.9251535474 0.6100173786 0.6899730524 0.4298925630 0.1510021729
DDDDDD 4 0.9164035199 0.1465295028 0.1651677811 0.6398503048 0.8193347011 0.9970282237
DDDDDD 5 0.1806596616 0.0587470937 0.7581702730 0.3551814539 0.8781711272 0.7902449909
DDDDDD 6 0.9976388258 0.2066641954 0.6740058836 0.2674432752 0.8047208254 0.9861151008
DDDDDD 7 0.7179146072 0.6118466596 0.3564863561 0.3599697064 0.5693105229 0.5225199175
DDDDDD 8 0.0814322983 0.1616002024 0.4476734644 0.6914496770 0.8515732548 0.8775660274
DDDDDD 9 0.8424518503 0.7679767743 0.0240955297 0.0076196310 0.4078270790 0.8434302308
DDDDDD 10 0.0046478543 0.5884867406 0.9021773249 0.7628181273 0.9436681946 0.7803484517
DDDDDD 11 0.5530631182 0.9413070199 0.9870126471 0.2270690013 0.2087502946 0.7917334720
DDDDDD 12 0.2131841016 0.9266649019 0.4035801312 0.5696704577 0.2866346083 0.9728906541
END
