33D32945 STP File, STP Format Version 1.0

SECTION Comments
Name "cube_n13_d6_s45"
Problem "Euclidean Steiner Tree Problem"
Remark "Generated with STPGenerator. 6 dimensions."
END

SECTION Graph
Nodes 13
END

SECTION Coordinates
DDDDDD 0 0.6089239803 0.0684510521 0.5965783874 0.8830592017 0.0076694484 0.9101628568
DDDDDD 1 0.7197443544 0.7481080414 0.2152077799 0.2788681999 0.3929495487 0.2476127913
DDDDDD 2 0.5214306472 0.2908011355 0.0775070079 0.6388154154 0.6265101371 0.8390606664
DDDDDD 3 0.1431079023 0.7291413614 0.1934557334 0.1297003627 0.0635728929 0.1258999995
DDDDDD 4 0.2599066302 0.4942982874 0.8509792596 0.7114720651 0.5752755346 0.0176147758
DDDDDD 5 0.6174002712 0.1841995149 0.0860658279 0.2139786585 0.0672587161 0.0937352763
DDDDDD 6 0.1241415148 0.7870030705 0.8418433177 0.3393492947 0.0658712699 0.2347928664
DDDDDD 7 0.5869620864 0.5873019176 0.5255940019 0.6644690943 0.2261173326 0.1521041385
DDDDDD 8 0.5035297603 0.3692252349 0.8812454999 0.6969854937 0.4989255976 0.9448183928
DDDDDD 9 0.8228854932 0.7588322278 0.4391166803 0.6738647528 0.4703042924 0.0143922144
DDDDDD 10 0.6914795286 0.0877045631 0.1985917293 0.7775453570 0.3016832216 0.2658504454
DDDDDD 11 0.8712806333 0.4258247364 0.0528535154 0.7131239510 0.7651740316 0.1187247858
DDDDDD 12 0.9479168174 0.3521361176 0.7060267034 0.4735108188 0.0166052114 0.9321440360
END
