33D32945 STP File, STP Format Version 1.0

SECTION Comments
Name "cube_n13_d6_s49"
Problem "Euclidean Steiner Tree Problem"
Remark "Generated with STPGenerator. 6 dimensions."
END

SECTION Graph
Nodes 13
END

SECTION Coordinates
DDDDDD 0 0.0418115836 0.2200377310 0.3087208249 0.1629512739 0.7427612197 0.2952385462
DDDDDD 1 0.6634417692 0.9268148322 0.4391896513 0.6174133409 0.9290067493 0.8974420614
DDDDDD 2 0.6268771643 0.9956121147 0.5463564538 0.9780446412 0.8501515877 0.8986921589
DDDDDD 3 0.4174514107 0.3731905494 0.4855085041 0.3490163122 0.8709676535 0.6129136903
DDDDDD 4 0.1817772687 0.4070928839 0.1923376211 0.4982240295 0.9403857789 0.7748197265
DDDDDD 5 0.0876867548 0.9821973629 0.9948574575 0.3964075797 0.1451486364 0.7376186767
DDDDDD 6 0.6916461264 0.8085904055 0.6644335085 0.1308357772 0.4260037464 0.5934402573
DDDDDD 7 0.0282778386 0.0528809102 0.5890523720 0.5746342924 0.0309255510 0.4392039592
DDDDDD 8 0.4733264509 0.4483769622 0.8123945090 0.9588349550 0.7973932744 0.6833621621
DDDDDD 9 0.5717486453 0.9791705431 0.0904550455 0.7640862664 0.4773945722 0.0308408244
DDDDDD 10 0.5389059924 0.5650813270 0.0130381868 0.5337634494 0.9614889072 0.1581868232
DDDDDD 11 0.2713821262 0.6531350332 0.9667772287 0.9358156346 0.7839708104 0.3927809747
DDDDDD 12 0.5292558919 0.8122486490 0.4456618849 0.1183082634 0.3868829414 0.4765874364
END
