33D32945 STP File, STP Format Version 1.0

SECTION Comments
Name "cube_n9_d3_s14"
Problem "Euclidean Steiner Tree Problem"
Remark "Generated with STPGenerator. 3 dimensions."
END

SECTION Graph
Nodes 9
END

SECTION Coordinates
DDD 0 0.9994984996 0.2633149048 0.2158478607
DDD 1 0.4602220480 0.0529571777 0.5661688692
DDD 2 0.0288339364 0.6024998616 0.7466238550
DDD 3 0.6549854328 0.0995092923 0.7305007729
DDD 4 0.5819886180 0.1856662101 0.8394953780
DDD 5 0.3914754770 0.4961270823 0.6485379798
DDD 6 0.1537148399 0.2108905191 0.9520467748
DDD 7 0.6981957097 0.2743996956 0.1229939042
DDD 8 0.1415459719 0.6331634999 0.8501201872
END
