33D32945 STP File, STP Format Version 1.0

SECTION Comments
Name "cube_n9_d3_s20"
Problem "Euclidean Steiner Tree Problem"
Remark "Generated with STPGenerator. 3 dimensions."
END

SECTION Graph
Nodes 9
END

SECTION Coordinates
DDD 0 0.1488122675 0.7401193766 0.5311698176
DDD 1 0.3798184727 0.6551358368 0.3903584468
DDD 2 0.6938135543 0.3702549456 0.5785871486
DDD 3 0.6617850073 0.1534811920 0.2006002349
DDD 4 0.4885317048 0.9929940151 0.7874475535
DDD 5 0.1478928184 0.0819520862 0.2319531549
DDD 6 0.3117739127 0.1775910422 0.3833652220
DDD 7 0.0224110372 0.9863731647 0.8460247199
DDD 8 0.0179714379 0.5034501541 0.1039613784
END
