33D32945 STP File, STP Format Version 1.0

SECTION Comments
Name "cube_n9_d3_s24"
Problem "Euclidean Steiner Tree Problem"
Remark "Generated with STPGenerator. 3 dimensions."
END

SECTION Graph
Nodes 9
END

SECTION Coordinates
DDD 0 0.0877142293 0.8987790253 0.2479340957
DDD 1 0.6666313995 0.8988103708 0.2810884273
DDD 2 0.6454682083 0.0593314241 0.8095185197
DDD 3 0.5094773627 0.2020136715 0.8590005528
DDD 4 0.1044992358 0.7127510368 0.2668925339
DDD 5 0.4992394254 0.8234275756 0.3046993158
DDD 6 0.1001034840 0.3428378414 0.1916555726
DDD 7 0.7579178944 0.3188702512 0.3531317987
DDD 8 0.4586557506 0.9458669317 0.9701537522
END
