33D32945 STP File, STP Format Version 1.0

SECTION Comments
Name "cube_n9_d3_s27"
Problem "Euclidean Steiner Tree Problem"
Remark "Generated with STPGenerator. 3 dimensions."
END

SECTION Graph
Nodes 9
END

SECTION Coordinates
DDD 0 0.6598329719 0.1353963139 0.1522402149
DDD 1 0.1232835241 0.6977873504 0.4392972800
DDD 2 0.7240747631 0.4406859998 0.7210137708
DDD 3 0.2581046555 0.7259597377 0.3388851464
DDD 4 0.3019310251 0.3627231598 0.2349354551
DDD 5 0.3703337798 0.8618260598 0.5896025284
DDD 6 0.1705039685 0.3206381841 0.3995182511
DDD 7 0.6596048789 0.9180047749 0.9557145545
DDD 8 0.6343384281 0.3725255692 0.5868318391
END
