33D32945 STP File, STP Format Version 1.0

SECTION Comments
Name "cube_n9_d3_s7"
Problem "Euclidean Steiner Tree Problem"
Remark "Generated with STPGenerator. 3 dimensions."
END

SECTION Graph
Nodes 9
END

SECTION Coordinates
DDD 0 0.4869041394 0.8679774124 0.5925911942
DDD 1 0.2147098403 0.0102265389 0.5148185620
DDD 2 0.9959482527 0.0319323023 0.6015652793
DDD 3 0.0553448466 0.5267799439 0.0893740547
DDD 4 0.7644367087 0.8154919030 0.8889724807
DDD 5 0.1638986730 0.2155044015 0.7876827134
DDD 6 0.7886977730 0.0666457862 0.4325436914
DDD 7 0.0533801331 0.3409319503 0.5098388086
DDD 8 0.0160246850 0.2613700387 0.3636968142
END
