33D32945 STP File, STP Format Version 1.0

SECTION Comments
Name "cube_n5_d3_s1"
Problem "Euclidean Steiner Tree Problem"
Remark "Generated with STPGenerator. 3 dimensions."
END

SECTION Graph
Nodes 5
END

SECTION Coordinates
DDD 0 0.8401877172 0.3943829268 0.7830992238
DDD 1 0.7984400335 0.9116473579 0.1975513693
DDD 2 0.3352227557 0.7682295948 0.2777747108
DDD 3 0.5539699558 0.4773970519 0.6288709248
DDD 4 0.3647844728 0.5134009102 0.9522297252
END
