33D32945 STP File, STP Format Version 1.0

SECTION Comments
Name "cube_n5_d3_s12"
Problem "Euclidean Steiner Tree Problem"
Remark "Generated with STPGenerator. 3 dimensions."
END

SECTION Graph
Nodes 5
END

SECTION Coordinates
DDD 0 0.7856002826 0.4401777473 0.1151188249
DDD 1 0.8235438768 0.6883942167 0.1299254853
DDD 2 0.3111650372 0.5165184259 0.6420080073
DDD 3 0.4910349215 0.0853253426 0.4141814399
DDD 4 0.2860070939 0.0876902482 0.3650377357
END
