33D32945 STP File, STP Format Version 1.0

SECTION Comments
Name "cube_n5_d3_s21"
Problem "Euclidean Steiner Tree Problem"
Remark "Generated with STPGenerator. 3 dimensions."
END

SECTION Graph
Nodes 5
END

SECTION Coordinates
DDD 0 0.5058995711 0.1543681692 0.3336426291
DDD 1 0.6982897980 0.0904165954 0.6112220658
DDD 2 0.0528075560 0.6665685525 0.8844101391
DDD 3 0.2439990897 0.1642170884 0.3632087118
DDD 4 0.3869168281 0.0459364807 0.2802418788
END
