33D32945 STP File, STP Format Version 1.0

SECTION Comments
Name "cube_n5_d3_s3"
Problem "Euclidean Steiner Tree Problem"
Remark "Generated with STPGenerator. 3 dimensions."
END

SECTION Graph
Nodes 5
END

SECTION Coordinates
DDD 0 0.5613801752 0.2249833128 0.3930917794
DDD 1 0.4439383934 0.2850412509 0.1447810513
DDD 2 0.5635544996 0.8646787037 0.8954018363
DDD 3 0.2308046744 0.0040116059 0.4605808875
DDD 4 0.1763232952 0.6261662299 0.9448735988
END
