33D32945 STP File, STP Format Version 1.0

SECTION Comments
Name "cube_n5_d3_s49"
Problem "Euclidean Steiner Tree Problem"
Remark "Generated with STPGenerator. 3 dimensions."
END

SECTION Graph
Nodes 5
END

SECTION Coordinates
DDD 0 0.0418115836 0.2200377310 0.3087208249
DDD 1 0.1629512739 0.7427612197 0.2952385462
DDD 2 0.6634417692 0.9268148322 0.4391896513
DDD 3 0.6174133409 0.9290067493 0.8974420614
DDD 4 0.6268771643 0.9956121147 0.5463564538
END
