33D32945 STP File, STP Format Version 1.0

SECTION Comments
Name "cube_n5_d9_s26"
Problem "Euclidean Steiner Tree Problem"
Remark "Generated with STPGenerator. 9 dimensions."
END

SECTION Graph
Nodes 5
END

SECTION Coordinates
DDDDDDDDD 0 0.7955457819 0.2153102822 0.3426214272 0.2961611940 0.2554381654 0.7100804400 0.8547150078 0.6357949691 0.4054190886
DDDDDDDDD 1 0.6635035848 0.7047985609 0.1648330605 0.8887816281 0.2970957897 0.7287201051 0.3965607492 0.6638084062 0.3077898539
DDDDDDDDD 2 0.4603446049 0.1393605741 0.3061093089 0.3350736878 0.6921740634 0.5593727015 0.8804080379 0.3659706252 0.3468769250
DDDDDDDDD 3 0.9765705247 0.2916780218 0.0321567464 0.8889940641 0.0872238032 0.2474670286 0.2316154909 0.3833849972 0.5029051940
DDDDDDDDD 4 0.9416959309 0.2381000050 0.1387001626 0.3471150195 0.9016035897 0.8434987240 0.5119480800 0.7903852178 0.1405945132
END
