33D32945 STP File, STP Format Version 1.0

SECTION Comments
Name "cube_n5_d9_s6"
Problem "Euclidean Steiner Tree Problem"
Remark "Generated with STPGenerator. 9 dimensions."
END

SECTION Graph
Nodes 5
END

SECTION Coordinates
DDDDDDDDD 0 0.1354387687 0.9625167521 0.7997272130 0.4030091993 0.0851281491 0.8056346727 0.6451566176 0.2473998085 0.3098868776
DDDDDDDDD 1 0.9831179767 0.5296626759 0.9438327159 0.8782621500 0.7782872272 0.4166978609 0.2226562315 0.5511224272 0.0462225136
DDDDDDDDD 2 0.6177704891 0.4252223039 0.3870529828 0.7761541152 0.6623876005 0.1703382573 0.3191112491 0.3110007436 0.6911040380
DDDDDDDDD 3 0.1034285073 0.9779993249 0.8022396713 0.6132100036 0.1134380932 0.7647564228 0.4129372162 0.5164472929 0.8498845724
DDDDDDDDD 4 0.2185718884 0.1616039100 0.0972843804 0.5284587664 0.1447218867 0.6269470568 0.4722914819 0.0229840363 0.4052342835
END
