33D32945 STP File, STP Format Version 1.0

SECTION Comments
Name "cube_n5_d9_s7"
Problem "Euclidean Steiner Tree Problem"
Remark "Generated with STPGenerator. 9 dimensions."
END

SECTION Graph
Nodes 5
END

SECTION Coordinates
DDDDDDDDD 0 0.4869041394 0.8679774124 0.5925911942 0.2147098403 0.0102265389 0.5148185620 0.9959482527 0.0319323023 0.6015652793
DDDDDDDDD 1 0.0553448466 0.5267799439 0.0893740547 0.7644367087 0.8154919030 0.8889724807 0.1638986730 0.2155044015 0.7876827134
DDDDDDDDD 2 0.7886977730 0.0666457862 0.4325436914 0.0533801331 0.3409319503 0.5098388086 0.0160246850 0.2613700387 0.3636968142
DDDDDDDDD 3 0.7594234276 0.0359230940 0.0724071777 0.1815535189 0.5228272334 0.9403845905 0.7741447132 0.7375370742 0.9506111294
DDDDDDDDD 4 0.2889632747 0.7334853265 0.9825434321 0.8905285545 0.7888301731 0.5093233755 0.9799026092 0.5532668813 0.3248152781
END
