33D32945 STP File, STP Format Version 1.0

SECTION Comments
Name "cube_n8_d3_s10"
Problem "Euclidean Steiner Tree Problem"
Remark "Generated with STPGenerator. 3 dimensions."
END

SECTION Graph
Nodes 8
END

SECTION Coordinates
DDD 0 0.5658107323 0.6109299178 0.5057680786
DDD 1 0.1796468744 0.8166862739 0.1834716542
DDD 2 0.5846529620 0.4221560766 0.0253341845
DDD 3 0.3162595943 0.0612761933 0.0836590180
DDD 4 0.9767909204 0.9780582851 0.8738890034
DDD 5 0.0530768098 0.2689884604 0.0923382296
DDD 6 0.8809632025 0.5625731631 0.6635139085
DDD 7 0.9814409283 0.9619104471 0.1394470134
END
