33D32945 STP File, STP Format Version 1.0

SECTION Comments
Name "cube_n8_d3_s48"
Problem "Euclidean Steiner Tree Problem"
Remark "Generated with STPGenerator. 3 dimensions."
END

SECTION Graph
Nodes 8
END

SECTION Coordinates
DDD 0 0.6838657743 0.3087545369 0.0063704299
DDD 1 0.3432311920 0.8108547613 0.5749283333
DDD 2 0.3027468763 0.1342774458 0.6345026189
DDD 3 0.0329879546 0.4224220134 0.7367339450
DDD 4 0.2257205198 0.9471432748 0.0564415637
DDD 5 0.0184599767 0.1722892593 0.6367555897
DDD 6 0.2241443257 0.7155450055 0.4162855211
DDD 7 0.0445806133 0.6728030828 0.7459352001
END
